Lab 2/ALL0018/F0018FFT.CSV

Record Length,1.024000e+03,,          0.00000,  -4.58970,
Sample Interval,4.932134e+01,,         49.32134,  -1.78970,
Trigger Point,-0.000000000000e+00,,         98.64268,  -8.58970,
,,,        147.96402, -45.38970,
,,,        197.28535, -47.78970,
,,,        246.60669, -49.38970,
Source,FFT,,        295.92803, -52.98970,
Vertical Units,dB,,        345.24937, -54.98970,
Vertical Scale,1.000000e+01,,        394.57071, -54.98970,
Vertical Offset,0.000000e+00,,        443.89205, -56.18970,
Horizontal Units,Hz,,        493.21338, -55.38970,
Horizontal Scale,5.050505e+03,,        542.53472, -53.38970,
Pt Fmt,Y,,        591.85606, -52.18970,
Yzero,-2.698970e+01,,        641.17740, -53.38970,
Probe Atten,1.000000e+00,,        690.49874, -55.38970,
Model Number,TBS1072B-EDU,,        739.82008, -46.98970,
Serial Number,C012918,,        789.14141, -66.98970,
Firmware Version,FV:v4.06,,        838.46275, -34.58970,
,,,887.78409, -16.58970,
,,,937.10543,  -6.58970,
,,,986.42677,  -5.38970,
,,,1035.74811,  -5.38970,
,,,1085.06945,  -9.78970,
,,,1134.39079, -30.58970,
,,,1183.71213, -39.78970,
,,,1233.03347, -48.98970,
,,,1282.35481, -50.58970,
,,,1331.67615, -50.18970,
,,,1380.99749, -55.38970,
,,,1430.31883, -54.98970,
,,,1479.64017, -54.58970,
,,,1528.96151, -54.58970,
,,,1578.28285, -53.38970,
,,,1627.60419, -52.58970,
,,,1676.92553, -60.58970,
,,,1726.24687, -48.98970,
,,,1775.56821, -56.18970,
,,,1824.88955, -37.38970,
,,,1874.21089, -24.18970,
,,,1923.53223,  -9.78970,
,,,1972.85357,  -7.38970,
,,,2022.17491,  -7.38970,
,,,2071.49625,  -9.78970,
,,,2120.81759, -22.98970,
,,,2170.13893, -38.58970,
,,,2219.46027, -45.78970,
,,,2268.78161, -53.38970,
,,,2318.10295, -48.18970,
,,,2367.42429, -56.18970,
,,,2416.74563, -54.58970,
,,,2466.06697, -54.98970,
,,,2515.38831, -55.38970,
,,,2564.70965, -54.58970,
,,,2614.03099, -52.18970,
,,,2663.35233, -53.38970,
,,,2712.67367, -49.78970,
,,,2761.99501, -51.38970,
,,,2811.31635, -47.78970,
,,,2860.63769, -35.78970,
,,,2909.95903, -15.38970,
,,,2959.28037, -10.98970,
,,,3008.60171, -10.58970,
,,,3057.92305, -11.78970,
,,,3107.24439, -20.58970,
,,,3156.56573, -41.78970,
,,,3205.88707, -45.78970,
,,,3255.20841, -60.58970,
,,,3304.52975, -51.38970,
,,,3353.85109, -53.38970,
,,,3403.17243, -52.98970,
,,,3452.49377, -52.18970,
,,,3501.81511, -54.98970,
,,,3551.13645, -54.58970,
,,,3600.45779, -54.98970,
,,,3649.77913, -52.18970,
,,,3699.10047, -49.78970,
,,,3748.42181, -47.38970,
,,,3797.74315, -47.38970,
,,,3847.06449, -48.58970,
,,,3896.38583, -24.58970,
,,,3945.70717, -18.18970,
,,,3995.02851, -17.78970,
,,,4044.34985, -17.78970,
,,,4093.67119, -23.38970,
,,,4142.99253, -41.38970,
,,,4192.31387, -46.58970,
,,,4241.63521, -49.78970,
,,,4290.95655, -54.58970,
,,,4340.27789, -57.38970,
,,,4389.59923, -54.98970,
,,,4438.92057, -54.98970,
,,,4488.24191, -51.78970,
,,,4537.56325, -52.98970,
,,,4586.88459, -56.18970,
,,,4636.20593, -56.18970,
,,,4685.52727, -51.78970,
,,,4734.84861, -49.38970,
,,,4784.16995, -46.98970,
,,,4833.49129, -46.58970,
,,,4882.81263, -44.58970,
,,,4932.13397, -44.58970,
,,,4981.45531, -54.58970,
,,,5030.77665, -47.38970,
,,,5080.09799, -42.58970,
,,,5129.41933, -44.18970,
,,,5178.74067, -47.38970,
,,,5228.06201, -49.38970,
,,,5277.38335, -51.78970,
,,,5326.70469, -54.58970,
,,,5376.02603, -58.58970,
,,,5425.34737, -57.38970,
,,,5474.66871, -54.98970,
,,,5523.99005, -53.38970,
,,,5573.31139, -54.98970,
,,,5622.63273, -56.18970,
,,,5671.95407, -56.18970,
,,,5721.27541, -52.98970,
,,,5770.59675, -50.58970,
,,,5819.91809, -42.98970,
,,,5869.23943, -39.78970,
,,,5918.56077, -24.18970,
,,,5967.88211, -20.98970,
,,,6017.20345, -20.98970,
,,,6066.52479, -23.38970,
,,,6115.84613, -37.38970,
,,,6165.16747, -44.18970,
,,,6214.48881, -50.58970,
,,,6263.81015, -48.98970,
,,,6313.13149, -51.38970,
,,,6362.45283, -52.98970,
,,,6411.77417, -54.98970,
,,,6461.09551, -56.18970,
,,,6510.41685, -54.98970,
,,,6559.73819, -54.98970,
,,,6609.05953, -52.58970,
,,,6658.38087, -53.38970,
,,,6707.70221, -51.38970,
,,,6757.02355, -53.38970,
,,,6806.34489, -46.58970,
,,,6855.66623, -42.58970,
,,,6904.98757, -23.38970,
,,,6954.30891, -18.58970,
,,,7003.63025, -18.18970,
,,,7052.95159, -18.98970,
,,,7102.27293, -27.38970,
,,,7151.59427, -44.18970,
,,,7200.91561, -49.78970,
,,,7250.23695, -50.58970,
,,,7299.55829, -50.58970,
,,,7348.87963, -52.18970,
,,,7398.20097, -52.98970,
,,,7447.52231, -55.38970,
,,,7496.84365, -55.38970,
,,,7546.16499, -54.98970,
,,,7595.48633, -54.98970,
,,,7644.80767, -53.38970,
,,,7694.12901, -52.18970,
,,,7743.45035, -51.78970,
,,,7792.77169, -50.98970,
,,,7842.09303, -47.38970,
,,,7891.41437, -27.38970,
,,,7940.73571, -20.18970,
,,,7990.05705, -19.38970,
,,,8039.37839, -19.38970,
,,,8088.69973, -24.98970,
,,,8138.02107, -41.38970,
,,,8187.34241, -50.98970,
,,,8236.66375, -52.98970,
,,,8285.98509, -56.18970,
,,,8335.30643, -54.58970,
,,,8384.62777, -53.38970,
,,,8433.94911, -54.98970,
,,,8483.27045, -57.38970,
,,,8532.59179, -57.78970,
,,,8581.91313, -61.38970,
,,,8631.23447, -54.58970,
,,,8680.55581, -52.98970,
,,,8729.87715, -51.38970,
,,,8779.19849, -50.18970,
,,,8828.51983, -53.38970,
,,,8877.84117, -35.78970,
,,,8927.16251, -25.78970,
,,,8976.48385, -24.18970,
,,,9025.80519, -24.18970,
,,,9075.12653, -26.98970,
,,,9124.44787, -37.78970,
,,,9173.76921, -46.58970,
,,,9223.09055, -48.18970,
,,,9272.41189, -54.98970,
,,,9321.73323, -57.38970,
,,,9371.05457, -57.38970,
,,,9420.37591, -58.58970,
,,,9469.69725, -55.38970,
,,,9519.01859, -54.98970,
,,,9568.33993, -54.58970,
,,,9617.66127, -55.38970,
,,,9666.98261, -51.78970,
,,,9716.30395, -49.38970,
,,,9765.62529, -48.18970,
,,,9814.94663, -46.18970,
,,,9864.26797, -43.38970,
,,,9913.58931, -42.98970,
,,,9962.91065, -50.18970,
,,,10012.23199, -51.38970,
,,,10061.55333, -43.38970,
,,,10110.87467, -42.98970,
,,,10160.19601, -44.98970,
,,,10209.51735, -47.38970,
,,,10258.83869, -50.58970,
,,,10308.16003, -53.38970,
,,,10357.48137, -56.18970,
,,,10406.80271, -57.38970,
,,,10456.12405, -54.58970,
,,,10505.44539, -52.58970,
,,,10554.76673, -53.38970,
,,,10604.08807, -52.98970,
,,,10653.40941, -56.18970,
,,,10702.73075, -54.58970,
,,,10752.05209, -51.78970,
,,,10801.37343, -46.98970,
,,,10850.69477, -43.38970,
,,,10900.01611, -32.58970,
,,,10949.33745, -26.58970,
,,,10998.65879, -26.18970,
,,,11047.98013, -27.38970,
,,,11097.30147, -36.58970,
,,,11146.62281, -46.98970,
,,,11195.94415, -49.38970,
,,,11245.26549, -49.38970,
,,,11294.58683, -50.18970,
,,,11343.90817, -51.78970,
,,,11393.22951, -53.38970,
,,,11442.55085, -54.98970,
,,,11491.87219, -56.18970,
,,,11541.19353, -53.38970,
,,,11590.51487, -54.98970,
,,,11639.83621, -54.98970,
,,,11689.15755, -54.58970,
,,,11738.47889, -52.58970,
,,,11787.80023, -50.98970,
,,,11837.12157, -43.78970,
,,,11886.44291, -32.18970,
,,,11935.76425, -23.78970,
,,,11985.08559, -22.58970,
,,,12034.40693, -22.98970,
,,,12083.72827, -28.18970,
,,,12133.04961, -44.18970,
,,,12182.37095, -48.58970,
,,,12231.69229, -49.78970,
,,,12281.01363, -50.18970,
,,,12330.33497, -50.98970,
,,,12379.65631, -54.98970,
,,,12428.97765, -57.38970,
,,,12478.29899, -58.58970,
,,,12527.62033, -60.58970,
,,,12576.94167, -57.38970,
,,,12626.26301, -54.98970,
,,,12675.58435, -52.18970,
,,,12724.90569, -50.58970,
,,,12774.22703, -52.18970,
,,,12823.54837, -48.98970,
,,,12872.86971, -36.98970,
,,,12922.19105, -25.38970,
,,,12971.51239, -23.38970,
,,,13020.83373, -23.38970,
,,,13070.15507, -26.18970,
,,,13119.47641, -37.38970,
,,,13168.79775, -45.78970,
,,,13218.11909, -48.98970,
,,,13267.44043, -55.38970,
,,,13316.76177, -54.98970,
,,,13366.08311, -54.98970,
,,,13415.40445, -53.38970,
,,,13464.72579, -53.38970,
,,,13514.04713, -55.38970,
,,,13563.36847, -54.98970,
,,,13612.68981, -56.18970,
,,,13662.01115, -54.58970,
,,,13711.33249, -52.18970,
,,,13760.65383, -49.78970,
,,,13809.97517, -50.58970,
,,,13859.29651, -44.18970,
,,,13908.61785, -31.38970,
,,,13957.93919, -28.18970,
,,,14007.26053, -28.18970,
,,,14056.58187, -28.98970,
,,,14105.90321, -35.78970,
,,,14155.22455, -44.58970,
,,,14204.54589, -46.18970,
,,,14253.86723, -50.58970,
,,,14303.18857, -50.58970,
,,,14352.50991, -51.78970,
,,,14401.83125, -52.58970,
,,,14451.15259, -51.78970,
,,,14500.47393, -53.38970,
,,,14549.79527, -54.98970,
,,,14599.11661, -56.18970,
,,,14648.43795, -54.98970,
,,,14697.75929, -52.18970,
,,,14747.08063, -50.18970,
,,,14796.40197, -46.98970,
,,,14845.72331, -46.18970,
,,,14895.04465, -44.18970,
,,,14944.36599, -48.58970,
,,,14993.68733, -57.78970,
,,,15043.00867, -43.78970,
,,,15092.33001, -41.78970,
,,,15141.65135, -44.58970,
,,,15190.97269, -46.98970,
,,,15240.29403, -49.38970,
,,,15289.61537, -51.38970,
,,,15338.93671, -55.38970,
,,,15388.25805, -54.98970,
,,,15437.57939, -53.38970,
,,,15486.90073, -54.98970,
,,,15536.22207, -57.78970,
,,,15585.54341, -56.18970,
,,,15634.86475, -57.78970,
,,,15684.18609, -57.38970,
,,,15733.50743, -53.38970,
,,,15782.82877, -50.58970,
,,,15832.15011, -44.58970,
,,,15881.47145, -39.38970,
,,,15930.79279, -30.98970,
,,,15980.11413, -29.38970,
,,,16029.43547, -29.78970,
,,,16078.75681, -35.78970,
,,,16128.07815, -52.18970,
,,,16177.39949, -46.18970,
,,,16226.72083, -48.98970,
,,,16276.04217, -51.38970,
,,,16325.36351, -54.98970,
,,,16374.68485, -57.38970,
,,,16424.00619, -54.98970,
,,,16473.32753, -54.58970,
,,,16522.64887, -53.38970,
,,,16571.97021, -54.58970,
,,,16621.29155, -54.98970,
,,,16670.61289, -54.58970,
,,,16719.93423, -54.98970,
,,,16769.25557, -53.38970,
,,,16818.57691, -44.98970,
,,,16867.89825, -39.78970,
,,,16917.21959, -28.18970,
,,,16966.54093, -25.78970,
,,,17015.86227, -25.78970,
,,,17065.18361, -28.98970,
,,,17114.50495, -41.78970,
,,,17163.82629, -46.98970,
,,,17213.14763, -51.38970,
,,,17262.46897, -51.78970,
,,,17311.79031, -50.58970,
,,,17361.11165, -53.38970,
,,,17410.43299, -54.58970,
,,,17459.75433, -56.18970,
,,,17509.07567, -57.38970,
,,,17558.39701, -55.38970,
,,,17607.71835, -52.98970,
,,,17657.03969, -53.38970,
,,,17706.36103, -51.78970,
,,,17755.68237, -53.38970,
,,,17805.00371, -51.38970,
,,,17854.32505, -44.98970,
,,,17903.64639, -30.18970,
,,,17952.96773, -26.18970,
,,,18002.28907, -26.18970,
,,,18051.61041, -27.38970,
,,,18100.93175, -34.98970,
,,,18150.25309, -43.38970,
,,,18199.57443, -48.98970,
,,,18248.89577, -53.38970,
,,,18298.21711, -53.38970,
,,,18347.53845, -51.78970,
,,,18396.85979, -53.38970,
,,,18446.18113, -54.58970,
,,,18495.50247, -57.38970,
,,,18544.82381, -58.58970,
,,,18594.14515, -54.98970,
,,,18643.46649, -50.58970,
,,,18692.78783, -48.98970,
,,,18742.10917, -48.58970,
,,,18791.43051, -48.18970,
,,,18840.75185, -47.78970,
,,,18890.07319, -36.18970,
,,,18939.39453, -31.38970,
,,,18988.71587, -30.98970,
,,,19038.03721, -30.58970,
,,,19087.35855, -34.58970,
,,,19136.67989, -41.38970,
,,,19186.00123, -46.18970,
,,,19235.32257, -50.18970,
,,,19284.64391, -55.38970,
,,,19333.96525, -57.38970,
,,,19383.28659, -58.58970,
,,,19432.60793, -55.38970,
,,,19481.92927, -56.18970,
,,,19531.25061, -55.38970,
,,,19580.57195, -56.18970,
,,,19629.89329, -56.18970,
,,,19679.21463, -54.98970,
,,,19728.53597, -50.58970,
,,,19777.85731, -47.78970,
,,,19827.17865, -46.98970,
,,,19876.49999, -44.98970,
,,,19925.82133, -46.58970,
,,,19975.14267, -61.38970,
,,,20024.46401, -45.38970,
,,,20073.78535, -41.78970,
,,,20123.10669, -42.98970,
,,,20172.42803, -44.98970,
,,,20221.74937, -48.18970,
,,,20271.07071, -49.78970,
,,,20320.39205, -53.38970,
,,,20369.71339, -57.78970,
,,,20419.03473, -57.78970,
,,,20468.35607, -54.98970,
,,,20517.67741, -53.38970,
,,,20566.99875, -52.18970,
,,,20616.32009, -52.58970,
,,,20665.64143, -52.98970,
,,,20714.96277, -50.58970,
,,,20764.28411, -49.38970,
,,,20813.60545, -44.98970,
,,,20862.92679, -43.38970,
,,,20912.24813, -34.58970,
,,,20961.56947, -31.38970,
,,,21010.89081, -31.78970,
,,,21060.21215, -34.98970,
,,,21109.53349, -58.58970,
,,,21158.85483, -46.58970,
,,,21208.17617, -48.58970,
,,,21257.49751, -47.78970,
,,,21306.81885, -50.18970,
,,,21356.14019, -52.18970,
,,,21405.46153, -52.98970,
,,,21454.78287, -55.38970,
,,,21504.10421, -52.98970,
,,,21553.42555, -51.38970,
,,,21602.74689, -53.38970,
,,,21652.06823, -56.18970,
,,,21701.38957, -52.98970,
,,,21750.71091, -53.38970,
,,,21800.03225, -48.18970,
,,,21849.35359, -44.98970,
,,,21898.67493, -32.98970,
,,,21947.99627, -28.18970,
,,,21997.31761, -27.78970,
,,,22046.63895, -29.38970,
,,,22095.96029, -38.18970,
,,,22145.28163, -45.78970,
,,,22194.60297, -52.98970,
,,,22243.92431, -53.38970,
,,,22293.24565, -52.18970,
,,,22342.56699, -54.98970,
,,,22391.88833, -54.98970,
,,,22441.20967, -60.58970,
,,,22490.53101, -61.38970,
,,,22539.85235, -57.78970,
,,,22589.17369, -54.58970,
,,,22638.49503, -52.18970,
,,,22687.81637, -51.78970,
,,,22737.13771, -50.98970,
,,,22786.45905, -52.58970,
,,,22835.78039, -47.78970,
,,,22885.10173, -35.78970,
,,,22934.42307, -28.98970,
,,,22983.74441, -28.18970,
,,,23033.06575, -28.58970,
,,,23082.38709, -32.98970,
,,,23131.70843, -40.58970,
,,,23181.02977, -47.78970,
,,,23230.35111, -52.58970,
,,,23279.67245, -54.58970,
,,,23328.99379, -55.38970,
,,,23378.31513, -54.58970,
,,,23427.63647, -54.58970,
,,,23476.95781, -57.78970,
,,,23526.27915, -61.38970,
,,,23575.60049, -60.58970,
,,,23624.92183, -55.38970,
,,,23674.24317, -52.18970,
,,,23723.56451, -50.18970,
,,,23772.88585, -51.78970,
,,,23822.20719, -53.38970,
,,,23871.52853, -42.18970,
,,,23920.84987, -34.18970,
,,,23970.17121, -32.98970,
,,,24019.49255, -32.18970,
,,,24068.81389, -33.78970,
,,,24118.13523, -38.98970,
,,,24167.45657, -45.38970,
,,,24216.77791, -48.18970,
,,,24266.09925, -54.58970,
,,,24315.42059, -54.98970,
,,,24364.74193, -54.58970,
,,,24414.06327, -51.78970,
,,,24463.38461, -51.38970,
,,,24512.70595, -52.98970,
,,,24562.02729, -54.98970,
,,,24611.34863, -56.18970,
,,,24660.66997, -54.58970,
,,,24709.99131, -51.78970,
,,,24759.31265, -48.58970,
,,,24808.63399, -47.78970,
,,,24857.95533, -46.18970,
,,,24907.27667, -45.78970,
,,,24956.59801, -60.58970,
,,,25005.91935, -45.78970,
,,,25055.24069, -41.38970,
,,,25104.56203, -41.78970,
,,,25153.88337, -45.38970,
,,,25203.20471, -48.18970,
,,,25252.52605, -50.98970,
,,,25301.84739, -52.98970,
,,,25351.16873, -54.58970,
,,,25400.49007, -54.98970,
,,,25449.81141, -56.18970,
,,,25499.13275, -54.98970,
,,,25548.45409, -53.38970,
,,,25597.77543, -54.98970,
,,,25647.09677, -57.38970,
,,,25696.41811, -57.38970,
,,,25745.73945, -52.58970,
,,,25795.06079, -48.18970,
,,,25844.38213, -44.58970,
,,,25893.70347, -38.58970,
,,,25943.02481, -33.78970,
,,,25992.34615, -33.38970,
,,,26041.66749, -35.38970,
,,,26090.98883, -48.98970,
,,,26140.31017, -46.58970,
,,,26189.63151, -47.78970,
,,,26238.95285, -47.78970,
,,,26288.27419, -48.98970,
,,,26337.59553, -52.18970,
,,,26386.91687, -55.38970,
,,,26436.23821, -55.38970,
,,,26485.55955, -53.38970,
,,,26534.88089, -52.98970,
,,,26584.20223, -51.78970,
,,,26633.52357, -52.58970,
,,,26682.84491, -54.58970,
,,,26732.16625, -51.78970,
,,,26781.48759, -49.78970,
,,,26830.80893, -44.58970,
,,,26880.13027, -37.38970,
,,,26929.45161, -30.58970,
,,,26978.77295, -29.38970,
,,,27028.09429, -30.18970,
,,,27077.41563, -35.38970,
,,,27126.73697, -42.98970,
,,,27176.05831, -48.98970,
,,,27225.37965, -50.58970,
,,,27274.70099, -50.18970,
,,,27324.02233, -51.38970,
,,,27373.34367, -52.98970,
,,,27422.66501, -54.58970,
,,,27471.98635, -57.38970,
,,,27521.30769, -55.38970,
,,,27570.62903, -54.98970,
,,,27619.95037, -51.38970,
,,,27669.27171, -51.78970,
,,,27718.59305, -50.18970,
,,,27767.91439, -53.38970,
,,,27817.23573, -48.58970,
,,,27866.55707, -41.38970,
,,,27915.87841, -32.18970,
,,,27965.19975, -30.18970,
,,,28014.52109, -29.78970,
,,,28063.84243, -32.18970,
,,,28113.16377, -38.18970,
,,,28162.48511, -44.98970,
,,,28211.80645, -49.38970,
,,,28261.12779, -54.58970,
,,,28310.44913, -54.98970,
,,,28359.77047, -53.38970,
,,,28409.09181, -53.38970,
,,,28458.41315, -54.98970,
,,,28507.73449, -58.58970,
,,,28557.05583, -60.58970,
,,,28606.37717, -57.38970,
,,,28655.69851, -52.18970,
,,,28705.01985, -49.38970,
,,,28754.34119, -50.58970,
,,,28803.66253, -51.38970,
,,,28852.98387, -46.98970,
,,,28902.30521, -36.98970,
,,,28951.62655, -34.58970,
,,,29000.94789, -33.78970,
,,,29050.26923, -33.38970,
,,,29099.59057, -36.98970,
,,,29148.91191, -42.98970,
,,,29198.23325, -46.58970,
,,,29247.55459, -52.18970,
,,,29296.87593, -53.38970,
,,,29346.19727, -54.58970,
,,,29395.51861, -55.38970,
,,,29444.83995, -56.18970,
,,,29494.16129, -54.98970,
,,,29543.48263, -53.38970,
,,,29592.80397, -54.98970,
,,,29642.12531, -54.58970,
,,,29691.44665, -53.38970,
,,,29740.76799, -50.98970,
,,,29790.08933, -48.18970,
,,,29839.41067, -46.18970,
,,,29888.73201, -43.38970,
,,,29938.05335, -47.78970,
,,,29987.37469, -50.98970,
,,,30036.69603, -42.18970,
,,,30086.01737, -40.98970,
,,,30135.33871, -43.78970,
,,,30184.66005, -46.58970,
,,,30233.98139, -49.78970,
,,,30283.30273, -51.78970,
,,,30332.62407, -57.38970,
,,,30381.94541, -58.58970,
,,,30431.26675, -57.38970,
,,,30480.58809, -54.98970,
,,,30529.90943, -54.98970,
,,,30579.23077, -53.38970,
,,,30628.55211, -54.58970,
,,,30677.87345, -53.38970,
,,,30727.19479, -51.38970,
,,,30776.51613, -48.18970,
,,,30825.83747, -45.38970,
,,,30875.15881, -42.18970,
,,,30924.48015, -35.78970,
,,,30973.80149, -34.58970,
,,,31023.12283, -35.78970,
,,,31072.44417, -44.58970,
,,,31121.76551, -47.78970,
,,,31171.08685, -46.58970,
,,,31220.40819, -48.18970,
,,,31269.72953, -50.18970,
,,,31319.05087, -52.98970,
,,,31368.37221, -53.38970,
,,,31417.69355, -56.18970,
,,,31467.01489, -57.38970,
,,,31516.33623, -57.38970,
,,,31565.65757, -53.38970,
,,,31614.97891, -52.58970,
,,,31664.30025, -54.58970,
,,,31713.62159, -54.98970,
,,,31762.94293, -50.98970,
,,,31812.26427, -45.78970,
,,,31861.58561, -42.18970,
,,,31910.90695, -32.98970,
,,,31960.22829, -30.98970,
,,,32009.54963, -30.98970,
,,,32058.87097, -34.18970,
,,,32108.19231, -41.78970,
,,,32157.51365, -46.98970,
,,,32206.83499, -52.18970,
,,,32256.15633, -52.58970,
,,,32305.47767, -51.78970,
,,,32354.79901, -52.18970,
,,,32404.12035, -54.58970,
,,,32453.44169, -57.38970,
,,,32502.76303, -60.58970,
,,,32552.08437, -57.38970,
,,,32601.40571, -54.58970,
,,,32650.72705, -53.38970,
,,,32700.04839, -52.58970,
,,,32749.36973, -53.38970,
,,,32798.69107, -50.58970,
,,,32848.01241, -45.38970,
,,,32897.33375, -34.98970,
,,,32946.65509, -31.38970,
,,,32995.97643, -30.58970,
,,,33045.29777, -31.38970,
,,,33094.61911, -36.18970,
,,,33143.94045, -41.78970,
,,,33193.26179, -48.98970,
,,,33242.58313, -54.98970,
,,,33291.90447, -54.58970,
,,,33341.22581, -53.38970,
,,,33390.54715, -53.38970,
,,,33439.86849, -52.98970,
,,,33489.18983, -56.18970,
,,,33538.51117, -58.58970,
,,,33587.83251, -57.38970,
,,,33637.15385, -53.38970,
,,,33686.47519, -50.98970,
,,,33735.79653, -50.18970,
,,,33785.11787, -50.18970,
,,,33834.43921, -50.58970,
,,,33883.76055, -39.78970,
,,,33933.08189, -35.78970,
,,,33982.40323, -34.58970,
,,,34031.72457, -33.38970,
,,,34081.04591, -35.78970,
,,,34130.36725, -40.18970,
,,,34179.68859, -44.98970,
,,,34229.00993, -49.38970,
,,,34278.33127, -53.38970,
,,,34327.65261, -53.38970,
,,,34376.97395, -53.38970,
,,,34426.29529, -54.58970,
,,,34475.61663, -57.38970,
,,,34524.93797, -57.38970,
,,,34574.25931, -56.18970,
,,,34623.58065, -57.38970,
,,,34672.90199, -51.78970,
,,,34722.22333, -49.38970,
,,,34771.54467, -48.98970,
,,,34820.86601, -47.78970,
,,,34870.18735, -44.58970,
,,,34919.50869, -47.78970,
,,,34968.83003, -53.38970,
,,,35018.15137, -42.18970,
,,,35067.47271, -39.78970,
,,,35116.79405, -41.38970,
,,,35166.11539, -44.58970,
,,,35215.43673, -47.38970,
,,,35264.75807, -50.58970,
,,,35314.07941, -51.38970,
,,,35363.40075, -52.58970,
,,,35412.72209, -54.98970,
,,,35462.04343, -54.98970,
,,,35511.36477, -54.98970,
,,,35560.68611, -54.58970,
,,,35610.00745, -55.38970,
,,,35659.32879, -57.78970,
,,,35708.65013, -54.98970,
,,,35757.97147, -50.58970,
,,,35807.29281, -46.18970,
,,,35856.61415, -43.78970,
,,,35905.93549, -38.58970,
,,,35955.25683, -36.18970,
,,,36004.57817, -36.98970,
