Lab 3/ALL0034/F0034FFT.CSV

Record Length,1.024000e+03,,          0.00000,   4.23090,
Sample Interval,2.466067e+01,,         24.66067,   1.03090,
Trigger Point,-0.000000000000e+00,,         49.32134, -60.96910,
,,,         73.98201, -60.96910,
,,,         98.64268, -60.96910,
,,,        123.30335, -56.96910,
Source,FFT,,        147.96402, -60.96910,
Vertical Units,dB,,        172.62468, -60.96910,
Vertical Scale,1.000000e+01,,        197.28535, -59.76910,
Vertical Offset,0.000000e+00,,        221.94602, -60.96910,
Horizontal Units,Hz,,        246.60669, -60.96910,
Horizontal Scale,2.525253e+03,,        271.26736, -60.96910,
Pt Fmt,Y,,        295.92803, -60.96910,
Yzero,-2.096910e+01,,        320.58870, -60.96910,
Probe Atten,1.000000e+00,,        345.24937, -57.76910,
Model Number,TBS1072B-EDU,,        369.91004, -57.36910,
Serial Number,C013385,,        394.57071, -54.56910,
Firmware Version,FV:v4.06,,        419.23138, -46.16910,
,,,443.89205, -34.56910,
,,,468.55272, -13.36910,
,,,493.21339,  -3.36910,
,,,517.87406,  -6.16910,
,,,542.53473, -26.16910,
,,,567.19540, -40.16910,
,,,591.85607, -48.16910,
,,,616.51674, -56.96910,
,,,641.17741, -60.96910,
,,,665.83808, -59.76910,
,,,690.49875, -60.96910,
,,,715.15942, -60.96910,
,,,739.82009, -60.96910,
,,,764.48076, -60.96910,
,,,789.14143, -56.96910,
,,,813.80210, -60.96910,
,,,838.46277, -60.96910,
,,,863.12344, -60.96910,
,,,887.78411, -60.96910,
,,,912.44478, -60.96910,
,,,937.10545, -60.96910,
,,,961.76612, -60.96910,
,,,986.42679, -59.76910,
,,,1011.08746, -57.76910,
,,,1035.74813, -60.96910,
,,,1060.40880, -59.76910,
,,,1085.06947, -60.96910,
,,,1109.73014, -60.96910,
,,,1134.39081, -60.96910,
,,,1159.05148, -60.96910,
,,,1183.71215, -60.96910,
,,,1208.37282, -59.76910,
,,,1233.03349, -60.96910,
,,,1257.69416, -56.96910,
,,,1282.35483, -60.96910,
,,,1307.01550, -60.96910,
,,,1331.67617, -60.96910,
,,,1356.33684, -60.96910,
,,,1380.99751, -60.96910,
,,,1405.65818, -59.76910,
,,,1430.31885, -60.96910,
,,,1454.97952, -60.96910,
,,,1479.64019, -59.76910,
,,,1504.30086, -60.96910,
,,,1528.96153, -60.96910,
,,,1553.62220, -60.96910,
,,,1578.28287, -60.96910,
,,,1602.94354, -59.76910,
,,,1627.60421, -60.96910,
,,,1652.26488, -60.96910,
,,,1676.92555, -60.96910,
,,,1701.58622, -60.96910,
,,,1726.24689, -60.96910,
,,,1750.90756, -60.96910,
,,,1775.56823, -60.96910,
,,,1800.22890, -60.96910,
,,,1824.88957, -60.96910,
,,,1849.55024, -60.96910,
,,,1874.21091, -60.96910,
,,,1898.87158, -60.96910,
,,,1923.53225, -60.96910,
,,,1948.19292, -60.96910,
,,,1972.85359, -60.96910,
,,,1997.51426, -55.76910,
,,,2022.17493, -57.76910,
,,,2046.83560, -60.96910,
,,,2071.49627, -60.96910,
,,,2096.15694, -59.76910,
,,,2120.81761, -59.76910,
,,,2145.47828, -60.96910,
,,,2170.13895, -60.96910,
,,,2194.79962, -59.76910,
,,,2219.46029, -60.96910,
,,,2244.12096, -60.96910,
,,,2268.78163, -60.96910,
,,,2293.44230, -60.96910,
,,,2318.10297, -60.96910,
,,,2342.76364, -60.96910,
,,,2367.42431, -60.96910,
,,,2392.08498, -60.96910,
,,,2416.74565, -60.96910,
,,,2441.40632, -60.96910,
,,,2466.06699, -60.96910,
,,,2490.72766, -60.96910,
,,,2515.38833, -60.96910,
,,,2540.04900, -60.96910,
,,,2564.70967, -60.96910,
,,,2589.37034, -59.76910,
,,,2614.03101, -60.96910,
,,,2638.69168, -60.96910,
,,,2663.35235, -59.76910,
,,,2688.01302, -60.96910,
,,,2712.67369, -59.76910,
,,,2737.33436, -60.96910,
,,,2761.99503, -60.96910,
,,,2786.65570, -60.96910,
,,,2811.31637, -60.96910,
,,,2835.97704, -60.96910,
,,,2860.63771, -59.76910,
,,,2885.29838, -59.76910,
,,,2909.95905, -57.76910,
,,,2934.61972, -60.96910,
,,,2959.28039, -60.96910,
,,,2983.94106, -60.96910,
,,,3008.60173, -60.96910,
,,,3033.26240, -60.96910,
,,,3057.92307, -60.96910,
,,,3082.58374, -60.96910,
,,,3107.24441, -60.96910,
,,,3131.90508, -59.76910,
,,,3156.56575, -59.76910,
,,,3181.22642, -60.96910,
,,,3205.88709, -60.96910,
,,,3230.54776, -60.96910,
,,,3255.20843, -60.96910,
,,,3279.86910, -60.96910,
,,,3304.52977, -60.96910,
,,,3329.19044, -60.96910,
,,,3353.85111, -60.96910,
,,,3378.51178, -60.96910,
,,,3403.17245, -60.96910,
,,,3427.83312, -60.96910,
,,,3452.49379, -60.96910,
,,,3477.15446, -60.96910,
,,,3501.81513, -57.76910,
,,,3526.47580, -59.76910,
,,,3551.13647, -60.96910,
,,,3575.79714, -60.96910,
,,,3600.45781, -60.96910,
,,,3625.11848, -60.96910,
,,,3649.77915, -60.96910,
,,,3674.43982, -60.96910,
,,,3699.10049, -60.96910,
,,,3723.76116, -60.96910,
,,,3748.42183, -60.96910,
,,,3773.08250, -60.96910,
,,,3797.74317, -60.96910,
,,,3822.40384, -60.96910,
,,,3847.06451, -60.96910,
,,,3871.72518, -60.96910,
,,,3896.38585, -60.96910,
,,,3921.04652, -60.96910,
,,,3945.70719, -60.96910,
,,,3970.36786, -60.96910,
,,,3995.02853, -59.76910,
,,,4019.68920, -60.96910,
,,,4044.34987, -60.96910,
,,,4069.01054, -60.96910,
,,,4093.67121, -60.96910,
,,,4118.33188, -60.96910,
,,,4142.99255, -60.96910,
,,,4167.65322, -60.96910,
,,,4192.31389, -60.96910,
,,,4216.97456, -60.96910,
,,,4241.63523, -60.96910,
,,,4266.29590, -60.96910,
,,,4290.95657, -60.96910,
,,,4315.61724, -60.96910,
,,,4340.27791, -60.96910,
,,,4364.93858, -60.96910,
,,,4389.59925, -60.96910,
,,,4414.25992, -60.96910,
,,,4438.92059, -60.96910,
,,,4463.58126, -60.96910,
,,,4488.24193, -59.76910,
,,,4512.90260, -57.76910,
,,,4537.56327, -59.76910,
,,,4562.22394, -60.96910,
,,,4586.88461, -60.96910,
,,,4611.54528, -60.96910,
,,,4636.20595, -60.96910,
,,,4660.86662, -60.96910,
,,,4685.52729, -59.76910,
,,,4710.18796, -59.76910,
,,,4734.84863, -60.96910,
,,,4759.50930, -60.96910,
,,,4784.16997, -60.96910,
,,,4808.83064, -60.96910,
,,,4833.49131, -59.76910,
,,,4858.15198, -54.56910,
,,,4882.81265, -57.76910,
,,,4907.47332, -60.96910,
,,,4932.13399, -60.96910,
,,,4956.79466, -60.96910,
,,,4981.45533, -60.96910,
,,,5006.11600, -60.96910,
,,,5030.77667, -60.96910,
,,,5055.43734, -60.96910,
,,,5080.09801, -60.96910,
,,,5104.75868, -60.96910,
,,,5129.41935, -60.96910,
,,,5154.08002, -60.96910,
,,,5178.74069, -60.96910,
,,,5203.40136, -60.96910,
,,,5228.06203, -60.96910,
,,,5252.72270, -60.96910,
,,,5277.38337, -60.96910,
,,,5302.04404, -59.76910,
,,,5326.70471, -59.76910,
,,,5351.36538, -57.36910,
,,,5376.02605, -55.76910,
,,,5400.68672, -60.96910,
,,,5425.34739, -60.96910,
,,,5450.00806, -60.96910,
,,,5474.66873, -60.96910,
,,,5499.32940, -60.96910,
,,,5523.99007, -60.96910,
,,,5548.65074, -56.96910,
,,,5573.31141, -57.36910,
,,,5597.97208, -60.96910,
,,,5622.63275, -59.76910,
,,,5647.29342, -59.76910,
,,,5671.95409, -60.96910,
,,,5696.61476, -60.96910,
,,,5721.27543, -59.76910,
,,,5745.93610, -56.96910,
,,,5770.59677, -60.96910,
,,,5795.25744, -60.96910,
,,,5819.91811, -60.96910,
,,,5844.57878, -60.96910,
,,,5869.23945, -60.96910,
,,,5893.90012, -60.96910,
,,,5918.56079, -59.76910,
,,,5943.22146, -59.76910,
,,,5967.88213, -60.96910,
,,,5992.54280, -60.96910,
,,,6017.20347, -60.96910,
,,,6041.86414, -60.96910,
,,,6066.52481, -60.96910,
,,,6091.18548, -60.96910,
,,,6115.84615, -60.96910,
,,,6140.50682, -60.96910,
,,,6165.16749, -60.96910,
,,,6189.82816, -60.96910,
,,,6214.48883, -60.96910,
,,,6239.14950, -60.96910,
,,,6263.81017, -60.96910,
,,,6288.47084, -59.76910,
,,,6313.13151, -60.96910,
,,,6337.79218, -60.96910,
,,,6362.45285, -60.96910,
,,,6387.11352, -60.96910,
,,,6411.77419, -59.76910,
,,,6436.43486, -60.96910,
,,,6461.09553, -60.96910,
,,,6485.75620, -60.96910,
,,,6510.41687, -60.96910,
,,,6535.07754, -60.96910,
,,,6559.73821, -60.96910,
,,,6584.39888, -60.96910,
,,,6609.05955, -59.76910,
,,,6633.72022, -59.76910,
,,,6658.38089, -60.96910,
,,,6683.04156, -60.96910,
,,,6707.70223, -60.96910,
,,,6732.36290, -60.96910,
,,,6757.02357, -55.76910,
,,,6781.68424, -60.96910,
,,,6806.34491, -60.96910,
,,,6831.00558, -60.96910,
,,,6855.66625, -60.96910,
,,,6880.32692, -60.96910,
,,,6904.98759, -60.96910,
,,,6929.64826, -60.96910,
,,,6954.30893, -60.96910,
,,,6978.96960, -60.96910,
,,,7003.63027, -60.96910,
,,,7028.29094, -60.96910,
,,,7052.95161, -60.96910,
,,,7077.61228, -60.96910,
,,,7102.27295, -60.96910,
,,,7126.93362, -59.76910,
,,,7151.59429, -59.76910,
,,,7176.25496, -60.96910,
,,,7200.91563, -60.96910,
,,,7225.57630, -60.96910,
,,,7250.23697, -60.96910,
,,,7274.89764, -60.96910,
,,,7299.55831, -60.96910,
,,,7324.21898, -60.96910,
,,,7348.87965, -59.76910,
,,,7373.54032, -60.96910,
,,,7398.20099, -60.96910,
,,,7422.86166, -60.96910,
,,,7447.52233, -60.96910,
,,,7472.18300, -60.96910,
,,,7496.84367, -52.96910,
,,,7521.50434, -55.76910,
,,,7546.16501, -60.96910,
,,,7570.82568, -60.96910,
,,,7595.48635, -60.96910,
,,,7620.14702, -60.96910,
,,,7644.80769, -60.96910,
,,,7669.46836, -60.96910,
,,,7694.12903, -60.96910,
,,,7718.78970, -60.96910,
,,,7743.45037, -60.96910,
,,,7768.11104, -60.96910,
,,,7792.77171, -60.96910,
,,,7817.43238, -60.96910,
,,,7842.09305, -59.76910,
,,,7866.75372, -60.96910,
,,,7891.41439, -60.96910,
,,,7916.07506, -60.96910,
,,,7940.73573, -60.96910,
,,,7965.39640, -60.96910,
,,,7990.05707, -57.36910,
,,,8014.71774, -57.36910,
,,,8039.37841, -60.96910,
,,,8064.03908, -60.96910,
,,,8088.69975, -60.96910,
,,,8113.36042, -60.96910,
,,,8138.02109, -60.96910,
,,,8162.68176, -56.96910,
,,,8187.34243, -60.96910,
,,,8212.00310, -60.96910,
,,,8236.66377, -60.96910,
,,,8261.32444, -60.96910,
,,,8285.98511, -60.96910,
,,,8310.64578, -60.96910,
,,,8335.30645, -60.96910,
,,,8359.96712, -60.96910,
,,,8384.62779, -60.96910,
,,,8409.28846, -60.96910,
,,,8433.94913, -60.96910,
,,,8458.60980, -60.96910,
,,,8483.27047, -60.96910,
,,,8507.93114, -57.76910,
,,,8532.59181, -60.96910,
,,,8557.25248, -60.96910,
,,,8581.91315, -60.96910,
,,,8606.57382, -60.96910,
,,,8631.23449, -60.96910,
,,,8655.89516, -60.96910,
,,,8680.55583, -60.96910,
,,,8705.21650, -60.96910,
,,,8729.87717, -60.96910,
,,,8754.53784, -60.96910,
,,,8779.19851, -59.76910,
,,,8803.85918, -60.96910,
,,,8828.51985, -60.96910,
,,,8853.18052, -60.96910,
,,,8877.84119, -60.96910,
,,,8902.50186, -60.96910,
,,,8927.16253, -60.96910,
,,,8951.82320, -60.96910,
,,,8976.48387, -60.96910,
,,,9001.14454, -59.76910,
,,,9025.80521, -60.96910,
,,,9050.46588, -60.96910,
,,,9075.12655, -60.96910,
,,,9099.78722, -60.96910,
,,,9124.44789, -60.96910,
,,,9149.10856, -60.96910,
,,,9173.76923, -60.96910,
,,,9198.42990, -59.76910,
,,,9223.09057, -60.96910,
,,,9247.75124, -60.96910,
,,,9272.41191, -60.96910,
,,,9297.07258, -60.96910,
,,,9321.73325, -60.96910,
,,,9346.39392, -60.96910,
,,,9371.05459, -60.96910,
,,,9395.71526, -60.96910,
,,,9420.37593, -60.96910,
,,,9445.03660, -60.96910,
,,,9469.69727, -60.96910,
,,,9494.35794, -56.96910,
,,,9519.01861, -56.96910,
,,,9543.67928, -59.76910,
,,,9568.33995, -60.96910,
,,,9593.00062, -60.96910,
,,,9617.66129, -59.76910,
,,,9642.32196, -60.96910,
,,,9666.98263, -59.76910,
,,,9691.64330, -59.76910,
,,,9716.30397, -60.96910,
,,,9740.96464, -60.96910,
,,,9765.62531, -60.96910,
,,,9790.28598, -56.96910,
,,,9814.94665, -57.36910,
,,,9839.60732, -59.76910,
,,,9864.26799, -60.96910,
,,,9888.92866, -60.96910,
,,,9913.58933, -60.96910,
,,,9938.25000, -59.76910,
,,,9962.91067, -60.96910,
,,,9987.57134, -60.96910,
,,,10012.23201, -60.96910,
,,,10036.89268, -60.96910,
,,,10061.55335, -60.96910,
,,,10086.21402, -60.96910,
,,,10110.87469, -60.96910,
,,,10135.53536, -57.36910,
,,,10160.19603, -60.96910,
,,,10184.85670, -60.96910,
,,,10209.51737, -60.96910,
,,,10234.17804, -60.96910,
,,,10258.83871, -60.96910,
,,,10283.49938, -60.96910,
,,,10308.16005, -60.96910,
,,,10332.82072, -60.96910,
,,,10357.48139, -60.96910,
,,,10382.14206, -60.96910,
,,,10406.80273, -60.96910,
,,,10431.46340, -60.96910,
,,,10456.12407, -60.96910,
,,,10480.78474, -60.96910,
,,,10505.44541, -60.96910,
,,,10530.10608, -60.96910,
,,,10554.76675, -60.96910,
,,,10579.42742, -60.96910,
,,,10604.08809, -60.96910,
,,,10628.74876, -60.96910,
,,,10653.40943, -60.96910,
,,,10678.07010, -60.96910,
,,,10702.73077, -60.96910,
,,,10727.39144, -60.96910,
,,,10752.05211, -60.96910,
,,,10776.71278, -60.96910,
,,,10801.37345, -60.96910,
,,,10826.03412, -60.96910,
,,,10850.69479, -60.96910,
,,,10875.35546, -60.96910,
,,,10900.01613, -59.76910,
,,,10924.67680, -60.96910,
,,,10949.33747, -60.96910,
,,,10973.99814, -60.96910,
,,,10998.65881, -60.96910,
,,,11023.31948, -60.96910,
,,,11047.98015, -60.96910,
,,,11072.64082, -60.96910,
,,,11097.30149, -60.96910,
,,,11121.96216, -60.96910,
,,,11146.62283, -60.96910,
,,,11171.28350, -60.96910,
,,,11195.94417, -60.96910,
,,,11220.60484, -60.96910,
,,,11245.26551, -60.96910,
,,,11269.92618, -60.96910,
,,,11294.58685, -60.96910,
,,,11319.24752, -59.76910,
,,,11343.90819, -60.96910,
,,,11368.56886, -60.96910,
,,,11393.22953, -60.96910,
,,,11417.89020, -60.96910,
,,,11442.55087, -60.96910,
,,,11467.21154, -60.96910,
,,,11491.87221, -60.96910,
,,,11516.53288, -59.76910,
,,,11541.19355, -60.96910,
,,,11565.85422, -59.76910,
,,,11590.51489, -60.96910,
,,,11615.17556, -60.96910,
,,,11639.83623, -60.96910,
,,,11664.49690, -60.96910,
,,,11689.15757, -60.96910,
,,,11713.81824, -59.76910,
,,,11738.47891, -60.96910,
,,,11763.13958, -60.96910,
,,,11787.80025, -60.96910,
,,,11812.46092, -60.96910,
,,,11837.12159, -60.96910,
,,,11861.78226, -60.96910,
,,,11886.44293, -60.96910,
,,,11911.10360, -60.96910,
,,,11935.76427, -60.96910,
,,,11960.42494, -59.76910,
,,,11985.08561, -56.96910,
,,,12009.74628, -59.76910,
,,,12034.40695, -60.96910,
,,,12059.06762, -60.96910,
,,,12083.72829, -60.96910,
,,,12108.38896, -60.96910,
,,,12133.04963, -60.96910,
,,,12157.71030, -60.96910,
,,,12182.37097, -60.96910,
,,,12207.03164, -60.96910,
,,,12231.69231, -60.96910,
,,,12256.35298, -60.96910,
,,,12281.01365, -60.96910,
,,,12305.67432, -60.96910,
,,,12330.33499, -60.96910,
,,,12354.99566, -60.96910,
,,,12379.65633, -60.96910,
,,,12404.31700, -60.96910,
,,,12428.97767, -59.76910,
,,,12453.63834, -60.96910,
,,,12478.29901, -60.96910,
,,,12502.95968, -60.96910,
,,,12527.62035, -60.96910,
,,,12552.28102, -60.96910,
,,,12576.94169, -60.96910,
,,,12601.60236, -59.76910,
,,,12626.26303, -60.96910,
,,,12650.92370, -57.36910,
,,,12675.58437, -60.96910,
,,,12700.24504, -60.96910,
,,,12724.90571, -60.96910,
,,,12749.56638, -60.96910,
,,,12774.22705, -60.96910,
,,,12798.88772, -60.96910,
,,,12823.54839, -60.96910,
,,,12848.20906, -59.76910,
,,,12872.86973, -59.76910,
,,,12897.53040, -60.96910,
,,,12922.19107, -60.96910,
,,,12946.85174, -60.96910,
,,,12971.51241, -60.96910,
,,,12996.17308, -60.96910,
,,,13020.83375, -57.76910,
,,,13045.49442, -59.76910,
,,,13070.15509, -60.96910,
,,,13094.81576, -60.96910,
,,,13119.47643, -60.96910,
,,,13144.13710, -60.96910,
,,,13168.79777, -59.76910,
,,,13193.45844, -60.96910,
,,,13218.11911, -60.96910,
,,,13242.77978, -60.96910,
,,,13267.44045, -60.96910,
,,,13292.10112, -60.96910,
,,,13316.76179, -60.96910,
,,,13341.42246, -60.96910,
,,,13366.08313, -60.96910,
,,,13390.74380, -60.96910,
,,,13415.40447, -60.96910,
,,,13440.06514, -60.96910,
,,,13464.72581, -60.96910,
,,,13489.38648, -60.96910,
,,,13514.04715, -60.96910,
,,,13538.70782, -60.96910,
,,,13563.36849, -60.96910,
,,,13588.02916, -60.96910,
,,,13612.68983, -60.96910,
,,,13637.35050, -60.96910,
,,,13662.01117, -60.96910,
,,,13686.67184, -60.96910,
,,,13711.33251, -60.96910,
,,,13735.99318, -60.96910,
,,,13760.65385, -60.96910,
,,,13785.31452, -60.96910,
,,,13809.97519, -60.96910,
,,,13834.63586, -60.96910,
,,,13859.29653, -60.96910,
,,,13883.95720, -60.96910,
,,,13908.61787, -60.96910,
,,,13933.27854, -57.76910,
,,,13957.93921, -60.96910,
,,,13982.59988, -59.76910,
,,,14007.26055, -59.76910,
,,,14031.92122, -59.76910,
,,,14056.58189, -59.76910,
,,,14081.24256, -60.96910,
,,,14105.90323, -59.76910,
,,,14130.56390, -60.96910,
,,,14155.22457, -60.96910,
,,,14179.88524, -60.96910,
,,,14204.54591, -60.96910,
,,,14229.20658, -59.76910,
,,,14253.86725, -60.96910,
,,,14278.52792, -60.96910,
,,,14303.18859, -60.96910,
,,,14327.84926, -60.96910,
,,,14352.50993, -60.96910,
,,,14377.17060, -60.96910,
,,,14401.83127, -59.76910,
,,,14426.49194, -60.96910,
,,,14451.15261, -60.96910,
,,,14475.81328, -60.96910,
,,,14500.47395, -60.96910,
,,,14525.13462, -59.76910,
,,,14549.79529, -60.96910,
,,,14574.45596, -59.76910,
,,,14599.11663, -60.96910,
,,,14623.77730, -60.96910,
,,,14648.43797, -60.96910,
,,,14673.09864, -60.96910,
,,,14697.75931, -60.96910,
,,,14722.41998, -60.96910,
,,,14747.08065, -60.96910,
,,,14771.74132, -60.96910,
,,,14796.40199, -60.96910,
,,,14821.06266, -60.96910,
,,,14845.72333, -60.96910,
,,,14870.38400, -60.96910,
,,,14895.04467, -60.96910,
,,,14919.70534, -60.96910,
,,,14944.36601, -60.96910,
,,,14969.02668, -60.96910,
,,,14993.68735, -57.76910,
,,,15018.34802, -59.76910,
,,,15043.00869, -56.96910,
,,,15067.66936, -60.96910,
,,,15092.33003, -60.96910,
,,,15116.99070, -60.96910,
,,,15141.65137, -60.96910,
,,,15166.31204, -60.96910,
,,,15190.97271, -60.96910,
,,,15215.63338, -60.96910,
,,,15240.29405, -59.76910,
,,,15264.95472, -60.96910,
,,,15289.61539, -60.96910,
,,,15314.27606, -60.96910,
,,,15338.93673, -55.76910,
,,,15363.59740, -60.96910,
,,,15388.25807, -60.96910,
,,,15412.91874, -60.96910,
,,,15437.57941, -60.96910,
,,,15462.24008, -60.96910,
,,,15486.90075, -60.96910,
,,,15511.56142, -60.96910,
,,,15536.22209, -60.96910,
,,,15560.88276, -60.96910,
,,,15585.54343, -59.76910,
,,,15610.20410, -59.76910,
,,,15634.86477, -60.96910,
,,,15659.52544, -60.96910,
,,,15684.18611, -60.96910,
,,,15708.84678, -59.76910,
,,,15733.50745, -60.96910,
,,,15758.16812, -60.96910,
,,,15782.82879, -60.96910,
,,,15807.48946, -60.96910,
,,,15832.15013, -60.96910,
,,,15856.81080, -60.96910,
,,,15881.47147, -60.96910,
,,,15906.13214, -60.96910,
,,,15930.79281, -60.96910,
,,,15955.45348, -60.96910,
,,,15980.11415, -59.76910,
,,,16004.77482, -59.76910,
,,,16029.43549, -60.96910,
,,,16054.09616, -59.76910,
,,,16078.75683, -57.76910,
,,,16103.41750, -60.96910,
,,,16128.07817, -60.96910,
,,,16152.73884, -60.96910,
,,,16177.39951, -59.76910,
,,,16202.06018, -57.76910,
,,,16226.72085, -56.96910,
,,,16251.38152, -60.96910,
,,,16276.04219, -60.96910,
,,,16300.70286, -55.76910,
,,,16325.36353, -60.96910,
,,,16350.02420, -60.96910,
,,,16374.68487, -59.76910,
,,,16399.34554, -60.96910,
,,,16424.00621, -60.96910,
,,,16448.66688, -60.96910,
,,,16473.32755, -60.96910,
,,,16497.98822, -60.96910,
,,,16522.64889, -59.76910,
,,,16547.30956, -60.96910,
,,,16571.97023, -60.96910,
,,,16596.63090, -60.96910,
,,,16621.29157, -60.96910,
,,,16645.95224, -60.96910,
,,,16670.61291, -60.96910,
,,,16695.27358, -60.96910,
,,,16719.93425, -60.96910,
,,,16744.59492, -60.96910,
,,,16769.25559, -60.96910,
,,,16793.91626, -60.96910,
,,,16818.57693, -59.76910,
,,,16843.23760, -60.96910,
,,,16867.89827, -57.36910,
,,,16892.55894, -56.96910,
,,,16917.21961, -57.76910,
,,,16941.88028, -60.96910,
,,,16966.54095, -60.96910,
,,,16991.20162, -59.76910,
,,,17015.86229, -60.96910,
,,,17040.52296, -60.96910,
,,,17065.18363, -60.96910,
,,,17089.84430, -60.96910,
,,,17114.50497, -60.96910,
,,,17139.16564, -60.96910,
,,,17163.82631, -60.96910,
,,,17188.48698, -60.96910,
,,,17213.14765, -60.96910,
,,,17237.80832, -60.96910,
,,,17262.46899, -60.96910,
,,,17287.12966, -60.96910,
,,,17311.79033, -59.76910,
,,,17336.45100, -59.76910,
,,,17361.11167, -60.96910,
,,,17385.77234, -60.96910,
,,,17410.43301, -60.96910,
,,,17435.09368, -60.96910,
,,,17459.75435, -60.96910,
,,,17484.41502, -60.96910,
,,,17509.07569, -56.96910,
,,,17533.73636, -60.96910,
,,,17558.39703, -59.76910,
,,,17583.05770, -59.76910,
,,,17607.71837, -60.96910,
,,,17632.37904, -60.96910,
,,,17657.03971, -60.96910,
,,,17681.70038, -60.96910,
,,,17706.36105, -60.96910,
,,,17731.02172, -60.96910,
,,,17755.68239, -60.96910,
,,,17780.34306, -60.96910,
,,,17805.00373, -60.96910,
,,,17829.66440, -59.76910,
,,,17854.32507, -60.96910,
,,,17878.98574, -60.96910,
,,,17903.64641, -60.96910,
,,,17928.30708, -60.96910,
,,,17952.96775, -60.96910,
,,,17977.62842, -60.96910,
,,,18002.28909, -60.96910,
,,,18026.94976, -60.96910,
,,,18051.61043, -60.96910,
,,,18076.27110, -60.96910,
,,,18100.93177, -60.96910,
,,,18125.59244, -60.96910,
,,,18150.25311, -60.96910,
,,,18174.91378, -59.76910,
,,,18199.57445, -59.76910,
