Lab 2/ALL0015/F0015FFT.CSV

Record Length,1.024000e+03,,          0.00000, -35.78970,
Sample Interval,1.233033e+02,,        123.30335, -34.18970,
Trigger Point,-0.000000000000e+00,,        246.60669, -37.38970,
,,,        369.91004, -51.78970,
,,,        493.21338, -43.38970,
,,,        616.51673, -38.98970,
Source,FFT,,        739.82008,  -9.38970,
Vertical Units,dB,,        863.12342,  -1.38970,
Vertical Scale,1.000000e+01,,        986.42677,  -0.58970,
Vertical Offset,0.000000e+00,,       1109.73011,  -0.98970,
Horizontal Units,Hz,,       1233.03346,  -6.58970,
Horizontal Scale,1.262626e+04,,       1356.33681, -35.38970,
Pt Fmt,Y,,       1479.64015, -43.78970,
Yzero,-2.698970e+01,,       1602.94350, -51.38970,
Probe Atten,1.000000e+00,,       1726.24684, -45.78970,
Model Number,TBS1072B-EDU,,       1849.55019, -53.38970,
Serial Number,C012918,,       1972.85354, -54.58970,
Firmware Version,FV:v4.06,,       2096.15688, -56.18970,
,,,2219.46023, -46.18970,
,,,2342.76358, -48.98970,
,,,2466.06693, -44.98970,
,,,2589.37028, -44.58970,
,,,2712.67363, -22.58970,
,,,2835.97698, -11.78970,
,,,2959.28033, -10.18970,
,,,3082.58368, -10.58970,
,,,3205.88703, -14.18970,
,,,3329.19038, -32.58970,
,,,3452.49373, -41.78970,
,,,3575.79708, -49.78970,
,,,3699.10043, -45.38970,
,,,3822.40378, -51.78970,
,,,3945.70713, -54.58970,
,,,4069.01048, -57.38970,
,,,4192.31383, -49.38970,
,,,4315.61718, -49.78970,
,,,4438.92053, -46.58970,
,,,4562.22388, -53.38970,
,,,4685.52723, -31.38970,
,,,4808.83058, -17.38970,
,,,4932.13393, -14.58970,
,,,5055.43728, -14.58970,
,,,5178.74063, -16.98970,
,,,5302.04398, -30.18970,
,,,5425.34733, -43.38970,
,,,5548.65068, -53.38970,
,,,5671.95403, -46.18970,
,,,5795.25738, -50.58970,
,,,5918.56073, -54.98970,
,,,6041.86408, -60.58970,
,,,6165.16743, -51.78970,
,,,6288.47078, -48.18970,
,,,6411.77413, -47.38970,
,,,6535.07748, -54.98970,
,,,6658.38083, -40.98970,
,,,6781.68418, -22.18970,
,,,6904.98753, -17.78970,
,,,7028.29088, -17.78970,
,,,7151.59423, -18.98970,
,,,7274.89758, -28.58970,
,,,7398.20093, -45.38970,
,,,7521.50428, -49.38970,
,,,7644.80763, -45.78970,
,,,7768.11098, -47.78970,
,,,7891.41433, -51.38970,
,,,8014.71768, -54.98970,
,,,8138.02103, -52.18970,
,,,8261.32438, -47.38970,
,,,8384.62773, -47.38970,
,,,8507.93108, -50.18970,
,,,8631.23443, -53.38970,
,,,8754.53778, -26.58970,
,,,8877.84113, -20.18970,
,,,9001.14448, -19.78970,
,,,9124.44783, -20.58970,
,,,9247.75118, -27.38970,
,,,9371.05453, -51.78970,
,,,9494.35788, -50.18970,
,,,9617.66123, -46.98970,
,,,9740.96458, -46.98970,
,,,9864.26793, -51.78970,
,,,9987.57128, -54.98970,
,,,10110.87463, -51.78970,
,,,10234.17798, -47.78970,
,,,10357.48133, -48.58970,
,,,10480.78468, -48.58970,
,,,10604.08803, -64.58970,
,,,10727.39138, -30.98970,
,,,10850.69473, -22.58970,
,,,10973.99808, -21.38970,
,,,11097.30143, -21.78970,
,,,11220.60478, -26.58970,
,,,11343.90813, -57.38970,
,,,11467.21148, -48.58970,
,,,11590.51483, -48.98970,
,,,11713.81818, -45.78970,
,,,11837.12153, -50.18970,
,,,11960.42488, -53.38970,
,,,12083.72823, -53.38970,
,,,12207.03158, -48.18970,
,,,12330.33493, -47.78970,
,,,12453.63828, -47.78970,
,,,12576.94163, -54.98970,
,,,12700.24498, -36.18970,
,,,12823.54833, -24.98970,
,,,12946.85168, -22.98970,
,,,13070.15503, -22.98970,
,,,13193.45838, -26.18970,
,,,13316.76173, -43.38970,
,,,13440.06508, -48.18970,
,,,13563.36843, -48.98970,
,,,13686.67178, -46.18970,
,,,13809.97513, -49.78970,
,,,13933.27848, -54.58970,
,,,14056.58183, -54.98970,
,,,14179.88518, -50.18970,
,,,14303.18853, -48.18970,
,,,14426.49188, -48.18970,
,,,14549.79523, -57.38970,
,,,14673.09858, -42.18970,
,,,14796.40193, -27.38970,
,,,14919.70528, -24.18970,
,,,15043.00863, -24.58970,
,,,15166.31198, -26.18970,
,,,15289.61533, -38.58970,
,,,15412.91868, -46.18970,
,,,15536.22203, -47.38970,
,,,15659.52538, -44.98970,
,,,15782.82873, -48.18970,
,,,15906.13208, -53.38970,
,,,16029.43543, -56.18970,
,,,16152.73878, -49.78970,
,,,16276.04213, -46.18970,
,,,16399.34548, -46.18970,
,,,16522.64883, -52.18970,
,,,16645.95218, -48.98970,
,,,16769.25553, -30.58970,
,,,16892.55888, -25.38970,
,,,17015.86223, -25.38970,
,,,17139.16558, -26.18970,
,,,17262.46893, -34.98970,
,,,17385.77228, -49.38970,
,,,17509.07563, -48.58970,
,,,17632.37898, -47.78970,
,,,17755.68233, -48.18970,
,,,17878.98568, -57.38970,
,,,18002.28903, -61.38970,
,,,18125.59238, -53.38970,
,,,18248.89573, -47.38970,
,,,18372.19908, -46.98970,
,,,18495.50243, -48.98970,
,,,18618.80578, -54.58970,
,,,18742.10913, -33.78970,
,,,18865.41248, -26.98970,
,,,18988.71583, -26.18970,
,,,19112.01918, -26.58970,
,,,19235.32253, -32.58970,
,,,19358.62588, -56.18970,
,,,19481.92923, -49.78970,
,,,19605.23258, -47.38970,
,,,19728.53593, -47.38970,
,,,19851.83928, -52.18970,
,,,19975.14263, -54.98970,
,,,20098.44598, -53.38970,
,,,20221.74933, -48.18970,
,,,20345.05268, -46.98970,
,,,20468.35603, -48.98970,
,,,20591.65938, -54.98970,
,,,20714.96273, -37.38970,
,,,20838.26608, -28.18970,
,,,20961.56943, -26.98970,
,,,21084.87278, -27.38970,
,,,21208.17613, -31.38970,
,,,21331.47948, -60.58970,
,,,21454.78283, -47.38970,
,,,21578.08618, -47.78970,
,,,21701.38953, -46.18970,
,,,21824.69288, -49.78970,
,,,21947.99623, -56.18970,
,,,22071.29958, -57.38970,
,,,22194.60293, -52.98970,
,,,22317.90628, -49.38970,
,,,22441.20963, -49.38970,
,,,22564.51298, -55.38970,
,,,22687.81633, -42.18970,
,,,22811.11968, -30.18970,
,,,22934.42303, -28.18970,
,,,23057.72638, -28.18970,
,,,23181.02973, -30.58970,
,,,23304.33308, -48.18970,
,,,23427.63643, -47.38970,
,,,23550.93978, -48.18970,
,,,23674.24313, -45.78970,
,,,23797.54648, -49.78970,
,,,23920.84983, -53.38970,
,,,24044.15318, -52.18970,
,,,24167.45653, -48.98970,
,,,24290.75988, -45.78970,
,,,24414.06323, -47.38970,
,,,24537.36658, -52.18970,
,,,24660.66993, -47.78970,
,,,24783.97328, -32.58970,
,,,24907.27663, -28.58970,
,,,25030.57998, -28.98970,
,,,25153.88333, -30.18970,
,,,25277.18668, -41.78970,
,,,25400.49003, -48.18970,
,,,25523.79338, -47.78970,
,,,25647.09673, -44.98970,
,,,25770.40008, -47.38970,
,,,25893.70343, -53.38970,
,,,26017.00678, -58.58970,
,,,26140.31013, -51.78970,
,,,26263.61348, -48.18970,
,,,26386.91683, -48.58970,
,,,26510.22018, -50.98970,
,,,26633.52353, -50.58970,
,,,26756.82688, -34.98970,
,,,26880.13023, -29.38970,
,,,27003.43358, -29.38970,
,,,27126.73693, -30.58970,
,,,27250.04028, -38.58970,
,,,27373.34363, -49.38970,
,,,27496.64698, -47.38970,
,,,27619.95033, -46.18970,
,,,27743.25368, -46.98970,
,,,27866.55703, -50.18970,
,,,27989.86038, -54.58970,
,,,28113.16373, -50.58970,
,,,28236.46708, -47.38970,
,,,28359.77043, -46.98970,
,,,28483.07378, -48.98970,
,,,28606.37713, -55.38970,
,,,28729.68048, -38.58970,
,,,28852.98383, -30.98970,
,,,28976.28718, -30.18970,
,,,29099.59053, -30.58970,
,,,29222.89388, -36.18970,
,,,29346.19723, -54.58970,
,,,29469.50058, -46.98970,
,,,29592.80393, -45.78970,
,,,29716.10728, -46.18970,
,,,29839.41063, -50.18970,
,,,29962.71398, -54.98970,
,,,30086.01733, -54.58970,
,,,30209.32068, -48.58970,
,,,30332.62403, -47.38970,
,,,30455.92738, -48.18970,
,,,30579.23073, -53.38970,
,,,30702.53408, -41.38970,
,,,30825.83743, -32.18970,
,,,30949.14078, -30.58970,
,,,31072.44413, -30.58970,
,,,31195.74748, -34.18970,
,,,31319.05083, -60.58970,
,,,31442.35418, -47.38970,
,,,31565.65753, -47.38970,
,,,31688.96088, -45.78970,
,,,31812.26423, -48.98970,
,,,31935.56758, -55.38970,
,,,32058.87093, -53.38970,
,,,32182.17428, -48.58970,
,,,32305.47763, -46.18970,
,,,32428.78098, -47.38970,
,,,32552.08433, -52.58970,
,,,32675.38768, -45.78970,
,,,32798.69103, -33.78970,
,,,32921.99438, -30.98970,
,,,33045.29773, -30.98970,
,,,33168.60108, -33.38970,
,,,33291.90443, -46.58970,
,,,33415.20778, -48.58970,
,,,33538.51113, -46.18970,
,,,33661.81448, -44.18970,
,,,33785.11783, -46.18970,
,,,33908.42118, -51.38970,
,,,34031.72453, -52.58970,
,,,34155.02788, -49.78970,
,,,34278.33123, -46.18970,
,,,34401.63458, -47.38970,
,,,34524.93793, -49.78970,
,,,34648.24128, -49.38970,
,,,34771.54463, -35.78970,
,,,34894.84798, -31.38970,
,,,35018.15133, -31.78970,
,,,35141.45468, -32.98970,
,,,35264.75803, -42.58970,
,,,35388.06138, -49.78970,
,,,35511.36473, -48.58970,
,,,35634.66808, -45.78970,
,,,35757.97143, -46.98970,
,,,35881.27478, -51.38970,
,,,36004.57813, -53.38970,
,,,36127.88148, -51.38970,
,,,36251.18483, -48.18970,
,,,36374.48818, -49.38970,
,,,36497.79153, -50.58970,
,,,36621.09488, -53.38970,
,,,36744.39823, -38.18970,
,,,36867.70158, -32.18970,
,,,36991.00493, -32.18970,
,,,37114.30828, -32.58970,
,,,37237.61163, -40.18970,
,,,37360.91498, -50.98970,
,,,37484.21833, -48.18970,
,,,37607.52168, -46.58970,
,,,37730.82503, -46.18970,
,,,37854.12838, -50.98970,
,,,37977.43173, -53.38970,
,,,38100.73508, -52.98970,
,,,38224.03843, -48.98970,
,,,38347.34178, -48.18970,
,,,38470.64513, -50.58970,
,,,38593.94848, -57.38970,
,,,38717.25183, -41.78970,
,,,38840.55518, -33.78970,
,,,38963.85853, -32.58970,
,,,39087.16188, -32.98970,
,,,39210.46523, -38.18970,
,,,39333.76858, -53.38970,
,,,39457.07193, -45.78970,
,,,39580.37528, -45.78970,
,,,39703.67863, -44.98970,
,,,39826.98198, -48.18970,
,,,39950.28533, -51.78970,
,,,40073.58868, -53.38970,
,,,40196.89203, -49.78970,
,,,40320.19538, -46.98970,
,,,40443.49873, -48.18970,
,,,40566.80208, -52.58970,
,,,40690.10543, -44.98970,
,,,40813.40878, -34.98970,
,,,40936.71213, -32.98970,
,,,41060.01548, -33.38970,
,,,41183.31883, -36.18970,
,,,41306.62218, -57.38970,
,,,41429.92553, -47.38970,
,,,41553.22888, -46.98970,
,,,41676.53223, -44.98970,
,,,41799.83558, -49.38970,
,,,41923.13893, -54.98970,
,,,42046.44228, -55.38970,
,,,42169.74563, -50.58970,
,,,42293.04898, -47.78970,
,,,42416.35233, -49.78970,
,,,42539.65568, -53.38970,
,,,42662.95903, -49.78970,
,,,42786.26238, -36.98970,
,,,42909.56573, -33.38970,
,,,43032.86908, -33.78970,
,,,43156.17243, -35.78970,
,,,43279.47578, -49.78970,
,,,43402.77913, -47.38970,
,,,43526.08248, -46.58970,
,,,43649.38583, -44.58970,
,,,43772.68918, -46.18970,
,,,43895.99253, -52.98970,
,,,44019.29588, -51.78970,
,,,44142.59923, -48.98970,
,,,44265.90258, -46.58970,
,,,44389.20593, -47.38970,
,,,44512.50928, -50.58970,
,,,44635.81263, -51.38970,
,,,44759.11598, -38.58970,
,,,44882.41933, -33.78970,
,,,45005.72268, -34.18970,
,,,45129.02603, -35.38970,
,,,45252.32938, -44.98970,
,,,45375.63273, -49.38970,
,,,45498.93608, -48.18970,
,,,45622.23943, -45.78970,
,,,45745.54278, -46.98970,
,,,45868.84613, -51.38970,
,,,45992.14948, -52.98970,
,,,46115.45283, -50.58970,
,,,46238.75618, -47.38970,
,,,46362.05953, -47.78970,
,,,46485.36288, -48.98970,
,,,46608.66623, -54.58970,
,,,46731.96958, -41.38970,
,,,46855.27293, -34.58970,
,,,46978.57628, -34.18970,
,,,47101.87963, -34.98970,
,,,47225.18298, -40.98970,
,,,47348.48633, -51.78970,
,,,47471.78968, -46.98970,
,,,47595.09303, -45.78970,
,,,47718.39638, -45.78970,
,,,47841.69973, -50.58970,
,,,47965.00308, -54.58970,
,,,48088.30643, -53.38970,
,,,48211.60978, -47.78970,
,,,48334.91313, -46.98970,
,,,48458.21648, -48.18970,
,,,48581.51983, -52.18970,
,,,48704.82318, -43.78970,
,,,48828.12653, -35.78970,
,,,48951.42988, -34.58970,
,,,49074.73323, -34.98970,
,,,49198.03658, -38.98970,
,,,49321.33993, -60.58970,
,,,49444.64328, -49.78970,
,,,49567.94663, -48.18970,
,,,49691.24998, -46.18970,
,,,49814.55333, -50.18970,
,,,49937.85668, -54.58970,
,,,50061.16003, -54.58970,
,,,50184.46338, -49.38970,
,,,50307.76673, -46.98970,
,,,50431.07008, -49.78970,
,,,50554.37343, -51.78970,
,,,50677.67678, -47.78970,
,,,50800.98013, -36.58970,
,,,50924.28348, -34.58970,
,,,51047.58683, -34.98970,
,,,51170.89018, -37.78970,
,,,51294.19353, -60.58970,
,,,51417.49688, -47.38970,
,,,51540.80023, -46.98970,
,,,51664.10358, -44.58970,
,,,51787.40693, -46.58970,
,,,51910.71028, -50.98970,
,,,52034.01363, -51.78970,
,,,52157.31698, -48.98970,
,,,52280.62033, -47.38970,
,,,52403.92368, -49.38970,
,,,52527.22703, -53.38970,
,,,52650.53038, -51.38970,
,,,52773.83373, -38.58970,
,,,52897.13708, -34.58970,
,,,53020.44043, -34.98970,
,,,53143.74378, -36.58970,
,,,53267.04713, -48.58970,
,,,53390.35048, -48.18970,
,,,53513.65383, -45.78970,
,,,53636.95718, -44.98970,
,,,53760.26053, -47.38970,
,,,53883.56388, -54.98970,
,,,54006.86723, -60.58970,
,,,54130.17058, -54.58970,
,,,54253.47393, -48.98970,
,,,54376.77728, -48.58970,
,,,54500.08063, -51.38970,
,,,54623.38398, -52.18970,
,,,54746.68733, -40.98970,
,,,54869.99068, -35.38970,
,,,54993.29403, -35.78970,
,,,55116.59738, -36.58970,
,,,55239.90073, -44.98970,
,,,55363.20408, -50.58970,
,,,55486.50743, -47.38970,
,,,55609.81078, -45.78970,
,,,55733.11413, -45.38970,
,,,55856.41748, -50.98970,
,,,55979.72083, -53.38970,
,,,56103.02418, -52.98970,
,,,56226.32753, -48.18970,
,,,56349.63088, -47.78970,
,,,56472.93423, -50.98970,
,,,56596.23758, -53.38970,
,,,56719.54093, -43.78970,
,,,56842.84428, -36.58970,
,,,56966.14763, -35.78970,
,,,57089.45098, -36.58970,
,,,57212.75433, -41.78970,
,,,57336.05768, -54.98970,
,,,57459.36103, -47.38970,
,,,57582.66438, -46.18970,
,,,57705.96773, -45.78970,
,,,57829.27108, -50.98970,
,,,57952.57443, -56.18970,
,,,58075.87778, -55.38970,
,,,58199.18113, -49.38970,
,,,58322.48448, -47.38970,
,,,58445.78783, -49.38970,
,,,58569.09118, -54.58970,
,,,58692.39453, -45.78970,
,,,58815.69788, -37.38970,
,,,58939.00123, -35.78970,
,,,59062.30458, -36.58970,
,,,59185.60793, -40.18970,
,,,59308.91128, -64.58970,
,,,59432.21463, -47.78970,
,,,59555.51798, -46.58970,
,,,59678.82133, -45.38970,
,,,59802.12468, -49.38970,
,,,59925.42803, -53.38970,
,,,60048.73138, -53.38970,
,,,60172.03473, -49.38970,
,,,60295.33808, -47.78970,
,,,60418.64143, -50.58970,
,,,60541.94478, -54.58970,
,,,60665.24813, -49.78970,
,,,60788.55148, -38.98970,
,,,60911.85483, -36.18970,
,,,61035.15818, -36.58970,
,,,61158.46153, -38.58970,
,,,61281.76488, -52.98970,
,,,61405.06823, -48.18970,
,,,61528.37158, -48.18970,
,,,61651.67493, -45.78970,
,,,61774.97828, -49.38970,
,,,61898.28163, -57.78970,
,,,62021.58498, -56.18970,
,,,62144.88833, -52.18970,
,,,62268.19168, -48.18970,
,,,62391.49503, -50.18970,
,,,62514.79838, -53.38970,
,,,62638.10173, -53.38970,
,,,62761.40508, -40.98970,
,,,62884.70843, -36.58970,
,,,63008.01178, -36.98970,
,,,63131.31513, -38.58970,
,,,63254.61848, -48.18970,
,,,63377.92183, -49.38970,
,,,63501.22518, -48.58970,
,,,63624.52853, -45.38970,
,,,63747.83188, -46.98970,
,,,63871.13523, -52.98970,
,,,63994.43858, -54.58970,
,,,64117.74193, -50.58970,
,,,64241.04528, -46.98970,
,,,64364.34863, -48.58970,
,,,64487.65198, -52.98970,
,,,64610.95533, -54.98970,
,,,64734.25868, -43.38970,
,,,64857.56203, -36.98970,
,,,64980.86538, -36.98970,
,,,65104.16873, -37.78970,
,,,65227.47208, -44.58970,
,,,65350.77543, -51.38970,
,,,65474.07878, -47.38970,
,,,65597.38213, -46.18970,
,,,65720.68548, -46.18970,
,,,65843.98883, -52.58970,
,,,65967.29218, -53.38970,
,,,66090.59553, -51.78970,
,,,66213.89888, -47.38970,
,,,66337.20223, -47.38970,
,,,66460.50558, -51.38970,
,,,66583.80893, -55.38970,
,,,66707.11228, -46.18970,
,,,66830.41563, -38.18970,
,,,66953.71898, -36.98970,
,,,67077.02233, -37.78970,
,,,67200.32568, -42.18970,
,,,67323.62903, -56.18970,
,,,67446.93238, -47.38970,
,,,67570.23573, -45.78970,
,,,67693.53908, -44.58970,
,,,67816.84243, -47.38970,
,,,67940.14578, -53.38970,
,,,68063.44913, -51.78970,
,,,68186.75248, -49.78970,
,,,68310.05583, -48.18970,
,,,68433.35918, -50.18970,
,,,68556.66253, -53.38970,
,,,68679.96588, -48.98970,
,,,68803.26923, -38.98970,
,,,68926.57258, -36.98970,
,,,69049.87593, -38.18970,
,,,69173.17928, -40.98970,
,,,69296.48263, -66.98970,
,,,69419.78598, -46.58970,
,,,69543.08933, -45.38970,
,,,69666.39268, -44.18970,
,,,69789.69603, -47.38970,
,,,69912.99938, -53.38970,
,,,70036.30273, -53.38970,
,,,70159.60608, -50.18970,
,,,70282.90943, -48.58970,
,,,70406.21278, -48.98970,
,,,70529.51613, -50.58970,
,,,70652.81948, -51.78970,
,,,70776.12283, -40.98970,
,,,70899.42618, -37.78970,
,,,71022.72953, -38.18970,
,,,71146.03288, -39.78970,
,,,71269.33623, -54.98970,
,,,71392.63958, -47.78970,
,,,71515.94293, -46.98970,
,,,71639.24628, -44.98970,
,,,71762.54963, -47.78970,
,,,71885.85298, -53.38970,
,,,72009.15633, -56.18970,
,,,72132.45968, -53.38970,
,,,72255.76303, -48.98970,
,,,72379.06638, -50.98970,
,,,72502.36973, -54.58970,
,,,72625.67308, -54.58970,
,,,72748.97643, -43.38970,
,,,72872.27978, -38.18970,
,,,72995.58313, -38.18970,
,,,73118.88648, -39.38970,
,,,73242.18983, -48.58970,
,,,73365.49318, -48.98970,
,,,73488.79653, -46.58970,
,,,73612.09988, -44.98970,
,,,73735.40323, -46.58970,
,,,73858.70658, -53.38970,
,,,73982.00993, -53.38970,
,,,74105.31328, -49.78970,
,,,74228.61663, -46.98970,
,,,74351.91998, -47.38970,
,,,74475.22333, -53.38970,
,,,74598.52668, -57.38970,
,,,74721.83003, -45.78970,
,,,74845.13338, -38.98970,
,,,74968.43673, -38.18970,
,,,75091.74008, -38.98970,
,,,75215.04343, -45.38970,
,,,75338.34678, -52.18970,
,,,75461.65013, -46.58970,
,,,75584.95348, -45.78970,
,,,75708.25683, -45.78970,
,,,75831.56018, -50.98970,
,,,75954.86353, -55.38970,
,,,76078.16688, -53.38970,
,,,76201.47023, -48.58970,
,,,76324.77358, -47.78970,
,,,76448.07693, -49.38970,
,,,76571.38028, -53.38970,
,,,76694.68363, -47.78970,
,,,76817.98698, -39.78970,
,,,76941.29033, -38.58970,
,,,77064.59368, -38.98970,
,,,77187.89703, -42.98970,
,,,77311.20038, -57.38970,
,,,77434.50373, -47.38970,
,,,77557.80708, -46.58970,
,,,77681.11043, -44.98970,
,,,77804.41378, -49.38970,
,,,77927.71713, -54.98970,
,,,78051.02048, -54.98970,
,,,78174.32383, -50.18970,
,,,78297.62718, -48.98970,
,,,78420.93053, -50.18970,
,,,78544.23388, -56.18970,
,,,78667.53723, -51.78970,
,,,78790.84058, -40.98970,
,,,78914.14393, -38.58970,
,,,79037.44728, -39.38970,
,,,79160.75063, -41.78970,
,,,79284.05398, -64.58970,
,,,79407.35733, -47.38970,
,,,79530.66068, -45.38970,
,,,79653.96403, -44.58970,
,,,79777.26738, -46.58970,
,,,79900.57073, -52.18970,
,,,80023.87408, -52.18970,
,,,80147.17743, -49.38970,
,,,80270.48078, -47.38970,
,,,80393.78413, -48.98970,
,,,80517.08748, -51.78970,
,,,80640.39083, -52.98970,
,,,80763.69418, -41.78970,
,,,80886.99753, -38.18970,
,,,81010.30088, -38.58970,
,,,81133.60423, -40.18970,
,,,81256.90758, -51.38970,
,,,81380.21093, -47.38970,
,,,81503.51428, -44.58970,
,,,81626.81763, -43.38970,
,,,81750.12098, -46.18970,
,,,81873.42433, -51.38970,
,,,81996.72768, -52.98970,
,,,82120.03103, -50.18970,
,,,82243.33438, -47.78970,
,,,82366.63773, -49.38970,
,,,82489.94108, -51.78970,
,,,82613.24443, -53.38970,
,,,82736.54778, -44.18970,
,,,82859.85113, -38.98970,
,,,82983.15448, -38.98970,
,,,83106.45783, -40.18970,
,,,83229.76118, -47.78970,
,,,83353.06453, -50.18970,
,,,83476.36788, -46.58970,
,,,83599.67123, -44.98970,
,,,83722.97458, -45.78970,
,,,83846.27793, -51.38970,
,,,83969.58128, -57.78970,
,,,84092.88463, -53.38970,
,,,84216.18798, -48.58970,
,,,84339.49133, -47.38970,
,,,84462.79468, -50.58970,
,,,84586.09803, -52.18970,
,,,84709.40138, -45.78970,
,,,84832.70473, -39.38970,
,,,84956.00808, -38.98970,
,,,85079.31143, -39.78970,
,,,85202.61478, -44.98970,
,,,85325.91813, -53.38970,
,,,85449.22148, -46.18970,
,,,85572.52483, -44.98970,
,,,85695.82818, -44.58970,
,,,85819.13153, -47.38970,
,,,85942.43488, -51.38970,
,,,86065.73823, -51.38970,
,,,86189.04158, -49.38970,
,,,86312.34493, -48.58970,
,,,86435.64828, -50.58970,
,,,86558.95163, -54.98970,
,,,86682.25498, -50.58970,
,,,86805.55833, -40.98970,
,,,86928.86168, -38.98970,
,,,87052.16503, -39.78970,
,,,87175.46838, -43.38970,
,,,87298.77173, -60.58970,
,,,87422.07508, -46.98970,
,,,87545.37843, -44.98970,
,,,87668.68178, -44.58970,
,,,87791.98513, -48.58970,
,,,87915.28848, -54.58970,
,,,88038.59183, -53.38970,
,,,88161.89518, -50.58970,
,,,88285.19853, -48.18970,
,,,88408.50188, -50.18970,
,,,88531.80523, -55.38970,
,,,88655.10858, -52.58970,
,,,88778.41193, -42.18970,
,,,88901.71528, -38.98970,
,,,89025.01863, -39.38970,
,,,89148.32198, -41.78970,
,,,89271.62533, -58.58970,
,,,89394.92868, -46.58970,
,,,89518.23203, -44.98970,
