Lab 2/ALL0017/F0017FFT.CSV

Record Length,1.024000e+03,,          0.00000,  -4.58970,
Sample Interval,4.932134e+01,,         49.32134,  -2.18970,
Trigger Point,-0.000000000000e+00,,         98.64268,  -8.58970,
,,,        147.96402, -40.18970,
,,,        197.28535, -41.38970,
,,,        246.60669, -43.38970,
Source,FFT,,        295.92803, -46.18970,
Vertical Units,dB,,        345.24937, -49.78970,
Vertical Scale,1.000000e+01,,        394.57071, -52.98970,
Vertical Offset,0.000000e+00,,        443.89205, -54.58970,
Horizontal Units,Hz,,        493.21338, -54.98970,
Horizontal Scale,5.050505e+03,,        542.53472, -53.38970,
Pt Fmt,Y,,        591.85606, -61.38970,
Yzero,-2.698970e+01,,        641.17740, -58.58970,
Probe Atten,1.000000e+00,,        690.49874, -51.38970,
Model Number,TBS1072B-EDU,,        739.82008, -51.38970,
Serial Number,C012918,,        789.14141, -38.98970,
Firmware Version,FV:v4.06,,        838.46275, -49.38970,
,,,887.78409, -15.78970,
,,,937.10543,  -6.58970,
,,,986.42677,  -5.38970,
,,,1035.74811,  -5.38970,
,,,1085.06945,  -9.78970,
,,,1134.39079, -28.98970,
,,,1183.71213, -49.38970,
,,,1233.03347, -42.18970,
,,,1282.35481, -47.38970,
,,,1331.67615, -45.78970,
,,,1380.99749, -49.78970,
,,,1430.31883, -51.78970,
,,,1479.64017, -53.38970,
,,,1528.96151, -52.58970,
,,,1578.28285, -51.38970,
,,,1627.60419, -51.38970,
,,,1676.92553, -66.98970,
,,,1726.24687, -58.58970,
,,,1775.56821, -43.38970,
,,,1824.88955, -51.38970,
,,,1874.21089, -22.58970,
,,,1923.53223,  -9.78970,
,,,1972.85357,  -6.98970,
,,,2022.17491,  -7.38970,
,,,2071.49625,  -9.78970,
,,,2120.81759, -23.78970,
,,,2170.13893, -36.98970,
,,,2219.46027, -46.58970,
,,,2268.78161, -60.58970,
,,,2318.10295, -47.78970,
,,,2367.42429, -52.58970,
,,,2416.74563, -50.18970,
,,,2466.06697, -50.58970,
,,,2515.38831, -50.18970,
,,,2564.70965, -49.78970,
,,,2614.03099, -49.38970,
,,,2663.35233, -48.98970,
,,,2712.67367, -48.98970,
,,,2761.99501, -60.58970,
,,,2811.31635, -57.38970,
,,,2860.63769, -34.18970,
,,,2909.95903, -14.98970,
,,,2959.28037, -10.58970,
,,,3008.60171, -10.98970,
,,,3057.92305, -12.18970,
,,,3107.24439, -22.18970,
,,,3156.56573, -35.78970,
,,,3205.88707, -49.38970,
,,,3255.20841, -51.38970,
,,,3304.52975, -54.98970,
,,,3353.85109, -54.98970,
,,,3403.17243, -50.98970,
,,,3452.49377, -50.58970,
,,,3501.81511, -51.38970,
,,,3551.13645, -50.18970,
,,,3600.45779, -49.38970,
,,,3649.77913, -46.58970,
,,,3699.10047, -46.18970,
,,,3748.42181, -44.98970,
,,,3797.74315, -46.58970,
,,,3847.06449, -48.18970,
,,,3896.38583, -24.98970,
,,,3945.70717, -18.18970,
,,,3995.02851, -17.78970,
,,,4044.34985, -18.58970,
,,,4093.67119, -25.78970,
,,,4142.99253, -38.98970,
,,,4192.31387, -40.98970,
,,,4241.63521, -45.78970,
,,,4290.95655, -48.58970,
,,,4340.27789, -57.78970,
,,,4389.59923, -60.58970,
,,,4438.92057, -57.78970,
,,,4488.24191, -54.98970,
,,,4537.56325, -52.98970,
,,,4586.88459, -51.78970,
,,,4636.20593, -49.38970,
,,,4685.52727, -46.58970,
,,,4734.84861, -44.18970,
,,,4784.16995, -42.18970,
,,,4833.49129, -40.98970,
,,,4882.81263, -41.38970,
,,,4932.13397, -44.98970,
,,,4981.45531, -45.38970,
,,,5030.77665, -44.18970,
,,,5080.09799, -42.58970,
,,,5129.41933, -40.58970,
,,,5178.74067, -41.38970,
,,,5228.06201, -43.78970,
,,,5277.38335, -44.98970,
,,,5326.70469, -46.98970,
,,,5376.02603, -50.58970,
,,,5425.34737, -52.58970,
,,,5474.66871, -51.78970,
,,,5523.99005, -50.58970,
,,,5573.31139, -52.98970,
,,,5622.63273, -56.18970,
,,,5671.95407, -53.38970,
,,,5721.27541, -48.58970,
,,,5770.59675, -43.38970,
,,,5819.91809, -42.18970,
,,,5869.23943, -32.98970,
,,,5918.56077, -22.58970,
,,,5967.88211, -20.18970,
,,,6017.20345, -20.58970,
,,,6066.52479, -22.98970,
,,,6115.84613, -34.58970,
,,,6165.16747, -56.18970,
,,,6214.48881, -44.58970,
,,,6263.81015, -44.98970,
,,,6313.13149, -45.78970,
,,,6362.45283, -47.78970,
,,,6411.77417, -50.58970,
,,,6461.09551, -52.18970,
,,,6510.41685, -51.38970,
,,,6559.73819, -50.18970,
,,,6609.05953, -50.58970,
,,,6658.38087, -53.38970,
,,,6707.70221, -64.58970,
,,,6757.02355, -51.78970,
,,,6806.34489, -45.78970,
,,,6855.66623, -36.98970,
,,,6904.98757, -22.18970,
,,,6954.30891, -17.78970,
,,,7003.63025, -18.18970,
,,,7052.95159, -19.38970,
,,,7102.27293, -29.38970,
,,,7151.59427, -42.98970,
,,,7200.91561, -64.58970,
,,,7250.23695, -53.38970,
,,,7299.55829, -49.78970,
,,,7348.87963, -48.98970,
,,,7398.20097, -49.38970,
,,,7447.52231, -48.98970,
,,,7496.84365, -49.38970,
,,,7546.16499, -50.18970,
,,,7595.48633, -49.78970,
,,,7644.80767, -49.38970,
,,,7694.12901, -50.58970,
,,,7743.45035, -52.98970,
,,,7792.77169, -60.58970,
,,,7842.09303, -48.18970,
,,,7891.41437, -26.18970,
,,,7940.73571, -19.38970,
,,,7990.05705, -19.38970,
,,,8039.37839, -20.58970,
,,,8088.69973, -27.38970,
,,,8138.02107, -40.18970,
,,,8187.34241, -43.38970,
,,,8236.66375, -53.38970,
,,,8285.98509, -66.98970,
,,,8335.30643, -56.18970,
,,,8384.62777, -51.38970,
,,,8433.94911, -49.78970,
,,,8483.27045, -50.58970,
,,,8532.59179, -50.98970,
,,,8581.91313, -49.78970,
,,,8631.23447, -47.78970,
,,,8680.55581, -47.38970,
,,,8729.87715, -46.58970,
,,,8779.19849, -48.18970,
,,,8828.51983, -46.98970,
,,,8877.84117, -38.18970,
,,,8927.16251, -26.18970,
,,,8976.48385, -24.98970,
,,,9025.80519, -25.78970,
,,,9075.12653, -30.98970,
,,,9124.44787, -40.98970,
,,,9173.76921, -38.98970,
,,,9223.09055, -44.58970,
,,,9272.41189, -47.78970,
,,,9321.73323, -53.38970,
,,,9371.05457, -58.58970,
,,,9420.37591, -57.78970,
,,,9469.69725, -60.58970,
,,,9519.01859, -57.78970,
,,,9568.33993, -56.18970,
,,,9617.66127, -52.98970,
,,,9666.98261, -48.18970,
,,,9716.30395, -44.98970,
,,,9765.62529, -42.98970,
,,,9814.94663, -41.78970,
,,,9864.26797, -41.38970,
,,,9913.58931, -43.38970,
,,,9962.91065, -44.98970,
,,,10012.23199, -44.18970,
,,,10061.55333, -43.38970,
,,,10110.87467, -40.18970,
,,,10160.19601, -40.58970,
,,,10209.51735, -42.58970,
,,,10258.83869, -44.98970,
,,,10308.16003, -47.38970,
,,,10357.48137, -48.98970,
,,,10406.80271, -50.58970,
,,,10456.12405, -53.38970,
,,,10505.44539, -55.38970,
,,,10554.76673, -58.58970,
,,,10604.08807, -57.78970,
,,,10653.40941, -54.98970,
,,,10702.73075, -49.78970,
,,,10752.05209, -45.78970,
,,,10801.37343, -42.58970,
,,,10850.69477, -38.18970,
,,,10900.01611, -28.98970,
,,,10949.33745, -25.38970,
,,,10998.65879, -25.78970,
,,,11047.98013, -26.98970,
,,,11097.30147, -34.58970,
,,,11146.62281, -52.18970,
,,,11195.94415, -46.58970,
,,,11245.26549, -45.78970,
,,,11294.58683, -46.18970,
,,,11343.90817, -48.18970,
,,,11393.22951, -49.78970,
,,,11442.55085, -50.58970,
,,,11491.87219, -51.38970,
,,,11541.19353, -51.78970,
,,,11590.51487, -52.98970,
,,,11639.83621, -58.58970,
,,,11689.15755, -61.38970,
,,,11738.47889, -52.98970,
,,,11787.80023, -46.18970,
,,,11837.12157, -42.18970,
,,,11886.44291, -28.98970,
,,,11935.76425, -22.58970,
,,,11985.08559, -22.58970,
,,,12034.40693, -23.78970,
,,,12083.72827, -30.18970,
,,,12133.04961, -48.58970,
,,,12182.37095, -54.58970,
,,,12231.69229, -53.38970,
,,,12281.01363, -50.98970,
,,,12330.33497, -48.98970,
,,,12379.65631, -49.38970,
,,,12428.97765, -50.18970,
,,,12478.29899, -50.58970,
,,,12527.62033, -50.98970,
,,,12576.94167, -49.38970,
,,,12626.26301, -48.18970,
,,,12675.58435, -48.98970,
,,,12724.90569, -50.98970,
,,,12774.22703, -64.58970,
,,,12823.54837, -57.78970,
,,,12872.86971, -34.58970,
,,,12922.19105, -24.58970,
,,,12971.51239, -23.38970,
,,,13020.83373, -24.58970,
,,,13070.15507, -29.38970,
,,,13119.47641, -44.18970,
,,,13168.79775, -39.78970,
,,,13218.11909, -51.38970,
,,,13267.44043, -66.98970,
,,,13316.76177, -54.58970,
,,,13366.08311, -50.18970,
,,,13415.40445, -50.58970,
,,,13464.72579, -50.18970,
,,,13514.04713, -51.38970,
,,,13563.36847, -48.98970,
,,,13612.68981, -48.18970,
,,,13662.01115, -46.18970,
,,,13711.33249, -46.18970,
,,,13760.65383, -47.78970,
,,,13809.97517, -48.58970,
,,,13859.29651, -53.38970,
,,,13908.61785, -31.78970,
,,,13957.93919, -28.58970,
,,,14007.26053, -30.18970,
,,,14056.58187, -33.78970,
,,,14105.90321, -44.58970,
,,,14155.22455, -37.38970,
,,,14204.54589, -43.38970,
,,,14253.86723, -48.18970,
,,,14303.18857, -54.98970,
,,,14352.50991, -57.78970,
,,,14401.83125, -57.38970,
,,,14451.15259, -58.58970,
,,,14500.47393, -57.78970,
,,,14549.79527, -56.18970,
,,,14599.11661, -52.98970,
,,,14648.43795, -50.58970,
,,,14697.75929, -46.98970,
,,,14747.08063, -44.18970,
,,,14796.40197, -42.58970,
,,,14845.72331, -41.38970,
,,,14895.04465, -44.18970,
,,,14944.36599, -46.98970,
,,,14993.68733, -44.98970,
,,,15043.00867, -43.38970,
,,,15092.33001, -40.58970,
,,,15141.65135, -39.78970,
,,,15190.97269, -41.38970,
,,,15240.29403, -43.78970,
,,,15289.61537, -45.78970,
,,,15338.93671, -50.18970,
,,,15388.25805, -51.38970,
,,,15437.57939, -54.58970,
,,,15486.90073, -54.58970,
,,,15536.22207, -56.18970,
,,,15585.54341, -55.38970,
,,,15634.86475, -53.38970,
,,,15684.18609, -51.78970,
,,,15733.50743, -46.98970,
,,,15782.82877, -42.58970,
,,,15832.15011, -40.18970,
,,,15881.47145, -32.98970,
,,,15930.79279, -28.18970,
,,,15980.11413, -28.58970,
,,,16029.43547, -29.38970,
,,,16078.75681, -34.18970,
,,,16128.07815, -47.38970,
,,,16177.39949, -46.98970,
,,,16226.72083, -44.18970,
,,,16276.04217, -44.98970,
,,,16325.36351, -45.78970,
,,,16374.68485, -46.98970,
,,,16424.00619, -50.18970,
,,,16473.32753, -51.38970,
,,,16522.64887, -51.38970,
,,,16571.97021, -52.18970,
,,,16621.29155, -53.38970,
,,,16670.61289, -60.58970,
,,,16719.93423, -55.38970,
,,,16769.25557, -47.38970,
,,,16818.57691, -43.38970,
,,,16867.89825, -34.18970,
,,,16917.21959, -26.18970,
,,,16966.54093, -25.38970,
,,,17015.86227, -26.58970,
,,,17065.18361, -30.98970,
,,,17114.50495, -54.98970,
,,,17163.82629, -46.18970,
,,,17213.14763, -58.58970,
,,,17262.46897, -53.38970,
,,,17311.79031, -49.38970,
,,,17361.11165, -49.38970,
,,,17410.43299, -49.78970,
,,,17459.75433, -50.18970,
,,,17509.07567, -52.98970,
,,,17558.39701, -50.58970,
,,,17607.71835, -48.58970,
,,,17657.03969, -48.58970,
,,,17706.36103, -50.58970,
,,,17755.68237, -57.38970,
,,,17805.00371, -57.38970,
,,,17854.32505, -40.98970,
,,,17903.64639, -28.58970,
,,,17952.96773, -25.78970,
,,,18002.28907, -27.38970,
,,,18051.61041, -30.58970,
,,,18100.93175, -49.78970,
,,,18150.25309, -38.18970,
,,,18199.57443, -46.58970,
,,,18248.89577, -54.98970,
,,,18298.21711, -60.58970,
,,,18347.53845, -53.38970,
,,,18396.85979, -51.78970,
,,,18446.18113, -51.78970,
,,,18495.50247, -51.38970,
,,,18544.82381, -50.98970,
,,,18594.14515, -49.38970,
,,,18643.46649, -48.18970,
,,,18692.78783, -47.78970,
,,,18742.10917, -47.38970,
,,,18791.43051, -48.98970,
,,,18840.75185, -53.38970,
,,,18890.07319, -38.18970,
,,,18939.39453, -31.78970,
,,,18988.71587, -32.98970,
,,,19038.03721, -36.18970,
,,,19087.35855, -48.18970,
,,,19136.67989, -36.98970,
,,,19186.00123, -40.98970,
,,,19235.32257, -45.78970,
,,,19284.64391, -49.38970,
,,,19333.96525, -54.58970,
,,,19383.28659, -56.18970,
,,,19432.60793, -54.58970,
,,,19481.92927, -57.78970,
,,,19531.25061, -60.58970,
,,,19580.57195, -55.38970,
,,,19629.89329, -51.38970,
,,,19679.21463, -47.78970,
,,,19728.53597, -45.38970,
,,,19777.85731, -44.18970,
,,,19827.17865, -42.18970,
,,,19876.49999, -43.38970,
,,,19925.82133, -46.18970,
,,,19975.14267, -44.98970,
,,,20024.46401, -43.38970,
,,,20073.78535, -40.98970,
,,,20123.10669, -38.98970,
,,,20172.42803, -40.18970,
,,,20221.74937, -42.18970,
,,,20271.07071, -44.18970,
,,,20320.39205, -46.98970,
,,,20369.71339, -50.58970,
,,,20419.03473, -51.78970,
,,,20468.35607, -53.38970,
,,,20517.67741, -53.38970,
,,,20566.99875, -57.38970,
,,,20616.32009, -56.18970,
,,,20665.64143, -53.38970,
,,,20714.96277, -48.58970,
,,,20764.28411, -44.58970,
,,,20813.60545, -40.98970,
,,,20862.92679, -36.18970,
,,,20912.24813, -30.98970,
,,,20961.56947, -30.18970,
,,,21010.89081, -31.38970,
,,,21060.21215, -34.58970,
,,,21109.53349, -44.58970,
,,,21158.85483, -49.38970,
,,,21208.17617, -44.98970,
,,,21257.49751, -45.78970,
,,,21306.81885, -46.98970,
,,,21356.14019, -48.58970,
,,,21405.46153, -51.38970,
,,,21454.78287, -53.38970,
,,,21504.10421, -52.98970,
,,,21553.42555, -52.58970,
,,,21602.74689, -52.18970,
,,,21652.06823, -53.38970,
,,,21701.38957, -58.58970,
,,,21750.71091, -52.18970,
,,,21800.03225, -44.58970,
,,,21849.35359, -38.18970,
,,,21898.67493, -29.38970,
,,,21947.99627, -26.98970,
,,,21997.31761, -28.58970,
,,,22046.63895, -31.78970,
,,,22095.96029, -48.98970,
,,,22145.28163, -44.98970,
,,,22194.60297, -60.58970,
,,,22243.92431, -50.58970,
,,,22293.24565, -47.78970,
,,,22342.56699, -48.98970,
,,,22391.88833, -49.78970,
,,,22441.20967, -50.18970,
,,,22490.53101, -49.38970,
,,,22539.85235, -47.78970,
,,,22589.17369, -48.58970,
,,,22638.49503, -48.58970,
,,,22687.81637, -49.78970,
,,,22737.13771, -53.38970,
,,,22786.45905, -61.38970,
,,,22835.78039, -47.38970,
,,,22885.10173, -32.98970,
,,,22934.42307, -27.78970,
,,,22983.74441, -29.38970,
,,,23033.06575, -32.18970,
,,,23082.38709, -47.38970,
,,,23131.70843, -37.38970,
,,,23181.02977, -43.38970,
,,,23230.35111, -52.98970,
,,,23279.67245, -64.58970,
,,,23328.99379, -57.78970,
,,,23378.31513, -54.98970,
,,,23427.63647, -52.18970,
,,,23476.95781, -51.38970,
,,,23526.27915, -50.18970,
,,,23575.60049, -49.38970,
,,,23624.92183, -47.78970,
,,,23674.24317, -48.18970,
,,,23723.56451, -46.58970,
,,,23772.88585, -47.78970,
,,,23822.20719, -48.98970,
,,,23871.52853, -45.78970,
,,,23920.84987, -34.18970,
,,,23970.17121, -34.98970,
,,,24019.49255, -38.58970,
,,,24068.81389, -50.18970,
,,,24118.13523, -36.58970,
,,,24167.45657, -38.18970,
,,,24216.77791, -42.58970,
,,,24266.09925, -46.58970,
,,,24315.42059, -52.58970,
,,,24364.74193, -61.38970,
,,,24414.06327, -57.38970,
,,,24463.38461, -54.58970,
,,,24512.70595, -51.38970,
,,,24562.02729, -52.18970,
,,,24611.34863, -51.38970,
,,,24660.66997, -49.78970,
,,,24709.99131, -46.18970,
,,,24759.31265, -43.78970,
,,,24808.63399, -42.98970,
,,,24857.95533, -42.58970,
,,,24907.27667, -45.78970,
,,,24956.59801, -45.78970,
,,,25005.91935, -43.78970,
,,,25055.24069, -40.98970,
,,,25104.56203, -38.58970,
,,,25153.88337, -38.98970,
,,,25203.20471, -41.38970,
,,,25252.52605, -43.78970,
,,,25301.84739, -46.18970,
,,,25351.16873, -49.38970,
,,,25400.49007, -53.38970,
,,,25449.81141, -53.38970,
,,,25499.13275, -54.58970,
,,,25548.45409, -57.78970,
,,,25597.77543, -60.58970,
,,,25647.09677, -54.98970,
,,,25696.41811, -49.78970,
,,,25745.73945, -44.98970,
,,,25795.06079, -41.38970,
,,,25844.38213, -38.58970,
,,,25893.70347, -33.38970,
,,,25943.02481, -31.38970,
,,,25992.34615, -32.58970,
,,,26041.66749, -34.58970,
,,,26090.98883, -41.78970,
,,,26140.31017, -48.98970,
,,,26189.63151, -44.98970,
,,,26238.95285, -44.58970,
,,,26288.27419, -45.38970,
,,,26337.59553, -46.98970,
,,,26386.91687, -49.38970,
,,,26436.23821, -50.58970,
,,,26485.55955, -52.18970,
,,,26534.88089, -52.58970,
,,,26584.20223, -54.58970,
,,,26633.52357, -57.38970,
,,,26682.84491, -66.98970,
,,,26732.16625, -56.18970,
,,,26781.48759, -46.98970,
,,,26830.80893, -42.18970,
,,,26880.13027, -32.98970,
,,,26929.45161, -28.98970,
,,,26978.77295, -29.78970,
,,,27028.09429, -32.58970,
,,,27077.41563, -43.78970,
,,,27126.73697, -43.38970,
,,,27176.05831, -57.78970,
,,,27225.37965, -52.18970,
,,,27274.70099, -47.78970,
,,,27324.02233, -46.18970,
,,,27373.34367, -46.98970,
,,,27422.66501, -48.58970,
,,,27471.98635, -49.38970,
,,,27521.30769, -48.98970,
,,,27570.62903, -49.38970,
,,,27619.95037, -48.58970,
,,,27669.27171, -49.78970,
,,,27718.59305, -51.78970,
,,,27767.91439, -66.98970,
,,,27817.23573, -54.58970,
,,,27866.55707, -38.18970,
,,,27915.87841, -30.58970,
,,,27965.19975, -30.58970,
,,,28014.52109, -34.18970,
,,,28063.84243, -44.18970,
,,,28113.16377, -37.78970,
,,,28162.48511, -40.58970,
,,,28211.80645, -51.38970,
,,,28261.12779, -61.38970,
,,,28310.44913, -53.38970,
,,,28359.77047, -54.58970,
,,,28409.09181, -51.38970,
,,,28458.41315, -51.38970,
,,,28507.73449, -50.58970,
,,,28557.05583, -49.78970,
,,,28606.37717, -47.38970,
,,,28655.69851, -47.38970,
,,,28705.01985, -46.18970,
,,,28754.34119, -47.38970,
,,,28803.66253, -49.38970,
,,,28852.98387, -58.58970,
,,,28902.30521, -37.78970,
,,,28951.62655, -36.18970,
,,,29000.94789, -40.98970,
,,,29050.26923, -49.78970,
,,,29099.59057, -37.38970,
,,,29148.91191, -36.98970,
,,,29198.23325, -42.58970,
,,,29247.55459, -47.38970,
,,,29296.87593, -54.98970,
,,,29346.19727, -58.58970,
,,,29395.51861, -53.38970,
,,,29444.83995, -54.58970,
,,,29494.16129, -54.98970,
,,,29543.48263, -53.38970,
,,,29592.80397, -49.78970,
,,,29642.12531, -48.18970,
,,,29691.44665, -45.38970,
,,,29740.76799, -44.98970,
,,,29790.08933, -43.38970,
,,,29839.41067, -42.98970,
,,,29888.73201, -44.58970,
,,,29938.05335, -45.78970,
,,,29987.37469, -42.98970,
,,,30036.69603, -41.38970,
,,,30086.01737, -38.18970,
,,,30135.33871, -38.18970,
,,,30184.66005, -40.18970,
,,,30233.98139, -42.58970,
,,,30283.30273, -45.38970,
,,,30332.62407, -47.78970,
,,,30381.94541, -50.58970,
,,,30431.26675, -52.18970,
,,,30480.58809, -57.38970,
,,,30529.90943, -56.18970,
,,,30579.23077, -54.98970,
,,,30628.55211, -54.98970,
,,,30677.87345, -52.58970,
,,,30727.19479, -48.98970,
,,,30776.51613, -43.78970,
,,,30825.83747, -40.58970,
,,,30875.15881, -35.78970,
,,,30924.48015, -32.58970,
,,,30973.80149, -33.38970,
,,,31023.12283, -35.38970,
,,,31072.44417, -40.58970,
,,,31121.76551, -48.58970,
,,,31171.08685, -45.38970,
,,,31220.40819, -44.18970,
,,,31269.72953, -44.98970,
,,,31319.05087, -44.98970,
,,,31368.37221, -46.98970,
,,,31417.69355, -48.18970,
,,,31467.01489, -51.38970,
,,,31516.33623, -53.38970,
,,,31565.65757, -55.38970,
,,,31614.97891, -56.18970,
,,,31664.30025, -60.58970,
,,,31713.62159, -64.58970,
,,,31762.94293, -50.58970,
,,,31812.26427, -44.58970,
,,,31861.58561, -36.58970,
,,,31910.90695, -30.58970,
,,,31960.22829, -30.58970,
,,,32009.54963, -33.78970,
,,,32058.87097, -40.58970,
,,,32108.19231, -46.18970,
,,,32157.51365, -49.78970,
,,,32206.83499, -52.58970,
,,,32256.15633, -49.78970,
,,,32305.47767, -48.58970,
,,,32354.79901, -48.58970,
,,,32404.12035, -48.98970,
,,,32453.44169, -49.38970,
,,,32502.76303, -50.18970,
,,,32552.08437, -51.38970,
,,,32601.40571, -52.18970,
,,,32650.72705, -51.78970,
,,,32700.04839, -51.78970,
,,,32749.36973, -60.58970,
,,,32798.69107, -54.98970,
,,,32848.01241, -42.18970,
,,,32897.33375, -32.58970,
,,,32946.65509, -31.38970,
,,,32995.97643, -34.98970,
,,,33045.29777, -42.18970,
,,,33094.61911, -39.38970,
,,,33143.94045, -38.18970,
,,,33193.26179, -47.38970,
,,,33242.58313, -57.78970,
,,,33291.90447, -54.98970,
,,,33341.22581, -52.58970,
,,,33390.54715, -49.38970,
,,,33439.86849, -49.78970,
,,,33489.18983, -50.58970,
,,,33538.51117, -49.78970,
,,,33587.83251, -48.98970,
,,,33637.15385, -48.98970,
,,,33686.47519, -47.38970,
,,,33735.79653, -47.38970,
,,,33785.11787, -48.98970,
,,,33834.43921, -56.18970,
,,,33883.76055, -40.98970,
,,,33933.08189, -36.58970,
,,,33982.40323, -42.18970,
,,,34031.72457, -50.58970,
,,,34081.04591, -38.98970,
,,,34130.36725, -35.78970,
,,,34179.68859, -40.98970,
,,,34229.00993, -45.38970,
,,,34278.33127, -49.78970,
,,,34327.65261, -57.38970,
,,,34376.97395, -61.38970,
,,,34426.29529, -58.58970,
,,,34475.61663, -57.38970,
,,,34524.93797, -54.58970,
,,,34574.25931, -51.38970,
,,,34623.58065, -50.18970,
,,,34672.90199, -47.38970,
,,,34722.22333, -44.98970,
,,,34771.54467, -43.78970,
,,,34820.86601, -42.58970,
,,,34870.18735, -44.18970,
,,,34919.50869, -46.58970,
,,,34968.83003, -43.38970,
,,,35018.15137, -41.38970,
,,,35067.47271, -38.98970,
,,,35116.79405, -37.78970,
,,,35166.11539, -40.18970,
,,,35215.43673, -42.58970,
,,,35264.75807, -45.38970,
,,,35314.07941, -48.18970,
,,,35363.40075, -51.38970,
,,,35412.72209, -57.38970,
,,,35462.04343, -57.38970,
,,,35511.36477, -54.98970,
,,,35560.68611, -54.58970,
,,,35610.00745, -57.38970,
,,,35659.32879, -54.98970,
,,,35708.65013, -48.18970,
,,,35757.97147, -44.58970,
,,,35807.29281, -41.78970,
,,,35856.61415, -38.18970,
,,,35905.93549, -34.18970,
,,,35955.25683, -34.18970,
,,,36004.57817, -36.18970,
