Lab 2/ALL0019/F0019FFT.CSV

Record Length,1.024000e+03,,          0.00000,  -4.58970,
Sample Interval,4.932134e+01,,         49.32134,  -1.78970,
Trigger Point,-0.000000000000e+00,,         98.64268,  -8.58970,
,,,        147.96402, -64.58970,
,,,        197.28535, -60.58970,
,,,        246.60669, -64.58970,
Source,FFT,,        295.92803, -64.58970,
Vertical Units,dB,,        345.24937, -64.58970,
Vertical Scale,1.000000e+01,,        394.57071, -61.38970,
Vertical Offset,0.000000e+00,,        443.89205, -66.98970,
Horizontal Units,Hz,,        493.21338, -66.98970,
Horizontal Scale,5.050505e+03,,        542.53472, -60.58970,
Pt Fmt,Y,,        591.85606, -66.98970,
Yzero,-2.698970e+01,,        641.17740, -61.38970,
Probe Atten,1.000000e+00,,        690.49874, -57.38970,
Model Number,TBS1072B-EDU,,        739.82008, -55.38970,
Serial Number,C012918,,        789.14141, -46.58970,
Firmware Version,FV:v4.06,,        838.46275, -37.78970,
,,,887.78409, -16.58970,
,,,937.10543,  -6.98970,
,,,986.42677,  -5.38970,
,,,1035.74811,  -5.38970,
,,,1085.06945,  -9.38970,
,,,1134.39079, -28.98970,
,,,1183.71213, -42.98970,
,,,1233.03347, -50.58970,
,,,1282.35481, -57.38970,
,,,1331.67615, -61.38970,
,,,1380.99749, -66.98970,
,,,1430.31883, -66.98970,
,,,1479.64017, -66.98970,
,,,1528.96151, -66.98970,
,,,1578.28285, -64.58970,
,,,1627.60419, -57.78970,
,,,1676.92553, -66.98970,
,,,1726.24687, -53.38970,
,,,1775.56821, -51.78970,
,,,1824.88955, -39.78970,
,,,1874.21089, -24.98970,
,,,1923.53223, -10.18970,
,,,1972.85357,  -7.38970,
,,,2022.17491,  -7.38970,
,,,2071.49625,  -9.38970,
,,,2120.81759, -22.18970,
,,,2170.13893, -40.18970,
,,,2219.46027, -46.58970,
,,,2268.78161, -55.38970,
,,,2318.10295, -61.38970,
,,,2367.42429, -64.58970,
,,,2416.74563, -61.38970,
,,,2466.06697, -66.98970,
,,,2515.38831, -66.98970,
,,,2564.70965, -66.98970,
,,,2614.03099, -61.38970,
,,,2663.35233, -66.98970,
,,,2712.67367, -66.98970,
,,,2761.99501, -60.58970,
,,,2811.31635, -51.78970,
,,,2860.63769, -39.78970,
,,,2909.95903, -15.78970,
,,,2959.28037, -10.98970,
,,,3008.60171, -10.58970,
,,,3057.92305, -11.78970,
,,,3107.24439, -20.18970,
,,,3156.56573, -45.78970,
,,,3205.88707, -53.38970,
,,,3255.20841, -64.58970,
,,,3304.52975, -66.98970,
,,,3353.85109, -66.98970,
,,,3403.17243, -60.58970,
,,,3452.49377, -66.98970,
,,,3501.81511, -60.58970,
,,,3551.13645, -57.38970,
,,,3600.45779, -60.58970,
,,,3649.77913, -60.58970,
,,,3699.10047, -60.58970,
,,,3748.42181, -60.58970,
,,,3797.74315, -66.98970,
,,,3847.06449, -53.38970,
,,,3896.38583, -25.78970,
,,,3945.70717, -18.18970,
,,,3995.02851, -16.98970,
,,,4044.34985, -17.38970,
,,,4093.67119, -22.98970,
,,,4142.99253, -51.38970,
,,,4192.31387, -60.58970,
,,,4241.63521, -64.58970,
,,,4290.95655, -66.98970,
,,,4340.27789, -66.98970,
,,,4389.59923, -64.58970,
,,,4438.92057, -61.38970,
,,,4488.24191, -60.58970,
,,,4537.56325, -60.58970,
,,,4586.88459, -60.58970,
,,,4636.20593, -60.58970,
,,,4685.52727, -64.58970,
,,,4734.84861, -66.98970,
,,,4784.16995, -66.98970,
,,,4833.49129, -66.98970,
,,,4882.81263, -61.38970,
,,,4932.13397, -46.58970,
,,,4981.45531, -44.98970,
,,,5030.77665, -44.98970,
,,,5080.09799, -48.18970,
,,,5129.41933, -61.38970,
,,,5178.74067, -66.98970,
,,,5228.06201, -66.98970,
,,,5277.38335, -66.98970,
,,,5326.70469, -66.98970,
,,,5376.02603, -64.58970,
,,,5425.34737, -61.38970,
,,,5474.66871, -61.38970,
,,,5523.99005, -60.58970,
,,,5573.31139, -66.98970,
,,,5622.63273, -66.98970,
,,,5671.95407, -61.38970,
,,,5721.27541, -66.98970,
,,,5770.59675, -57.38970,
,,,5819.91809, -60.58970,
,,,5869.23943, -41.78970,
,,,5918.56077, -24.98970,
,,,5967.88211, -21.38970,
,,,6017.20345, -21.38970,
,,,6066.52479, -22.98970,
,,,6115.84613, -33.78970,
,,,6165.16747, -51.38970,
,,,6214.48881, -66.98970,
,,,6263.81015, -61.38970,
,,,6313.13149, -64.58970,
,,,6362.45283, -64.58970,
,,,6411.77417, -66.98970,
,,,6461.09551, -66.98970,
,,,6510.41685, -60.58970,
,,,6559.73819, -64.58970,
,,,6609.05953, -66.98970,
,,,6658.38087, -64.58970,
,,,6707.70221, -64.58970,
,,,6757.02355, -61.38970,
,,,6806.34489, -66.98970,
,,,6855.66623, -54.58970,
,,,6904.98757, -24.58970,
,,,6954.30891, -18.58970,
,,,7003.63025, -18.18970,
,,,7052.95159, -18.98970,
,,,7102.27293, -26.18970,
,,,7151.59427, -58.58970,
,,,7200.91561, -66.98970,
,,,7250.23695, -60.58970,
,,,7299.55829, -64.58970,
,,,7348.87963, -64.58970,
,,,7398.20097, -66.98970,
,,,7447.52231, -64.58970,
,,,7496.84365, -60.58970,
,,,7546.16499, -60.58970,
,,,7595.48633, -60.58970,
,,,7644.80767, -64.58970,
,,,7694.12901, -64.58970,
,,,7743.45035, -66.98970,
,,,7792.77169, -57.78970,
,,,7842.09303, -52.98970,
,,,7891.41437, -29.38970,
,,,7940.73571, -20.18970,
,,,7990.05705, -18.98970,
,,,8039.37839, -19.38970,
,,,8088.69973, -23.78970,
,,,8138.02107, -44.98970,
,,,8187.34241, -61.38970,
,,,8236.66375, -64.58970,
,,,8285.98509, -66.98970,
,,,8335.30643, -60.58970,
,,,8384.62777, -66.98970,
,,,8433.94911, -66.98970,
,,,8483.27045, -66.98970,
,,,8532.59179, -66.98970,
,,,8581.91313, -66.98970,
,,,8631.23447, -64.58970,
,,,8680.55581, -66.98970,
,,,8729.87715, -64.58970,
,,,8779.19849, -60.58970,
,,,8828.51983, -54.98970,
,,,8877.84117, -39.78970,
,,,8927.16251, -26.18970,
,,,8976.48385, -23.78970,
,,,9025.80519, -23.78970,
,,,9075.12653, -26.18970,
,,,9124.44787, -40.18970,
,,,9173.76921, -57.38970,
,,,9223.09055, -60.58970,
,,,9272.41189, -66.98970,
,,,9321.73323, -64.58970,
,,,9371.05457, -66.98970,
,,,9420.37591, -66.98970,
,,,9469.69725, -66.98970,
,,,9519.01859, -66.98970,
,,,9568.33993, -66.98970,
,,,9617.66127, -66.98970,
,,,9666.98261, -66.98970,
,,,9716.30395, -64.58970,
,,,9765.62529, -66.98970,
,,,9814.94663, -66.98970,
,,,9864.26797, -64.58970,
,,,9913.58931, -49.78970,
,,,9962.91065, -44.98970,
,,,10012.23199, -44.58970,
,,,10061.55333, -45.38970,
,,,10110.87467, -52.98970,
,,,10160.19601, -64.58970,
,,,10209.51735, -58.58970,
,,,10258.83869, -64.58970,
,,,10308.16003, -66.98970,
,,,10357.48137, -66.98970,
,,,10406.80271, -64.58970,
,,,10456.12405, -61.38970,
,,,10505.44539, -61.38970,
,,,10554.76673, -60.58970,
,,,10604.08807, -66.98970,
,,,10653.40941, -66.98970,
,,,10702.73075, -64.58970,
,,,10752.05209, -64.58970,
,,,10801.37343, -66.98970,
,,,10850.69477, -66.98970,
,,,10900.01611, -34.58970,
,,,10949.33745, -27.38970,
,,,10998.65879, -26.98970,
,,,11047.98013, -27.38970,
,,,11097.30147, -33.38970,
,,,11146.62281, -60.58970,
,,,11195.94415, -61.38970,
,,,11245.26549, -66.98970,
,,,11294.58683, -64.58970,
,,,11343.90817, -66.98970,
,,,11393.22951, -64.58970,
,,,11442.55085, -64.58970,
,,,11491.87219, -60.58970,
,,,11541.19353, -60.58970,
,,,11590.51487, -64.58970,
,,,11639.83621, -64.58970,
,,,11689.15755, -66.98970,
,,,11738.47889, -60.58970,
,,,11787.80023, -60.58970,
,,,11837.12157, -54.98970,
,,,11886.44291, -34.98970,
,,,11935.76425, -24.58970,
,,,11985.08559, -22.58970,
,,,12034.40693, -22.98970,
,,,12083.72827, -26.58970,
,,,12133.04961, -44.98970,
,,,12182.37095, -54.98970,
,,,12231.69229, -66.98970,
,,,12281.01363, -61.38970,
,,,12330.33497, -64.58970,
,,,12379.65631, -66.98970,
,,,12428.97765, -66.98970,
,,,12478.29899, -66.98970,
,,,12527.62033, -61.38970,
,,,12576.94167, -60.58970,
,,,12626.26301, -60.58970,
,,,12675.58435, -66.98970,
,,,12724.90569, -66.98970,
,,,12774.22703, -66.98970,
,,,12823.54837, -60.58970,
,,,12872.86971, -41.38970,
,,,12922.19105, -26.18970,
,,,12971.51239, -22.98970,
,,,13020.83373, -22.98970,
,,,13070.15507, -24.98970,
,,,13119.47641, -36.98970,
,,,13168.79775, -52.98970,
,,,13218.11909, -66.98970,
,,,13267.44043, -64.58970,
,,,13316.76177, -64.58970,
,,,13366.08311, -61.38970,
,,,13415.40445, -64.58970,
,,,13464.72579, -60.58970,
,,,13514.04713, -66.98970,
,,,13563.36847, -66.98970,
,,,13612.68981, -60.58970,
,,,13662.01115, -64.58970,
,,,13711.33249, -66.98970,
,,,13760.65383, -66.98970,
,,,13809.97517, -66.98970,
,,,13859.29651, -60.58970,
,,,13908.61785, -32.98970,
,,,13957.93919, -27.38970,
,,,14007.26053, -26.98970,
,,,14056.58187, -27.78970,
,,,14105.90321, -35.78970,
,,,14155.22455, -60.58970,
,,,14204.54589, -60.58970,
,,,14253.86723, -61.38970,
,,,14303.18857, -61.38970,
,,,14352.50991, -60.58970,
,,,14401.83125, -66.98970,
,,,14451.15259, -66.98970,
,,,14500.47393, -66.98970,
,,,14549.79527, -66.98970,
,,,14599.11661, -66.98970,
,,,14648.43795, -64.58970,
,,,14697.75929, -64.58970,
,,,14747.08063, -66.98970,
,,,14796.40197, -66.98970,
,,,14845.72331, -66.98970,
,,,14895.04465, -54.58970,
,,,14944.36599, -45.38970,
,,,14993.68733, -44.18970,
,,,15043.00867, -44.98970,
,,,15092.33001, -50.18970,
,,,15141.65135, -61.38970,
,,,15190.97269, -64.58970,
,,,15240.29403, -64.58970,
,,,15289.61537, -66.98970,
,,,15338.93671, -64.58970,
,,,15388.25805, -64.58970,
,,,15437.57939, -64.58970,
,,,15486.90073, -60.58970,
,,,15536.22207, -64.58970,
,,,15585.54341, -61.38970,
,,,15634.86475, -66.98970,
,,,15684.18609, -66.98970,
,,,15733.50743, -64.58970,
,,,15782.82877, -64.58970,
,,,15832.15011, -56.18970,
,,,15881.47145, -45.78970,
,,,15930.79279, -32.58970,
,,,15980.11413, -30.18970,
,,,16029.43547, -30.18970,
,,,16078.75681, -33.38970,
,,,16128.07815, -47.78970,
,,,16177.39949, -66.98970,
,,,16226.72083, -61.38970,
,,,16276.04217, -61.38970,
,,,16325.36351, -60.58970,
,,,16374.68485, -64.58970,
,,,16424.00619, -66.98970,
,,,16473.32753, -66.98970,
,,,16522.64887, -66.98970,
,,,16571.97021, -66.98970,
,,,16621.29155, -66.98970,
,,,16670.61289, -66.98970,
,,,16719.93423, -66.98970,
,,,16769.25557, -57.38970,
,,,16818.57691, -66.98970,
,,,16867.89825, -47.38970,
,,,16917.21959, -29.78970,
,,,16966.54093, -25.78970,
,,,17015.86227, -25.78970,
,,,17065.18361, -26.98970,
,,,17114.50495, -37.38970,
,,,17163.82629, -58.58970,
,,,17213.14763, -66.98970,
,,,17262.46897, -66.98970,
,,,17311.79031, -64.58970,
,,,17361.11165, -66.98970,
,,,17410.43299, -66.98970,
,,,17459.75433, -66.98970,
,,,17509.07567, -66.98970,
,,,17558.39701, -66.98970,
,,,17607.71835, -66.98970,
,,,17657.03969, -66.98970,
,,,17706.36103, -66.98970,
,,,17755.68237, -64.58970,
,,,17805.00371, -64.58970,
,,,17854.32505, -64.58970,
,,,17903.64639, -32.58970,
,,,17952.96773, -26.18970,
,,,18002.28907, -25.38970,
,,,18051.61041, -26.18970,
,,,18100.93175, -32.58970,
,,,18150.25309, -66.98970,
,,,18199.57443, -66.98970,
,,,18248.89577, -66.98970,
,,,18298.21711, -60.58970,
,,,18347.53845, -66.98970,
,,,18396.85979, -64.58970,
,,,18446.18113, -60.58970,
,,,18495.50247, -64.58970,
,,,18544.82381, -66.98970,
,,,18594.14515, -64.58970,
,,,18643.46649, -66.98970,
,,,18692.78783, -64.58970,
,,,18742.10917, -66.98970,
,,,18791.43051, -60.58970,
,,,18840.75185, -66.98970,
,,,18890.07319, -39.78970,
,,,18939.39453, -30.58970,
,,,18988.71587, -28.98970,
,,,19038.03721, -29.38970,
,,,19087.35855, -33.38970,
,,,19136.67989, -52.98970,
,,,19186.00123, -66.98970,
,,,19235.32257, -66.98970,
,,,19284.64391, -66.98970,
,,,19333.96525, -66.98970,
,,,19383.28659, -60.58970,
,,,19432.60793, -64.58970,
,,,19481.92927, -64.58970,
,,,19531.25061, -64.58970,
,,,19580.57195, -66.98970,
,,,19629.89329, -66.98970,
,,,19679.21463, -66.98970,
,,,19728.53597, -64.58970,
,,,19777.85731, -66.98970,
,,,19827.17865, -64.58970,
,,,19876.49999, -60.58970,
,,,19925.82133, -46.98970,
,,,19975.14267, -43.78970,
,,,20024.46401, -43.38970,
,,,20073.78535, -45.78970,
,,,20123.10669, -57.38970,
,,,20172.42803, -66.98970,
,,,20221.74937, -66.98970,
,,,20271.07071, -66.98970,
,,,20320.39205, -64.58970,
,,,20369.71339, -66.98970,
,,,20419.03473, -66.98970,
,,,20468.35607, -64.58970,
,,,20517.67741, -66.98970,
,,,20566.99875, -66.98970,
,,,20616.32009, -64.58970,
,,,20665.64143, -66.98970,
,,,20714.96277, -66.98970,
,,,20764.28411, -66.98970,
,,,20813.60545, -66.98970,
,,,20862.92679, -64.58970,
,,,20912.24813, -38.58970,
,,,20961.56947, -33.38970,
,,,21010.89081, -33.38970,
,,,21060.21215, -34.18970,
,,,21109.53349, -42.58970,
,,,21158.85483, -66.98970,
,,,21208.17617, -66.98970,
,,,21257.49751, -66.98970,
,,,21306.81885, -64.58970,
,,,21356.14019, -64.58970,
,,,21405.46153, -61.38970,
,,,21454.78287, -64.58970,
,,,21504.10421, -66.98970,
,,,21553.42555, -66.98970,
,,,21602.74689, -64.58970,
,,,21652.06823, -66.98970,
,,,21701.38957, -64.58970,
,,,21750.71091, -64.58970,
,,,21800.03225, -66.98970,
,,,21849.35359, -64.58970,
,,,21898.67493, -36.58970,
,,,21947.99627, -28.58970,
,,,21997.31761, -27.78970,
,,,22046.63895, -28.18970,
,,,22095.96029, -33.78970,
,,,22145.28163, -64.58970,
,,,22194.60297, -66.98970,
,,,22243.92431, -66.98970,
,,,22293.24565, -66.98970,
,,,22342.56699, -66.98970,
,,,22391.88833, -66.98970,
,,,22441.20967, -60.58970,
,,,22490.53101, -61.38970,
,,,22539.85235, -64.58970,
,,,22589.17369, -64.58970,
,,,22638.49503, -66.98970,
,,,22687.81637, -66.98970,
,,,22737.13771, -57.38970,
,,,22786.45905, -61.38970,
,,,22835.78039, -53.38970,
,,,22885.10173, -41.38970,
,,,22934.42307, -29.38970,
,,,22983.74441, -27.38970,
,,,23033.06575, -27.38970,
,,,23082.38709, -30.98970,
,,,23131.70843, -49.78970,
,,,23181.02977, -58.58970,
,,,23230.35111, -60.58970,
,,,23279.67245, -66.98970,
,,,23328.99379, -61.38970,
,,,23378.31513, -61.38970,
,,,23427.63647, -66.98970,
,,,23476.95781, -66.98970,
,,,23526.27915, -60.58970,
,,,23575.60049, -61.38970,
,,,23624.92183, -61.38970,
,,,23674.24317, -64.58970,
,,,23723.56451, -64.58970,
,,,23772.88585, -64.58970,
,,,23822.20719, -66.98970,
,,,23871.52853, -50.58970,
,,,23920.84987, -33.78970,
,,,23970.17121, -30.58970,
,,,24019.49255, -30.58970,
,,,24068.81389, -32.58970,
,,,24118.13523, -44.58970,
,,,24167.45657, -57.38970,
,,,24216.77791, -60.58970,
,,,24266.09925, -66.98970,
,,,24315.42059, -66.98970,
,,,24364.74193, -61.38970,
,,,24414.06327, -66.98970,
,,,24463.38461, -66.98970,
,,,24512.70595, -66.98970,
,,,24562.02729, -66.98970,
,,,24611.34863, -66.98970,
,,,24660.66997, -64.58970,
,,,24709.99131, -60.58970,
,,,24759.31265, -64.58970,
,,,24808.63399, -64.58970,
,,,24857.95533, -66.98970,
,,,24907.27667, -49.78970,
,,,24956.59801, -44.18970,
,,,25005.91935, -43.78970,
,,,25055.24069, -44.58970,
,,,25104.56203, -53.38970,
,,,25153.88337, -66.98970,
,,,25203.20471, -60.58970,
,,,25252.52605, -64.58970,
,,,25301.84739, -66.98970,
,,,25351.16873, -66.98970,
,,,25400.49007, -66.98970,
,,,25449.81141, -64.58970,
,,,25499.13275, -66.98970,
,,,25548.45409, -66.98970,
,,,25597.77543, -66.98970,
,,,25647.09677, -66.98970,
,,,25696.41811, -64.58970,
,,,25745.73945, -64.58970,
,,,25795.06079, -64.58970,
,,,25844.38213, -66.98970,
,,,25893.70347, -44.58970,
,,,25943.02481, -36.18970,
,,,25992.34615, -34.98970,
,,,26041.66749, -34.98970,
,,,26090.98883, -38.98970,
,,,26140.31017, -56.18970,
,,,26189.63151, -66.98970,
,,,26238.95285, -66.98970,
,,,26288.27419, -64.58970,
,,,26337.59553, -66.98970,
,,,26386.91687, -66.98970,
,,,26436.23821, -66.98970,
,,,26485.55955, -66.98970,
,,,26534.88089, -66.98970,
,,,26584.20223, -66.98970,
,,,26633.52357, -66.98970,
,,,26682.84491, -64.58970,
,,,26732.16625, -66.98970,
,,,26781.48759, -61.38970,
,,,26830.80893, -61.38970,
,,,26880.13027, -45.38970,
,,,26929.45161, -31.78970,
,,,26978.77295, -29.38970,
,,,27028.09429, -29.38970,
,,,27077.41563, -31.78970,
,,,27126.73697, -44.58970,
,,,27176.05831, -64.58970,
,,,27225.37965, -60.58970,
,,,27274.70099, -66.98970,
,,,27324.02233, -66.98970,
,,,27373.34367, -66.98970,
,,,27422.66501, -66.98970,
,,,27471.98635, -66.98970,
,,,27521.30769, -66.98970,
,,,27570.62903, -66.98970,
,,,27619.95037, -66.98970,
,,,27669.27171, -66.98970,
,,,27718.59305, -66.98970,
,,,27767.91439, -66.98970,
,,,27817.23573, -66.98970,
,,,27866.55707, -52.58970,
,,,27915.87841, -32.98970,
,,,27965.19975, -28.98970,
,,,28014.52109, -28.58970,
,,,28063.84243, -29.78970,
,,,28113.16377, -39.38970,
,,,28162.48511, -64.58970,
,,,28211.80645, -66.98970,
,,,28261.12779, -66.98970,
,,,28310.44913, -66.98970,
,,,28359.77047, -66.98970,
,,,28409.09181, -66.98970,
,,,28458.41315, -66.98970,
,,,28507.73449, -64.58970,
,,,28557.05583, -60.58970,
,,,28606.37717, -60.58970,
,,,28655.69851, -60.58970,
,,,28705.01985, -60.58970,
,,,28754.34119, -61.38970,
,,,28803.66253, -64.58970,
,,,28852.98387, -66.98970,
,,,28902.30521, -38.98970,
,,,28951.62655, -32.18970,
,,,29000.94789, -31.78970,
,,,29050.26923, -32.18970,
,,,29099.59057, -38.18970,
,,,29148.91191, -64.58970,
,,,29198.23325, -66.98970,
,,,29247.55459, -66.98970,
,,,29296.87593, -66.98970,
,,,29346.19727, -66.98970,
,,,29395.51861, -66.98970,
,,,29444.83995, -64.58970,
,,,29494.16129, -64.58970,
,,,29543.48263, -64.58970,
,,,29592.80397, -66.98970,
,,,29642.12531, -66.98970,
,,,29691.44665, -64.58970,
,,,29740.76799, -66.98970,
,,,29790.08933, -64.58970,
,,,29839.41067, -66.98970,
,,,29888.73201, -56.18970,
,,,29938.05335, -45.38970,
,,,29987.37469, -43.78970,
,,,30036.69603, -43.38970,
,,,30086.01737, -47.38970,
,,,30135.33871, -60.58970,
,,,30184.66005, -66.98970,
,,,30233.98139, -66.98970,
,,,30283.30273, -66.98970,
,,,30332.62407, -66.98970,
,,,30381.94541, -66.98970,
,,,30431.26675, -66.98970,
,,,30480.58809, -66.98970,
,,,30529.90943, -66.98970,
,,,30579.23077, -66.98970,
,,,30628.55211, -66.98970,
,,,30677.87345, -66.98970,
,,,30727.19479, -60.58970,
,,,30776.51613, -61.38970,
,,,30825.83747, -66.98970,
,,,30875.15881, -54.98970,
,,,30924.48015, -40.18970,
,,,30973.80149, -36.98970,
,,,31023.12283, -36.98970,
,,,31072.44417, -38.58970,
,,,31121.76551, -51.38970,
,,,31171.08685, -64.58970,
,,,31220.40819, -66.98970,
,,,31269.72953, -66.98970,
,,,31319.05087, -61.38970,
,,,31368.37221, -64.58970,
,,,31417.69355, -66.98970,
,,,31467.01489, -66.98970,
,,,31516.33623, -61.38970,
,,,31565.65757, -64.58970,
,,,31614.97891, -66.98970,
,,,31664.30025, -66.98970,
,,,31713.62159, -66.98970,
,,,31762.94293, -66.98970,
,,,31812.26427, -64.58970,
,,,31861.58561, -64.58970,
,,,31910.90695, -36.18970,
,,,31960.22829, -30.98970,
,,,32009.54963, -30.58970,
,,,32058.87097, -31.38970,
,,,32108.19231, -39.78970,
,,,32157.51365, -64.58970,
,,,32206.83499, -66.98970,
,,,32256.15633, -66.98970,
,,,32305.47767, -66.98970,
,,,32354.79901, -66.98970,
,,,32404.12035, -66.98970,
,,,32453.44169, -64.58970,
,,,32502.76303, -66.98970,
,,,32552.08437, -60.58970,
,,,32601.40571, -66.98970,
,,,32650.72705, -66.98970,
,,,32700.04839, -66.98970,
,,,32749.36973, -66.98970,
,,,32798.69107, -66.98970,
,,,32848.01241, -64.58970,
,,,32897.33375, -38.58970,
,,,32946.65509, -30.18970,
,,,32995.97643, -29.38970,
,,,33045.29777, -29.78970,
,,,33094.61911, -34.98970,
,,,33143.94045, -57.38970,
,,,33193.26179, -66.98970,
,,,33242.58313, -66.98970,
,,,33291.90447, -66.98970,
,,,33341.22581, -66.98970,
,,,33390.54715, -60.58970,
,,,33439.86849, -64.58970,
,,,33489.18983, -64.58970,
,,,33538.51117, -66.98970,
,,,33587.83251, -64.58970,
,,,33637.15385, -66.98970,
,,,33686.47519, -64.58970,
,,,33735.79653, -66.98970,
,,,33785.11787, -64.58970,
,,,33834.43921, -66.98970,
,,,33883.76055, -45.78970,
,,,33933.08189, -34.18970,
,,,33982.40323, -32.18970,
,,,34031.72457, -32.18970,
,,,34081.04591, -35.38970,
,,,34130.36725, -50.98970,
,,,34179.68859, -60.58970,
,,,34229.00993, -61.38970,
,,,34278.33127, -64.58970,
,,,34327.65261, -66.98970,
,,,34376.97395, -66.98970,
,,,34426.29529, -66.98970,
,,,34475.61663, -66.98970,
,,,34524.93797, -66.98970,
,,,34574.25931, -66.98970,
,,,34623.58065, -66.98970,
,,,34672.90199, -66.98970,
,,,34722.22333, -66.98970,
,,,34771.54467, -66.98970,
,,,34820.86601, -66.98970,
,,,34870.18735, -64.58970,
,,,34919.50869, -47.38970,
,,,34968.83003, -43.38970,
,,,35018.15137, -42.98970,
,,,35067.47271, -44.18970,
,,,35116.79405, -54.58970,
,,,35166.11539, -66.98970,
,,,35215.43673, -66.98970,
,,,35264.75807, -66.98970,
,,,35314.07941, -66.98970,
,,,35363.40075, -66.98970,
,,,35412.72209, -64.58970,
,,,35462.04343, -64.58970,
,,,35511.36477, -64.58970,
,,,35560.68611, -64.58970,
,,,35610.00745, -66.98970,
,,,35659.32879, -66.98970,
,,,35708.65013, -66.98970,
,,,35757.97147, -66.98970,
,,,35807.29281, -61.38970,
,,,35856.61415, -60.58970,
,,,35905.93549, -44.58970,
,,,35955.25683, -38.58970,
,,,36004.57817, -37.78970,
