Lab 2/ALL0013/F0013FFT.CSV

Record Length,1.024000e+03,,          0.00000, -38.18970,
Sample Interval,1.233033e+02,,        123.30335, -36.98970,
Trigger Point,-0.000000000000e+00,,        246.60669, -41.38970,
,,,        369.91004, -46.58970,
,,,        493.21338, -47.38970,
,,,        616.51673, -36.18970,
Source,FFT,,        739.82008,  -9.38970,
Vertical Units,dB,,        863.12342,  -1.38970,
Vertical Scale,1.000000e+01,,        986.42677,  -0.58970,
Vertical Offset,0.000000e+00,,       1109.73011,  -0.98970,
Horizontal Units,Hz,,       1233.03346,  -6.58970,
Horizontal Scale,1.262626e+04,,       1356.33681, -33.78970,
Pt Fmt,Y,,       1479.64015, -47.38970,
Yzero,-2.698970e+01,,       1602.94350, -46.98970,
Probe Atten,1.000000e+00,,       1726.24684, -60.58970,
Model Number,TBS1072B-EDU,,       1849.55019, -51.38970,
Serial Number,C012918,,       1972.85354, -53.38970,
Firmware Version,FV:v4.06,,       2096.15688, -50.98970,
,,,2219.46023, -66.98970,
,,,2342.76358, -47.78970,
,,,2466.06693, -48.18970,
,,,2589.37028, -40.18970,
,,,2712.67363, -22.58970,
,,,2835.97698, -11.78970,
,,,2959.28033, -10.18970,
,,,3082.58368, -10.18970,
,,,3205.88703, -14.18970,
,,,3329.19038, -30.98970,
,,,3452.49373, -47.38970,
,,,3575.79708, -46.18970,
,,,3699.10043, -53.38970,
,,,3822.40378, -52.18970,
,,,3945.70713, -50.58970,
,,,4069.01048, -48.58970,
,,,4192.31383, -53.38970,
,,,4315.61718, -49.78970,
,,,4438.92053, -48.18970,
,,,4562.22388, -43.38970,
,,,4685.52723, -32.58970,
,,,4808.83058, -17.78970,
,,,4932.13393, -14.98970,
,,,5055.43728, -14.98970,
,,,5178.74063, -16.98970,
,,,5302.04398, -29.38970,
,,,5425.34733, -47.78970,
,,,5548.65068, -46.58970,
,,,5671.95403, -52.18970,
,,,5795.25738, -54.98970,
,,,5918.56073, -51.38970,
,,,6041.86408, -50.98970,
,,,6165.16743, -52.98970,
,,,6288.47078, -51.78970,
,,,6411.77413, -47.78970,
,,,6535.07748, -45.78970,
,,,6658.38083, -44.58970,
,,,6781.68418, -22.58970,
,,,6904.98753, -17.78970,
,,,7028.29088, -17.78970,
,,,7151.59423, -18.98970,
,,,7274.89758, -27.78970,
,,,7398.20093, -48.98970,
,,,7521.50428, -46.18970,
,,,7644.80763, -48.58970,
,,,7768.11098, -53.38970,
,,,7891.41433, -50.58970,
,,,8014.71768, -48.98970,
,,,8138.02103, -50.98970,
,,,8261.32438, -53.38970,
,,,8384.62773, -46.18970,
,,,8507.93108, -46.58970,
,,,8631.23443, -47.78970,
,,,8754.53778, -26.98970,
,,,8877.84113, -20.58970,
,,,9001.14448, -19.78970,
,,,9124.44783, -20.18970,
,,,9247.75118, -26.58970,
,,,9371.05453, -47.38970,
,,,9494.35788, -47.38970,
,,,9617.66123, -48.18970,
,,,9740.96458, -54.58970,
,,,9864.26793, -52.98970,
,,,9987.57128, -52.98970,
,,,10110.87463, -52.98970,
,,,10234.17798, -64.58970,
,,,10357.48133, -49.38970,
,,,10480.78468, -48.98970,
,,,10604.08803, -45.78970,
,,,10727.39138, -32.18970,
,,,10850.69473, -22.58970,
,,,10973.99808, -21.78970,
,,,11097.30143, -21.78970,
,,,11220.60478, -26.18970,
,,,11343.90813, -42.98970,
,,,11467.21148, -47.38970,
,,,11590.51483, -46.18970,
,,,11713.81818, -50.98970,
,,,11837.12153, -53.38970,
,,,11960.42488, -51.38970,
,,,12083.72823, -49.78970,
,,,12207.03158, -56.18970,
,,,12330.33493, -51.38970,
,,,12453.63828, -49.38970,
,,,12576.94163, -46.58970,
,,,12700.24498, -38.18970,
,,,12823.54833, -24.98970,
,,,12946.85168, -22.98970,
,,,13070.15503, -22.98970,
,,,13193.45838, -25.78970,
,,,13316.76173, -39.38970,
,,,13440.06508, -48.98970,
,,,13563.36843, -46.18970,
,,,13686.67178, -49.78970,
,,,13809.97513, -53.38970,
,,,13933.27848, -50.98970,
,,,14056.58183, -49.78970,
,,,14179.88518, -53.38970,
,,,14303.18853, -50.58970,
,,,14426.49188, -47.78970,
,,,14549.79523, -48.18970,
,,,14673.09858, -46.58970,
,,,14796.40193, -27.78970,
,,,14919.70528, -24.58970,
,,,15043.00863, -24.18970,
,,,15166.31198, -25.78970,
,,,15289.61533, -35.78970,
,,,15412.91868, -48.58970,
,,,15536.22203, -46.58970,
,,,15659.52538, -47.78970,
,,,15782.82873, -54.98970,
,,,15906.13208, -51.78970,
,,,16029.43543, -51.78970,
,,,16152.73878, -51.78970,
,,,16276.04213, -54.98970,
,,,16399.34548, -47.38970,
,,,16522.64883, -47.38970,
,,,16645.95218, -50.18970,
,,,16769.25553, -30.98970,
,,,16892.55888, -25.78970,
,,,17015.86223, -25.38970,
,,,17139.16558, -26.18970,
,,,17262.46893, -33.38970,
,,,17385.77228, -48.18970,
,,,17509.07563, -47.38970,
,,,17632.37898, -48.18970,
,,,17755.68233, -56.18970,
,,,17878.98568, -51.38970,
,,,18002.28903, -52.18970,
,,,18125.59238, -51.38970,
,,,18248.89573, -54.58970,
,,,18372.19908, -47.78970,
,,,18495.50243, -47.78970,
,,,18618.80578, -46.58970,
,,,18742.10913, -34.98970,
,,,18865.41248, -26.98970,
,,,18988.71583, -26.18970,
,,,19112.01918, -26.58970,
,,,19235.32253, -31.78970,
,,,19358.62588, -44.58970,
,,,19481.92923, -45.78970,
,,,19605.23258, -47.38970,
,,,19728.53593, -53.38970,
,,,19851.83928, -50.18970,
,,,19975.14263, -49.38970,
,,,20098.44598, -50.98970,
,,,20221.74933, -57.78970,
,,,20345.05268, -49.38970,
,,,20468.35603, -49.38970,
,,,20591.65938, -47.78970,
,,,20714.96273, -40.18970,
,,,20838.26608, -28.58970,
,,,20961.56943, -26.98970,
,,,21084.87278, -27.38970,
,,,21208.17613, -30.98970,
,,,21331.47948, -44.98970,
,,,21454.78283, -51.38970,
,,,21578.08618, -48.58970,
,,,21701.38953, -52.98970,
,,,21824.69288, -53.38970,
,,,21947.99623, -51.38970,
,,,22071.29958, -50.98970,
,,,22194.60293, -55.38970,
,,,22317.90628, -50.58970,
,,,22441.20963, -48.98970,
,,,22564.51298, -47.38970,
,,,22687.81633, -46.18970,
,,,22811.11968, -30.98970,
,,,22934.42303, -28.18970,
,,,23057.72638, -28.18970,
,,,23181.02973, -30.18970,
,,,23304.33308, -40.58970,
,,,23427.63643, -50.58970,
,,,23550.93978, -47.38970,
,,,23674.24313, -50.58970,
,,,23797.54648, -53.38970,
,,,23920.84983, -50.18970,
,,,24044.15318, -50.18970,
,,,24167.45653, -52.98970,
,,,24290.75988, -53.38970,
,,,24414.06323, -50.58970,
,,,24537.36658, -49.78970,
,,,24660.66993, -51.78970,
,,,24783.97328, -33.38970,
,,,24907.27663, -28.98970,
,,,25030.57998, -28.58970,
,,,25153.88333, -29.78970,
,,,25277.18668, -38.18970,
,,,25400.49003, -47.38970,
,,,25523.79338, -47.38970,
,,,25647.09673, -49.38970,
,,,25770.40008, -60.58970,
,,,25893.70343, -50.18970,
,,,26017.00678, -50.98970,
,,,26140.31013, -49.78970,
,,,26263.61348, -57.78970,
,,,26386.91683, -48.58970,
,,,26510.22018, -48.18970,
,,,26633.52353, -49.78970,
,,,26756.82688, -36.98970,
,,,26880.13023, -29.78970,
,,,27003.43358, -29.38970,
,,,27126.73693, -29.78970,
,,,27250.04028, -35.78970,
,,,27373.34363, -48.18970,
,,,27496.64698, -47.38970,
,,,27619.95033, -49.38970,
,,,27743.25368, -57.38970,
,,,27866.55703, -51.38970,
,,,27989.86038, -49.78970,
,,,28113.16373, -49.38970,
,,,28236.46708, -57.38970,
,,,28359.77043, -48.18970,
,,,28483.07378, -47.38970,
,,,28606.37713, -46.98970,
,,,28729.68048, -40.98970,
,,,28852.98383, -31.38970,
,,,28976.28718, -29.78970,
,,,29099.59053, -30.18970,
,,,29222.89388, -34.18970,
,,,29346.19723, -46.18970,
,,,29469.50058, -48.18970,
,,,29592.80393, -47.38970,
,,,29716.10728, -52.98970,
,,,29839.41063, -51.78970,
,,,29962.71398, -50.58970,
,,,30086.01733, -50.18970,
,,,30209.32068, -52.98970,
,,,30332.62403, -50.58970,
,,,30455.92738, -47.38970,
,,,30579.23073, -46.58970,
,,,30702.53408, -46.18970,
,,,30825.83743, -32.98970,
,,,30949.14078, -30.58970,
,,,31072.44413, -30.58970,
,,,31195.74748, -33.38970,
,,,31319.05083, -44.18970,
,,,31442.35418, -46.98970,
,,,31565.65753, -45.78970,
,,,31688.96088, -50.18970,
,,,31812.26423, -55.38970,
,,,31935.56758, -51.38970,
,,,32058.87093, -50.18970,
,,,32182.17428, -52.98970,
,,,32305.47763, -52.98970,
,,,32428.78098, -49.78970,
,,,32552.08433, -48.58970,
,,,32675.38768, -51.78970,
,,,32798.69103, -34.98970,
,,,32921.99438, -31.38970,
,,,33045.29773, -30.98970,
,,,33168.60108, -32.58970,
,,,33291.90443, -40.98970,
,,,33415.20778, -45.78970,
,,,33538.51113, -44.98970,
,,,33661.81448, -47.38970,
,,,33785.11783, -54.98970,
,,,33908.42118, -50.58970,
,,,34031.72453, -49.78970,
,,,34155.02788, -49.78970,
,,,34278.33123, -51.38970,
,,,34401.63458, -49.78970,
,,,34524.93793, -48.58970,
,,,34648.24128, -50.18970,
,,,34771.54463, -37.78970,
,,,34894.84798, -32.18970,
,,,35018.15133, -31.78970,
,,,35141.45468, -32.58970,
,,,35264.75803, -39.38970,
,,,35388.06138, -47.78970,
,,,35511.36473, -45.78970,
,,,35634.66808, -46.58970,
,,,35757.97143, -53.38970,
,,,35881.27478, -56.18970,
,,,36004.57813, -54.98970,
,,,36127.88148, -53.38970,
,,,36251.18483, -53.38970,
,,,36374.48818, -48.18970,
,,,36497.79153, -49.38970,
,,,36621.09488, -49.38970,
,,,36744.39823, -40.58970,
,,,36867.70158, -32.58970,
,,,36991.00493, -31.78970,
,,,37114.30828, -32.18970,
,,,37237.61163, -36.98970,
,,,37360.91498, -46.98970,
,,,37484.21833, -46.18970,
,,,37607.52168, -47.38970,
,,,37730.82503, -52.98970,
,,,37854.12838, -51.78970,
,,,37977.43173, -50.58970,
,,,38100.73508, -50.58970,
,,,38224.03843, -56.18970,
,,,38347.34178, -48.98970,
,,,38470.64513, -48.18970,
,,,38593.94848, -47.38970,
,,,38717.25183, -46.58970,
,,,38840.55518, -34.18970,
,,,38963.85853, -32.58970,
,,,39087.16188, -32.58970,
,,,39210.46523, -35.78970,
,,,39333.76858, -46.58970,
,,,39457.07193, -47.78970,
,,,39580.37528, -47.38970,
,,,39703.67863, -53.38970,
,,,39826.98198, -51.78970,
,,,39950.28533, -48.98970,
,,,40073.58868, -50.18970,
,,,40196.89203, -54.58970,
,,,40320.19538, -52.18970,
,,,40443.49873, -49.78970,
,,,40566.80208, -48.98970,
,,,40690.10543, -49.78970,
,,,40813.40878, -35.78970,
,,,40936.71213, -32.98970,
,,,41060.01548, -32.98970,
,,,41183.31883, -35.38970,
,,,41306.62218, -44.98970,
,,,41429.92553, -48.18970,
,,,41553.22888, -47.38970,
,,,41676.53223, -49.38970,
,,,41799.83558, -51.38970,
,,,41923.13893, -49.78970,
,,,42046.44228, -48.58970,
,,,42169.74563, -51.38970,
,,,42293.04898, -52.58970,
,,,42416.35233, -48.98970,
,,,42539.65568, -48.58970,
,,,42662.95903, -51.78970,
,,,42786.26238, -38.58970,
,,,42909.56573, -33.78970,
,,,43032.86908, -33.78970,
,,,43156.17243, -34.58970,
,,,43279.47578, -41.78970,
,,,43402.77913, -47.38970,
,,,43526.08248, -46.58970,
,,,43649.38583, -47.78970,
,,,43772.68918, -54.58970,
,,,43895.99253, -48.18970,
,,,44019.29588, -48.98970,
,,,44142.59923, -51.38970,
,,,44265.90258, -54.58970,
,,,44389.20593, -48.18970,
,,,44512.50928, -48.18970,
,,,44635.81263, -48.98970,
,,,44759.11598, -41.38970,
,,,44882.41933, -34.18970,
,,,45005.72268, -33.38970,
,,,45129.02603, -34.18970,
,,,45252.32938, -39.78970,
,,,45375.63273, -47.38970,
,,,45498.93608, -46.18970,
,,,45622.23943, -47.38970,
,,,45745.54278, -57.78970,
,,,45868.84613, -51.78970,
,,,45992.14948, -50.58970,
,,,46115.45283, -49.38970,
,,,46238.75618, -52.58970,
,,,46362.05953, -48.98970,
,,,46485.36288, -48.98970,
,,,46608.66623, -47.78970,
,,,46731.96958, -44.98970,
,,,46855.27293, -35.38970,
,,,46978.57628, -34.18970,
,,,47101.87963, -34.18970,
,,,47225.18298, -38.18970,
,,,47348.48633, -46.58970,
,,,47471.78968, -46.58970,
,,,47595.09303, -46.58970,
,,,47718.39638, -51.78970,
,,,47841.69973, -52.98970,
,,,47965.00308, -50.18970,
,,,48088.30643, -49.78970,
,,,48211.60978, -52.58970,
,,,48334.91313, -50.18970,
,,,48458.21648, -48.18970,
,,,48581.51983, -48.98970,
,,,48704.82318, -49.78970,
,,,48828.12653, -36.58970,
,,,48951.42988, -34.58970,
,,,49074.73323, -34.98970,
,,,49198.03658, -37.38970,
,,,49321.33993, -44.98970,
,,,49444.64328, -45.78970,
,,,49567.94663, -45.78970,
,,,49691.24998, -49.38970,
,,,49814.55333, -56.18970,
,,,49937.85668, -52.18970,
,,,50061.16003, -51.38970,
,,,50184.46338, -53.38970,
,,,50307.76673, -52.98970,
,,,50431.07008, -48.98970,
,,,50554.37343, -48.58970,
,,,50677.67678, -51.38970,
,,,50800.98013, -38.58970,
,,,50924.28348, -34.98970,
,,,51047.58683, -34.98970,
,,,51170.89018, -36.58970,
,,,51294.19353, -43.38970,
,,,51417.49688, -46.58970,
,,,51540.80023, -46.18970,
,,,51664.10358, -47.38970,
,,,51787.40693, -54.98970,
,,,51910.71028, -50.98970,
,,,52034.01363, -50.18970,
,,,52157.31698, -50.98970,
,,,52280.62033, -56.18970,
,,,52403.92368, -49.38970,
,,,52527.22703, -49.38970,
,,,52650.53038, -51.38970,
,,,52773.83373, -40.98970,
,,,52897.13708, -35.38970,
,,,53020.44043, -35.38970,
,,,53143.74378, -36.18970,
,,,53267.04713, -41.78970,
,,,53390.35048, -46.98970,
,,,53513.65383, -46.98970,
,,,53636.95718, -47.78970,
,,,53760.26053, -57.38970,
,,,53883.56388, -50.18970,
,,,54006.86723, -50.58970,
,,,54130.17058, -50.58970,
,,,54253.47393, -58.58970,
,,,54376.77728, -52.18970,
,,,54500.08063, -50.18970,
,,,54623.38398, -49.38970,
,,,54746.68733, -44.58970,
,,,54869.99068, -36.58970,
,,,54993.29403, -35.78970,
,,,55116.59738, -36.18970,
,,,55239.90073, -40.58970,
,,,55363.20408, -46.58970,
,,,55486.50743, -46.58970,
,,,55609.81078, -46.58970,
,,,55733.11413, -52.18970,
,,,55856.41748, -51.38970,
,,,55979.72083, -50.18970,
,,,56103.02418, -50.18970,
,,,56226.32753, -56.18970,
,,,56349.63088, -51.38970,
,,,56472.93423, -48.58970,
,,,56596.23758, -48.18970,
,,,56719.54093, -47.38970,
,,,56842.84428, -37.38970,
,,,56966.14763, -35.38970,
,,,57089.45098, -35.78970,
,,,57212.75433, -38.98970,
,,,57336.05768, -45.78970,
,,,57459.36103, -45.78970,
,,,57582.66438, -45.38970,
,,,57705.96773, -49.78970,
,,,57829.27108, -54.98970,
,,,57952.57443, -52.18970,
,,,58075.87778, -49.78970,
,,,58199.18113, -54.58970,
,,,58322.48448, -52.98970,
,,,58445.78783, -50.18970,
,,,58569.09118, -47.78970,
,,,58692.39453, -52.18970,
,,,58815.69788, -39.38970,
,,,58939.00123, -36.18970,
,,,59062.30458, -36.18970,
,,,59185.60793, -38.58970,
,,,59308.91128, -45.78970,
,,,59432.21463, -47.38970,
,,,59555.51798, -46.18970,
,,,59678.82133, -47.38970,
,,,59802.12468, -56.18970,
,,,59925.42803, -51.38970,
,,,60048.73138, -51.38970,
,,,60172.03473, -54.98970,
,,,60295.33808, -51.78970,
,,,60418.64143, -48.18970,
,,,60541.94478, -48.18970,
,,,60665.24813, -50.98970,
,,,60788.55148, -41.38970,
,,,60911.85483, -36.58970,
,,,61035.15818, -36.58970,
,,,61158.46153, -37.78970,
,,,61281.76488, -44.98970,
,,,61405.06823, -47.38970,
,,,61528.37158, -45.38970,
,,,61651.67493, -47.38970,
,,,61774.97828, -55.38970,
,,,61898.28163, -54.98970,
,,,62021.58498, -54.98970,
,,,62144.88833, -54.58970,
,,,62268.19168, -54.58970,
,,,62391.49503, -48.18970,
,,,62514.79838, -48.58970,
,,,62638.10173, -48.58970,
,,,62761.40508, -44.98970,
,,,62884.70843, -37.38970,
,,,63008.01178, -36.58970,
,,,63131.31513, -37.38970,
,,,63254.61848, -42.58970,
,,,63377.92183, -46.58970,
,,,63501.22518, -45.78970,
,,,63624.52853, -47.38970,
,,,63747.83188, -53.38970,
,,,63871.13523, -50.98970,
,,,63994.43858, -50.18970,
,,,64117.74193, -51.38970,
,,,64241.04528, -54.98970,
,,,64364.34863, -49.38970,
,,,64487.65198, -48.58970,
,,,64610.95533, -48.98970,
,,,64734.25868, -49.38970,
,,,64857.56203, -38.58970,
,,,64980.86538, -36.98970,
,,,65104.16873, -37.38970,
,,,65227.47208, -40.98970,
,,,65350.77543, -47.78970,
,,,65474.07878, -46.98970,
,,,65597.38213, -46.98970,
,,,65720.68548, -50.18970,
,,,65843.98883, -53.38970,
,,,65967.29218, -50.58970,
,,,66090.59553, -49.78970,
,,,66213.89888, -54.58970,
,,,66337.20223, -52.98970,
,,,66460.50558, -49.38970,
,,,66583.80893, -48.98970,
,,,66707.11228, -52.58970,
,,,66830.41563, -39.78970,
,,,66953.71898, -37.38970,
,,,67077.02233, -36.98970,
,,,67200.32568, -39.38970,
,,,67323.62903, -46.18970,
,,,67446.93238, -45.78970,
,,,67570.23573, -45.78970,
,,,67693.53908, -48.98970,
,,,67816.84243, -56.18970,
,,,67940.14578, -50.58970,
,,,68063.44913, -51.78970,
,,,68186.75248, -54.98970,
,,,68310.05583, -51.78970,
,,,68433.35918, -48.18970,
,,,68556.66253, -48.18970,
,,,68679.96588, -53.38970,
,,,68803.26923, -41.38970,
,,,68926.57258, -37.78970,
,,,69049.87593, -37.78970,
,,,69173.17928, -39.38970,
,,,69296.48263, -44.58970,
,,,69419.78598, -44.58970,
,,,69543.08933, -44.18970,
,,,69666.39268, -46.58970,
,,,69789.69603, -58.58970,
,,,69912.99938, -49.78970,
,,,70036.30273, -49.38970,
,,,70159.60608, -50.18970,
,,,70282.90943, -53.38970,
,,,70406.21278, -49.38970,
,,,70529.51613, -49.38970,
,,,70652.81948, -51.38970,
,,,70776.12283, -44.18970,
,,,70899.42618, -38.18970,
,,,71022.72953, -37.78970,
,,,71146.03288, -38.58970,
,,,71269.33623, -43.38970,
,,,71392.63958, -45.78970,
,,,71515.94293, -45.78970,
,,,71639.24628, -46.58970,
,,,71762.54963, -56.18970,
,,,71885.85298, -50.18970,
,,,72009.15633, -48.58970,
,,,72132.45968, -49.38970,
,,,72255.76303, -54.98970,
,,,72379.06638, -49.78970,
,,,72502.36973, -49.38970,
,,,72625.67308, -50.18970,
,,,72748.97643, -47.78970,
,,,72872.27978, -38.98970,
,,,72995.58313, -38.18970,
,,,73118.88648, -38.18970,
,,,73242.18983, -42.58970,
,,,73365.49318, -45.78970,
,,,73488.79653, -45.38970,
,,,73612.09988, -45.78970,
,,,73735.40323, -52.18970,
,,,73858.70658, -53.38970,
,,,73982.00993, -51.38970,
,,,74105.31328, -49.78970,
,,,74228.61663, -53.38970,
,,,74351.91998, -54.98970,
,,,74475.22333, -50.58970,
,,,74598.52668, -50.58970,
,,,74721.83003, -50.18970,
,,,74845.13338, -39.78970,
,,,74968.43673, -38.18970,
,,,75091.74008, -38.18970,
,,,75215.04343, -41.38970,
,,,75338.34678, -45.78970,
,,,75461.65013, -45.38970,
,,,75584.95348, -44.98970,
,,,75708.25683, -50.58970,
,,,75831.56018, -54.98970,
,,,75954.86353, -50.58970,
,,,76078.16688, -50.18970,
,,,76201.47023, -54.98970,
,,,76324.77358, -53.38970,
,,,76448.07693, -50.98970,
,,,76571.38028, -50.18970,
,,,76694.68363, -54.58970,
,,,76817.98698, -41.38970,
,,,76941.29033, -38.58970,
,,,77064.59368, -38.98970,
,,,77187.89703, -40.58970,
,,,77311.20038, -46.58970,
,,,77434.50373, -46.18970,
,,,77557.80708, -45.78970,
,,,77681.11043, -47.78970,
,,,77804.41378, -54.98970,
,,,77927.71713, -49.78970,
,,,78051.02048, -51.38970,
,,,78174.32383, -52.18970,
,,,78297.62718, -53.38970,
,,,78420.93053, -48.58970,
,,,78544.23388, -49.38970,
,,,78667.53723, -52.58970,
,,,78790.84058, -44.18970,
,,,78914.14393, -38.58970,
,,,79037.44728, -38.58970,
,,,79160.75063, -39.38970,
,,,79284.05398, -44.18970,
,,,79407.35733, -45.78970,
,,,79530.66068, -45.78970,
,,,79653.96403, -46.58970,
,,,79777.26738, -54.58970,
,,,79900.57073, -48.58970,
,,,80023.87408, -49.38970,
,,,80147.17743, -49.78970,
,,,80270.48078, -54.98970,
,,,80393.78413, -49.78970,
,,,80517.08748, -49.78970,
,,,80640.39083, -49.38970,
,,,80763.69418, -46.18970,
,,,80886.99753, -39.38970,
,,,81010.30088, -38.98970,
,,,81133.60423, -39.78970,
,,,81256.90758, -44.18970,
,,,81380.21093, -44.98970,
,,,81503.51428, -44.58970,
,,,81626.81763, -44.58970,
,,,81750.12098, -51.38970,
,,,81873.42433, -50.18970,
,,,81996.72768, -49.38970,
,,,82120.03103, -50.98970,
,,,82243.33438, -54.58970,
,,,82366.63773, -49.38970,
,,,82489.94108, -50.18970,
,,,82613.24443, -48.98970,
,,,82736.54778, -53.38970,
,,,82859.85113, -40.98970,
,,,82983.15448, -39.38970,
,,,83106.45783, -39.78970,
,,,83229.76118, -42.98970,
,,,83353.06453, -46.18970,
,,,83476.36788, -44.98970,
,,,83599.67123, -45.38970,
,,,83722.97458, -50.18970,
,,,83846.27793, -51.78970,
,,,83969.58128, -50.58970,
,,,84092.88463, -50.58970,
,,,84216.18798, -57.38970,
,,,84339.49133, -53.38970,
,,,84462.79468, -49.78970,
,,,84586.09803, -50.18970,
,,,84709.40138, -53.38970,
,,,84832.70473, -41.78970,
,,,84956.00808, -39.38970,
,,,85079.31143, -39.38970,
,,,85202.61478, -42.18970,
,,,85325.91813, -45.78970,
,,,85449.22148, -44.18970,
,,,85572.52483, -44.98970,
,,,85695.82818, -47.38970,
,,,85819.13153, -53.38970,
,,,85942.43488, -48.98970,
,,,86065.73823, -50.58970,
,,,86189.04158, -52.58970,
,,,86312.34493, -50.18970,
,,,86435.64828, -48.18970,
,,,86558.95163, -48.58970,
,,,86682.25498, -50.98970,
,,,86805.55833, -43.78970,
,,,86928.86168, -39.38970,
,,,87052.16503, -39.38970,
,,,87175.46838, -40.98970,
,,,87298.77173, -44.58970,
,,,87422.07508, -44.18970,
,,,87545.37843, -44.18970,
,,,87668.68178, -45.78970,
,,,87791.98513, -53.38970,
,,,87915.28848, -50.18970,
,,,88038.59183, -49.38970,
,,,88161.89518, -49.78970,
,,,88285.19853, -54.98970,
,,,88408.50188, -50.18970,
,,,88531.80523, -49.38970,
,,,88655.10858, -51.38970,
,,,88778.41193, -45.78970,
,,,88901.71528, -40.18970,
,,,89025.01863, -40.18970,
,,,89148.32198, -40.98970,
,,,89271.62533, -45.78970,
,,,89394.92868, -44.98970,
,,,89518.23203, -44.18970,
