Lab 3/ALL0036/F0036FFT.CSV

Record Length,1.024000e+03,,          0.00000,  -6.16910,
Sample Interval,1.233033e+00,,          1.23303,  -9.36910,
Trigger Point,-0.000000000000e+00,,          2.46607, -40.96910,
,,,          3.69910, -40.96910,
,,,          4.93213, -40.96910,
,,,          6.16517, -39.76910,
Source,FFT,,          7.39820, -40.96910,
Vertical Units,dB,,          8.63123, -40.96910,
Vertical Scale,1.000000e+01,,          9.86427, -40.96910,
Vertical Offset,0.000000e+00,,         11.09730, -40.96910,
Horizontal Units,Hz,,         12.33033, -40.96910,
Horizontal Scale,1.262626e+02,,         13.56337, -40.96910,
Pt Fmt,Y,,         14.79640, -40.96910,
Yzero,-9.691000e-01,,         16.02943, -40.96910,
Probe Atten,1.000000e+00,,         17.26247, -40.96910,
Model Number,TBS1072B-EDU,,         18.49550, -40.96910,
Serial Number,C013385,,         19.72854, -40.96910,
Firmware Version,FV:v4.06,,         20.96157, -40.96910,
,,,22.19460, -40.96910,
,,,23.42763, -40.96910,
,,,24.66066, -40.96910,
,,,25.89369, -40.96910,
,,,27.12672, -40.96910,
,,,28.35975, -39.76910,
,,,29.59278, -39.76910,
,,,30.82581, -40.96910,
,,,32.05884, -40.96910,
,,,33.29187, -40.96910,
,,,34.52490, -40.96910,
,,,35.75793, -40.96910,
,,,36.99096, -40.96910,
,,,38.22399, -40.96910,
,,,39.45702, -40.96910,
,,,40.69005, -40.96910,
,,,41.92308, -40.96910,
,,,43.15611, -40.96910,
,,,44.38914, -40.96910,
,,,45.62217, -40.96910,
,,,46.85520, -40.96910,
,,,48.08823, -40.96910,
,,,49.32126, -39.76910,
,,,50.55429, -34.56910,
,,,51.78732, -40.96910,
,,,53.02035, -40.96910,
,,,54.25338, -40.96910,
,,,55.48641, -40.96910,
,,,56.71944, -40.96910,
,,,57.95247, -40.96910,
,,,59.18550, -39.76910,
,,,60.41853, -39.76910,
,,,61.65156, -40.96910,
,,,62.88459, -40.96910,
,,,64.11762, -40.96910,
,,,65.35065, -40.96910,
,,,66.58368, -40.96910,
,,,67.81671, -40.96910,
,,,69.04974, -40.96910,
,,,70.28277, -40.96910,
,,,71.51580, -40.96910,
,,,72.74883, -40.96910,
,,,73.98186, -40.96910,
,,,75.21489, -40.96910,
,,,76.44792, -40.96910,
,,,77.68095, -40.96910,
,,,78.91398, -40.96910,
,,,80.14701, -40.96910,
,,,81.38004, -40.96910,
,,,82.61307, -40.96910,
,,,83.84610, -40.96910,
,,,85.07913, -39.76910,
,,,86.31216, -40.96910,
,,,87.54519, -40.96910,
,,,88.77822, -40.96910,
,,,90.01125, -40.96910,
,,,91.24428, -40.96910,
,,,92.47731, -40.96910,
,,,93.71034, -39.76910,
,,,94.94337, -40.96910,
,,,96.17640, -40.96910,
,,,97.40943, -40.96910,
,,,98.64246, -40.96910,
,,,99.87549, -40.96910,
,,,101.10852, -40.96910,
,,,102.34155, -40.96910,
,,,103.57458, -40.96910,
,,,104.80761, -40.96910,
,,,106.04064, -40.96910,
,,,107.27367, -40.96910,
,,,108.50670, -39.76910,
,,,109.73973, -40.96910,
,,,110.97276, -40.96910,
,,,112.20579, -40.96910,
,,,113.43882, -40.96910,
,,,114.67185, -40.96910,
,,,115.90488, -40.96910,
,,,117.13791, -40.96910,
,,,118.37094, -40.96910,
,,,119.60397, -40.96910,
,,,120.83700, -40.96910,
,,,122.07003, -40.96910,
,,,123.30306, -40.96910,
,,,124.53609, -40.96910,
,,,125.76912, -40.96910,
,,,127.00215, -40.96910,
,,,128.23518, -40.96910,
,,,129.46821, -40.96910,
,,,130.70124, -39.76910,
,,,131.93427, -39.76910,
,,,133.16730, -40.96910,
,,,134.40033, -40.96910,
,,,135.63336, -40.96910,
,,,136.86639, -40.96910,
,,,138.09942, -40.96910,
,,,139.33245, -40.96910,
,,,140.56548, -40.96910,
,,,141.79851, -40.96910,
,,,143.03154, -40.96910,
,,,144.26457, -40.96910,
,,,145.49760, -40.96910,
,,,146.73063, -40.96910,
,,,147.96366, -40.96910,
,,,149.19669, -39.76910,
,,,150.42972, -40.96910,
,,,151.66275, -39.76910,
,,,152.89578, -39.76910,
,,,154.12881, -40.96910,
,,,155.36184, -40.96910,
,,,156.59487, -40.96910,
,,,157.82790, -40.96910,
,,,159.06093, -40.96910,
,,,160.29396, -40.96910,
,,,161.52699, -40.96910,
,,,162.76002, -39.76910,
,,,163.99305, -40.96910,
,,,165.22608, -40.96910,
,,,166.45911, -40.96910,
,,,167.69214, -40.96910,
,,,168.92517, -40.96910,
,,,170.15820, -37.76910,
,,,171.39123, -39.76910,
,,,172.62426, -40.96910,
,,,173.85729, -40.96910,
,,,175.09032, -39.76910,
,,,176.32335, -40.96910,
,,,177.55638, -40.96910,
,,,178.78941, -40.96910,
,,,180.02244, -36.96910,
,,,181.25547, -37.76910,
,,,182.48850, -40.96910,
,,,183.72153, -40.96910,
,,,184.95456, -40.96910,
,,,186.18759, -40.96910,
,,,187.42062, -39.76910,
,,,188.65365, -40.96910,
,,,189.88668, -40.96910,
,,,191.11971, -40.96910,
,,,192.35274, -40.96910,
,,,193.58577, -40.96910,
,,,194.81880, -40.96910,
,,,196.05183, -40.96910,
,,,197.28486, -40.96910,
,,,198.51789, -40.96910,
,,,199.75092, -40.96910,
,,,200.98395, -40.96910,
,,,202.21698, -39.76910,
,,,203.45001, -40.96910,
,,,204.68304, -40.96910,
,,,205.91607, -40.96910,
,,,207.14910, -40.96910,
,,,208.38213, -40.96910,
,,,209.61516, -40.96910,
,,,210.84819, -40.96910,
,,,212.08122, -40.96910,
,,,213.31425, -40.96910,
,,,214.54728, -40.96910,
,,,215.78031, -40.96910,
,,,217.01334, -39.76910,
,,,218.24637, -40.96910,
,,,219.47940, -40.96910,
,,,220.71243, -39.76910,
,,,221.94546, -40.96910,
,,,223.17849, -40.96910,
,,,224.41152, -39.76910,
,,,225.64455, -40.96910,
,,,226.87758, -40.96910,
,,,228.11061, -36.96910,
,,,229.34364, -40.96910,
,,,230.57667, -40.96910,
,,,231.80970, -40.96910,
,,,233.04273, -40.96910,
,,,234.27576, -40.96910,
,,,235.50879, -40.96910,
,,,236.74182, -39.76910,
,,,237.97485, -40.96910,
,,,239.20788, -40.96910,
,,,240.44091, -40.96910,
,,,241.67394, -40.96910,
,,,242.90697, -39.76910,
,,,244.14000, -39.76910,
,,,245.37303, -40.96910,
,,,246.60606, -40.96910,
,,,247.83909, -40.96910,
,,,249.07212, -40.96910,
,,,250.30515, -40.96910,
,,,251.53818, -40.96910,
,,,252.77121, -40.96910,
,,,254.00424, -40.96910,
,,,255.23727, -39.76910,
,,,256.47030, -39.76910,
,,,257.70333, -40.96910,
,,,258.93636, -40.96910,
,,,260.16939, -40.96910,
,,,261.40242, -40.96910,
,,,262.63545, -40.96910,
,,,263.86848, -40.96910,
,,,265.10151, -40.96910,
,,,266.33454, -40.96910,
,,,267.56757, -40.96910,
,,,268.80060, -40.96910,
,,,270.03363, -40.96910,
,,,271.26666, -40.96910,
,,,272.49969, -40.96910,
,,,273.73272, -40.96910,
,,,274.96575, -40.96910,
,,,276.19878, -40.96910,
,,,277.43181, -36.96910,
,,,278.66484, -39.76910,
,,,279.89787, -40.96910,
,,,281.13090, -40.96910,
,,,282.36393, -40.96910,
,,,283.59696, -40.96910,
,,,284.82999, -40.96910,
,,,286.06302, -40.96910,
,,,287.29605, -40.96910,
,,,288.52908, -40.96910,
,,,289.76211, -40.96910,
,,,290.99514, -40.96910,
,,,292.22817, -40.96910,
,,,293.46120, -40.96910,
,,,294.69423, -40.96910,
,,,295.92726, -40.96910,
,,,297.16029, -40.96910,
,,,298.39332, -40.96910,
,,,299.62635, -40.96910,
,,,300.85938, -40.96910,
,,,302.09241, -40.96910,
,,,303.32544, -40.96910,
,,,304.55847, -40.96910,
,,,305.79150, -40.96910,
,,,307.02453, -40.96910,
,,,308.25756, -40.96910,
,,,309.49059, -40.96910,
,,,310.72362, -40.96910,
,,,311.95665, -40.96910,
,,,313.18968, -40.96910,
,,,314.42271, -40.96910,
,,,315.65574, -40.96910,
,,,316.88877, -40.96910,
,,,318.12180, -40.96910,
,,,319.35483, -40.96910,
,,,320.58786, -40.96910,
,,,321.82089, -40.96910,
,,,323.05392, -40.96910,
,,,324.28695, -40.96910,
,,,325.51998, -40.96910,
,,,326.75301, -40.96910,
,,,327.98604, -40.96910,
,,,329.21907, -40.96910,
,,,330.45210, -40.96910,
,,,331.68513, -40.96910,
,,,332.91816, -40.96910,
,,,334.15119, -40.96910,
,,,335.38422, -40.96910,
,,,336.61725, -40.96910,
,,,337.85028, -40.96910,
,,,339.08331, -40.96910,
,,,340.31634, -39.76910,
,,,341.54937, -40.96910,
,,,342.78240, -40.96910,
,,,344.01543, -40.96910,
,,,345.24846, -40.96910,
,,,346.48149, -40.96910,
,,,347.71452, -40.96910,
,,,348.94755, -40.96910,
,,,350.18058, -40.96910,
,,,351.41361, -40.96910,
,,,352.64664, -40.96910,
,,,353.87967, -40.96910,
,,,355.11270, -40.96910,
,,,356.34573, -37.76910,
,,,357.57876, -37.76910,
,,,358.81179, -40.96910,
,,,360.04482, -40.96910,
,,,361.27785, -40.96910,
,,,362.51088, -39.76910,
,,,363.74391, -40.96910,
,,,364.97694, -39.76910,
,,,366.20997, -40.96910,
,,,367.44300, -40.96910,
,,,368.67603, -40.96910,
,,,369.90906, -40.96910,
,,,371.14209, -40.96910,
,,,372.37512, -40.96910,
,,,373.60815, -40.96910,
,,,374.84118, -40.96910,
,,,376.07421, -40.96910,
,,,377.30724, -40.96910,
,,,378.54027, -40.96910,
,,,379.77330, -40.96910,
,,,381.00633, -40.96910,
,,,382.23936, -40.96910,
,,,383.47239, -40.96910,
,,,384.70542, -40.96910,
,,,385.93845, -40.96910,
,,,387.17148, -40.96910,
,,,388.40451, -40.96910,
,,,389.63754, -40.96910,
,,,390.87057, -40.96910,
,,,392.10360, -39.76910,
,,,393.33663, -39.76910,
,,,394.56966, -40.96910,
,,,395.80269, -40.96910,
,,,397.03572, -40.96910,
,,,398.26875, -40.96910,
,,,399.50178, -39.76910,
,,,400.73481, -40.96910,
,,,401.96784, -40.96910,
,,,403.20087, -40.96910,
,,,404.43390, -40.96910,
,,,405.66693, -39.76910,
,,,406.89996, -40.96910,
,,,408.13299, -40.96910,
,,,409.36602, -40.96910,
,,,410.59905, -40.96910,
,,,411.83208, -40.96910,
,,,413.06511, -40.96910,
,,,414.29814, -40.96910,
,,,415.53117, -40.96910,
,,,416.76420, -40.96910,
,,,417.99723, -40.96910,
,,,419.23026, -40.96910,
,,,420.46329, -40.96910,
,,,421.69632, -40.96910,
,,,422.92935, -40.96910,
,,,424.16238, -40.96910,
,,,425.39541, -39.76910,
,,,426.62844, -40.96910,
,,,427.86147, -39.76910,
,,,429.09450, -40.96910,
,,,430.32753, -40.96910,
,,,431.56056, -40.96910,
,,,432.79359, -40.96910,
,,,434.02662, -40.96910,
,,,435.25965, -40.96910,
,,,436.49268, -40.96910,
,,,437.72571, -40.96910,
,,,438.95874, -40.96910,
,,,440.19177, -40.96910,
,,,441.42480, -40.96910,
,,,442.65783, -40.96910,
,,,443.89086, -40.96910,
,,,445.12389, -40.96910,
,,,446.35692, -40.96910,
,,,447.58995, -40.96910,
,,,448.82298, -36.96910,
,,,450.05601, -36.96910,
,,,451.28904, -40.96910,
,,,452.52207, -40.96910,
,,,453.75510, -40.96910,
,,,454.98813, -40.96910,
,,,456.22116, -40.96910,
,,,457.45419, -40.96910,
,,,458.68722, -40.96910,
,,,459.92025, -40.96910,
,,,461.15328, -40.96910,
,,,462.38631, -40.96910,
,,,463.61934, -40.96910,
,,,464.85237, -40.96910,
,,,466.08540, -40.96910,
,,,467.31843, -40.96910,
,,,468.55146, -40.96910,
,,,469.78449, -40.96910,
,,,471.01752, -40.96910,
,,,472.25055, -40.96910,
,,,473.48358, -40.96910,
,,,474.71661, -40.96910,
,,,475.94964, -40.96910,
,,,477.18267, -40.96910,
,,,478.41570, -40.96910,
,,,479.64873, -40.96910,
,,,480.88176, -40.96910,
,,,482.11479, -40.96910,
,,,483.34782, -40.96910,
,,,484.58085, -40.96910,
,,,485.81388, -40.96910,
,,,487.04691, -40.96910,
,,,488.27994, -39.76910,
,,,489.51297, -39.76910,
,,,490.74600, -39.76910,
,,,491.97903, -40.96910,
,,,493.21206, -40.96910,
,,,494.44509, -40.96910,
,,,495.67812, -39.76910,
,,,496.91115, -40.96910,
,,,498.14418, -18.56910,
,,,499.37721,  -4.56910,
,,,500.61024,  -4.56910,
,,,501.84327, -17.76910,
,,,503.07630, -36.96910,
,,,504.30933, -37.36910,
,,,505.54236, -40.96910,
,,,506.77539, -40.96910,
,,,508.00842, -40.96910,
,,,509.24145, -40.96910,
,,,510.47448, -40.96910,
,,,511.70751, -40.96910,
,,,512.94054, -40.96910,
,,,514.17357, -40.96910,
,,,515.40660, -40.96910,
,,,516.63963, -40.96910,
,,,517.87266, -40.96910,
,,,519.10569, -40.96910,
,,,520.33872, -40.96910,
,,,521.57175, -40.96910,
,,,522.80478, -40.96910,
,,,524.03781, -35.76910,
,,,525.27084, -31.76910,
,,,526.50387, -36.96910,
,,,527.73690, -40.96910,
,,,528.96993, -40.96910,
,,,530.20296, -40.96910,
,,,531.43599, -40.96910,
,,,532.66902, -40.96910,
,,,533.90205, -40.96910,
,,,535.13508, -40.96910,
,,,536.36811, -40.96910,
,,,537.60114, -40.96910,
,,,538.83417, -40.96910,
,,,540.06720, -40.96910,
,,,541.30023, -40.96910,
,,,542.53326, -40.96910,
,,,543.76629, -40.96910,
,,,544.99932, -40.96910,
,,,546.23235, -40.96910,
,,,547.46538, -40.96910,
,,,548.69841, -40.96910,
,,,549.93144, -40.96910,
,,,551.16447, -40.96910,
,,,552.39750, -40.96910,
,,,553.63053, -40.96910,
,,,554.86356, -40.96910,
,,,556.09659, -40.96910,
,,,557.32962, -40.96910,
,,,558.56265, -40.96910,
,,,559.79568, -40.96910,
,,,561.02871, -39.76910,
,,,562.26174, -40.96910,
,,,563.49477, -40.96910,
,,,564.72780, -40.96910,
,,,565.96083, -40.96910,
,,,567.19386, -40.96910,
,,,568.42689, -40.96910,
,,,569.65992, -40.96910,
,,,570.89295, -40.96910,
,,,572.12598, -37.36910,
,,,573.35901, -40.96910,
,,,574.59204, -40.96910,
,,,575.82507, -39.76910,
,,,577.05810, -40.96910,
,,,578.29113, -40.96910,
,,,579.52416, -40.96910,
,,,580.75719, -40.96910,
,,,581.99022, -40.96910,
,,,583.22325, -40.96910,
,,,584.45628, -40.96910,
,,,585.68931, -40.96910,
,,,586.92234, -39.76910,
,,,588.15537, -39.76910,
,,,589.38840, -40.96910,
,,,590.62143, -40.96910,
,,,591.85446, -40.96910,
,,,593.08749, -40.96910,
,,,594.32052, -39.76910,
,,,595.55355, -40.96910,
,,,596.78658, -39.76910,
,,,598.01961, -40.96910,
,,,599.25264, -40.96910,
,,,600.48567, -40.96910,
,,,601.71870, -40.96910,
,,,602.95173, -40.96910,
,,,604.18476, -40.96910,
,,,605.41779, -39.76910,
,,,606.65082, -40.96910,
,,,607.88385, -40.96910,
,,,609.11688, -40.96910,
,,,610.34991, -40.96910,
,,,611.58294, -40.96910,
,,,612.81597, -40.96910,
,,,614.04900, -40.96910,
,,,615.28203, -40.96910,
,,,616.51506, -40.96910,
,,,617.74809, -40.96910,
,,,618.98112, -40.96910,
,,,620.21415, -40.96910,
,,,621.44718, -40.96910,
,,,622.68021, -37.76910,
,,,623.91324, -40.96910,
,,,625.14627, -40.96910,
,,,626.37930, -40.96910,
,,,627.61233, -40.96910,
,,,628.84536, -40.96910,
,,,630.07839, -40.96910,
,,,631.31142, -39.76910,
,,,632.54445, -40.96910,
,,,633.77748, -40.96910,
,,,635.01051, -40.96910,
,,,636.24354, -40.96910,
,,,637.47657, -40.96910,
,,,638.70960, -40.96910,
,,,639.94263, -40.96910,
,,,641.17566, -40.96910,
,,,642.40869, -40.96910,
,,,643.64172, -40.96910,
,,,644.87475, -40.96910,
,,,646.10778, -39.76910,
,,,647.34081, -40.96910,
,,,648.57384, -40.96910,
,,,649.80687, -40.96910,
,,,651.03990, -40.96910,
,,,652.27293, -40.96910,
,,,653.50596, -40.96910,
,,,654.73899, -40.96910,
,,,655.97202, -40.96910,
,,,657.20505, -40.96910,
,,,658.43808, -40.96910,
,,,659.67111, -39.76910,
,,,660.90414, -39.76910,
,,,662.13717, -40.96910,
,,,663.37020, -40.96910,
,,,664.60323, -40.96910,
,,,665.83626, -40.96910,
,,,667.06929, -40.96910,
,,,668.30232, -40.96910,
,,,669.53535, -40.96910,
,,,670.76838, -40.96910,
,,,672.00141, -40.96910,
,,,673.23444, -40.96910,
,,,674.46747, -40.96910,
,,,675.70050, -40.96910,
,,,676.93353, -40.96910,
,,,678.16656, -40.96910,
,,,679.39959, -39.76910,
,,,680.63262, -40.96910,
,,,681.86565, -40.96910,
,,,683.09868, -40.96910,
,,,684.33171, -40.96910,
,,,685.56474, -40.96910,
,,,686.79777, -40.96910,
,,,688.03080, -40.96910,
,,,689.26383, -40.96910,
,,,690.49686, -40.96910,
,,,691.72989, -40.96910,
,,,692.96292, -40.96910,
,,,694.19595, -40.96910,
,,,695.42898, -40.96910,
,,,696.66201, -40.96910,
,,,697.89504, -40.96910,
,,,699.12807, -40.96910,
,,,700.36110, -40.96910,
,,,701.59413, -40.96910,
,,,702.82716, -40.96910,
,,,704.06019, -40.96910,
,,,705.29322, -40.96910,
,,,706.52625, -40.96910,
,,,707.75928, -40.96910,
,,,708.99231, -40.96910,
,,,710.22534, -40.96910,
,,,711.45837, -40.96910,
,,,712.69140, -40.96910,
,,,713.92443, -40.96910,
,,,715.15746, -40.96910,
,,,716.39049, -40.96910,
,,,717.62352, -40.96910,
,,,718.85655, -40.96910,
,,,720.08958, -40.96910,
,,,721.32261, -40.96910,
,,,722.55564, -40.96910,
,,,723.78867, -40.96910,
,,,725.02170, -40.96910,
,,,726.25473, -40.96910,
,,,727.48776, -40.96910,
,,,728.72079, -40.96910,
,,,729.95382, -36.96910,
,,,731.18685, -37.36910,
,,,732.41988, -40.96910,
,,,733.65291, -40.96910,
,,,734.88594, -40.96910,
,,,736.11897, -40.96910,
,,,737.35200, -40.96910,
,,,738.58503, -40.96910,
,,,739.81806, -40.96910,
,,,741.05109, -40.96910,
,,,742.28412, -40.96910,
,,,743.51715, -40.96910,
,,,744.75018, -40.96910,
,,,745.98321, -40.96910,
,,,747.21624, -40.96910,
,,,748.44927, -39.76910,
,,,749.68230, -40.96910,
,,,750.91533, -39.76910,
,,,752.14836, -39.76910,
,,,753.38139, -39.76910,
,,,754.61442, -40.96910,
,,,755.84745, -40.96910,
,,,757.08048, -40.96910,
,,,758.31351, -40.96910,
,,,759.54654, -40.96910,
,,,760.77957, -40.96910,
,,,762.01260, -40.96910,
,,,763.24563, -40.96910,
,,,764.47866, -40.96910,
,,,765.71169, -40.96910,
,,,766.94472, -40.96910,
,,,768.17775, -39.76910,
,,,769.41078, -39.76910,
,,,770.64381, -40.96910,
,,,771.87684, -40.96910,
,,,773.10987, -40.96910,
,,,774.34290, -40.96910,
,,,775.57593, -40.96910,
,,,776.80896, -40.96910,
,,,778.04199, -40.96910,
,,,779.27502, -39.76910,
,,,780.50805, -40.96910,
,,,781.74108, -40.96910,
,,,782.97411, -40.96910,
,,,784.20714, -40.96910,
,,,785.44017, -40.96910,
,,,786.67320, -40.96910,
,,,787.90623, -40.96910,
,,,789.13926, -40.96910,
,,,790.37229, -40.96910,
,,,791.60532, -40.96910,
,,,792.83835, -40.96910,
,,,794.07138, -40.96910,
,,,795.30441, -40.96910,
,,,796.53744, -40.96910,
,,,797.77047, -40.96910,
,,,799.00350, -40.96910,
,,,800.23653, -40.96910,
,,,801.46956, -40.96910,
,,,802.70259, -40.96910,
,,,803.93562, -40.96910,
,,,805.16865, -40.96910,
,,,806.40168, -40.96910,
,,,807.63471, -40.96910,
,,,808.86774, -40.96910,
,,,810.10077, -40.96910,
,,,811.33380, -40.96910,
,,,812.56683, -40.96910,
,,,813.79986, -40.96910,
,,,815.03289, -40.96910,
,,,816.26592, -40.96910,
,,,817.49895, -40.96910,
,,,818.73198, -40.96910,
,,,819.96501, -40.96910,
,,,821.19804, -40.96910,
,,,822.43107, -39.76910,
,,,823.66410, -40.96910,
,,,824.89713, -40.96910,
,,,826.13016, -40.96910,
,,,827.36319, -39.76910,
,,,828.59622, -40.96910,
,,,829.82925, -40.96910,
,,,831.06228, -39.76910,
,,,832.29531, -40.96910,
,,,833.52834, -40.96910,
,,,834.76137, -40.96910,
,,,835.99440, -40.96910,
,,,837.22743, -40.96910,
,,,838.46046, -39.76910,
,,,839.69349, -40.96910,
,,,840.92652, -40.96910,
,,,842.15955, -40.96910,
,,,843.39258, -40.96910,
,,,844.62561, -40.96910,
,,,845.85864, -40.96910,
,,,847.09167, -40.96910,
,,,848.32470, -40.96910,
,,,849.55773, -40.96910,
,,,850.79076, -40.96910,
,,,852.02379, -40.96910,
,,,853.25682, -40.96910,
,,,854.48985, -40.96910,
,,,855.72288, -37.76910,
,,,856.95591, -40.96910,
,,,858.18894, -40.96910,
,,,859.42197, -40.96910,
,,,860.65500, -40.96910,
,,,861.88803, -40.96910,
,,,863.12106, -40.96910,
,,,864.35409, -40.96910,
,,,865.58712, -40.96910,
,,,866.82015, -40.96910,
,,,868.05318, -40.96910,
,,,869.28621, -39.76910,
,,,870.51924, -39.76910,
,,,871.75227, -40.96910,
,,,872.98530, -40.96910,
,,,874.21833, -40.96910,
,,,875.45136, -40.96910,
,,,876.68439, -39.76910,
,,,877.91742, -40.96910,
,,,879.15045, -40.96910,
,,,880.38348, -40.96910,
,,,881.61651, -40.96910,
,,,882.84954, -39.76910,
,,,884.08257, -40.96910,
,,,885.31560, -40.96910,
,,,886.54863, -40.96910,
,,,887.78166, -40.96910,
,,,889.01469, -40.96910,
,,,890.24772, -40.96910,
,,,891.48075, -40.96910,
,,,892.71378, -40.96910,
,,,893.94681, -40.96910,
,,,895.17984, -39.76910,
,,,896.41287, -40.96910,
,,,897.64590, -40.96910,
,,,898.87893, -40.96910,
,,,900.11196, -40.96910,
,,,901.34499, -40.96910,
,,,902.57802, -40.96910,
,,,903.81105, -40.96910,
,,,905.04408, -40.96910,
,,,906.27711, -40.96910,
,,,907.51014, -40.96910,
,,,908.74317, -40.96910,
,,,909.97620, -40.96910,
,,,911.20923, -40.96910,
,,,912.44226, -40.96910,
,,,913.67529, -40.96910,
,,,914.90832, -40.96910,
,,,916.14135, -40.96910,
,,,917.37438, -40.96910,
,,,918.60741, -40.96910,
,,,919.84044, -40.96910,
,,,921.07347, -40.96910,
,,,922.30650, -40.96910,
,,,923.53953, -37.36910,
,,,924.77256, -39.76910,
,,,926.00559, -40.96910,
,,,927.23862, -40.96910,
,,,928.47165, -40.96910,
,,,929.70468, -40.96910,
,,,930.93771, -40.96910,
,,,932.17074, -40.96910,
,,,933.40377, -40.96910,
,,,934.63680, -40.96910,
,,,935.86983, -40.96910,
,,,937.10286, -40.96910,
,,,938.33589, -40.96910,
,,,939.56892, -39.76910,
,,,940.80195, -40.96910,
,,,942.03498, -40.96910,
,,,943.26801, -39.76910,
,,,944.50104, -40.96910,
,,,945.73407, -40.96910,
,,,946.96710, -40.96910,
,,,948.20013, -40.96910,
,,,949.43316, -40.96910,
,,,950.66619, -40.96910,
,,,951.89922, -40.96910,
,,,953.13225, -40.96910,
,,,954.36528, -40.96910,
,,,955.59831, -40.96910,
,,,956.83134, -40.96910,
,,,958.06437, -39.76910,
,,,959.29740, -40.96910,
,,,960.53043, -40.96910,
,,,961.76346, -40.96910,
,,,962.99649, -40.96910,
,,,964.22952, -40.96910,
