Lab 2/ALL0007/F0007FFT.CSV

Record Length,1.024000e+03,,          0.00000, -36.18970,
Sample Interval,1.233033e+00,,          1.23303, -34.58970,
Trigger Point,-0.000000000000e+00,,          2.46607, -36.98970,
,,,          3.69910,  -8.98970,
,,,          4.93213,  -1.38970,
,,,          6.16517,  -0.58970,
Source,FFT,,          7.39820,  -0.98970,
Vertical Units,dB,,          8.63123,  -6.58970,
Vertical Scale,1.000000e+01,,          9.86427, -36.18970,
Vertical Offset,0.000000e+00,,         11.09730, -49.38970,
Horizontal Units,Hz,,         12.33033, -58.58970,
Horizontal Scale,1.262626e+02,,         13.56337, -52.98970,
Pt Fmt,Y,,         14.79640, -43.38970,
Yzero,-2.698970e+01,,         16.02943, -21.78970,
Probe Atten,1.000000e+00,,         17.26247, -11.78970,
Model Number,TBS1072B-EDU,,         18.49550, -10.18970,
Serial Number,C012918,,         19.72854, -10.58970,
Firmware Version,FV:v4.06,,         20.96157, -14.58970,
,,,22.19460, -33.78970,
,,,23.42763, -48.18970,
,,,24.66066, -61.38970,
,,,25.89369, -64.58970,
,,,27.12672, -47.38970,
,,,28.35975, -30.18970,
,,,29.59278, -16.98970,
,,,30.82581, -14.58970,
,,,32.05884, -14.58970,
,,,33.29187, -17.38970,
,,,34.52490, -31.78970,
,,,35.75793, -48.18970,
,,,36.99096, -57.38970,
,,,38.22399, -66.98970,
,,,39.45702, -57.78970,
,,,40.69005, -38.58970,
,,,41.92308, -21.38970,
,,,43.15611, -17.78970,
,,,44.38914, -17.78970,
,,,45.62217, -19.38970,
,,,46.85520, -30.18970,
,,,48.08823, -49.38970,
,,,49.32126, -60.58970,
,,,50.55429, -61.38970,
,,,51.78732, -61.38970,
,,,53.02035, -49.38970,
,,,54.25338, -24.98970,
,,,55.48641, -20.18970,
,,,56.71944, -19.78970,
,,,57.95247, -20.58970,
,,,59.18550, -28.98970,
,,,60.41853, -57.38970,
,,,61.65156, -60.58970,
,,,62.88459, -66.98970,
,,,64.11762, -66.98970,
,,,65.35065, -61.38970,
,,,66.58368, -29.38970,
,,,67.81671, -22.18970,
,,,69.04974, -21.38970,
,,,70.28277, -22.18970,
,,,71.51580, -28.18970,
,,,72.74883, -60.58970,
,,,73.98186, -66.98970,
,,,75.21489, -66.98970,
,,,76.44792, -61.38970,
,,,77.68095, -60.58970,
,,,78.91398, -33.38970,
,,,80.14701, -24.18970,
,,,81.38004, -22.98970,
,,,82.61307, -22.98970,
,,,83.84610, -27.38970,
,,,85.07913, -48.98970,
,,,86.31216, -60.58970,
,,,87.54519, -66.98970,
,,,88.77822, -66.98970,
,,,90.01125, -55.38970,
,,,91.24428, -38.58970,
,,,92.47731, -26.18970,
,,,93.71034, -24.18970,
,,,94.94337, -24.18970,
,,,96.17640, -27.38970,
,,,97.40943, -43.38970,
,,,98.64246, -55.38970,
,,,99.87549, -66.98970,
,,,101.10852, -61.38970,
,,,102.34155, -61.38970,
,,,103.57458, -44.58970,
,,,104.80761, -28.58970,
,,,106.04064, -25.38970,
,,,107.27367, -25.38970,
,,,108.50670, -27.38970,
,,,109.73973, -38.98970,
,,,110.97276, -53.38970,
,,,112.20579, -66.98970,
,,,113.43882, -61.38970,
,,,114.67185, -60.58970,
,,,115.90488, -55.38970,
,,,117.13791, -30.98970,
,,,118.37094, -26.58970,
,,,119.60397, -26.18970,
,,,120.83700, -27.38970,
,,,122.07003, -36.18970,
,,,123.30306, -64.58970,
,,,124.53609, -58.58970,
,,,125.76912, -60.58970,
,,,127.00215, -66.98970,
,,,128.23518, -66.98970,
,,,129.46821, -33.78970,
,,,130.70124, -27.38970,
,,,131.93427, -26.98970,
,,,133.16730, -27.78970,
,,,134.40033, -34.18970,
,,,135.63336, -66.98970,
,,,136.86639, -66.98970,
,,,138.09942, -66.98970,
,,,139.33245, -61.38970,
,,,140.56548, -66.98970,
,,,141.79851, -37.38970,
,,,143.03154, -28.98970,
,,,144.26457, -27.78970,
,,,145.49760, -28.18970,
,,,146.73063, -32.98970,
,,,147.96366, -55.38970,
,,,149.19669, -66.98970,
,,,150.42972, -64.58970,
,,,151.66275, -66.98970,
,,,152.89578, -61.38970,
,,,154.12881, -41.78970,
,,,155.36184, -30.18970,
,,,156.59487, -28.58970,
,,,157.82790, -28.58970,
,,,159.06093, -31.78970,
,,,160.29396, -48.18970,
,,,161.52699, -60.58970,
,,,162.76002, -66.98970,
,,,163.99305, -66.98970,
,,,165.22608, -61.38970,
,,,166.45911, -46.58970,
,,,167.69214, -32.18970,
,,,168.92517, -29.38970,
,,,170.15820, -28.98970,
,,,171.39123, -31.38970,
,,,172.62426, -43.78970,
,,,173.85729, -60.58970,
,,,175.09032, -66.98970,
,,,176.32335, -66.98970,
,,,177.55638, -61.38970,
,,,178.78941, -57.38970,
,,,180.02244, -34.18970,
,,,181.25547, -30.18970,
,,,182.48850, -29.78970,
,,,183.72153, -31.38970,
,,,184.95456, -41.38970,
,,,186.18759, -57.78970,
,,,187.42062, -64.58970,
,,,188.65365, -61.38970,
,,,189.88668, -64.58970,
,,,191.11971, -66.98970,
,,,192.35274, -36.98970,
,,,193.58577, -30.98970,
,,,194.81880, -30.18970,
,,,196.05183, -30.98970,
,,,197.28486, -38.18970,
,,,198.51789, -66.98970,
,,,199.75092, -66.98970,
,,,200.98395, -64.58970,
,,,202.21698, -66.98970,
,,,203.45001, -66.98970,
,,,204.68304, -39.78970,
,,,205.91607, -31.78970,
,,,207.14910, -30.98970,
,,,208.38213, -31.38970,
,,,209.61516, -36.58970,
,,,210.84819, -66.98970,
,,,212.08122, -64.58970,
,,,213.31425, -66.98970,
,,,214.54728, -66.98970,
,,,215.78031, -58.58970,
,,,217.01334, -43.78970,
,,,218.24637, -33.38970,
,,,219.47940, -31.78970,
,,,220.71243, -31.78970,
,,,221.94546, -35.38970,
,,,223.17849, -56.18970,
,,,224.41152, -57.38970,
,,,225.64455, -60.58970,
,,,226.87758, -61.38970,
,,,228.11061, -60.58970,
,,,229.34364, -48.98970,
,,,230.57667, -34.58970,
,,,231.80970, -32.18970,
,,,233.04273, -32.18970,
,,,234.27576, -34.58970,
,,,235.50879, -48.18970,
,,,236.74182, -61.38970,
,,,237.97485, -60.58970,
,,,239.20788, -66.98970,
,,,240.44091, -64.58970,
,,,241.67394, -57.38970,
,,,242.90697, -36.58970,
,,,244.14000, -32.58970,
,,,245.37303, -32.58970,
,,,246.60606, -34.18970,
,,,247.83909, -44.18970,
,,,249.07212, -66.98970,
,,,250.30515, -64.58970,
,,,251.53818, -66.98970,
,,,252.77121, -64.58970,
,,,254.00424, -66.98970,
,,,255.23727, -38.58970,
,,,256.47030, -33.38970,
,,,257.70333, -32.58970,
,,,258.93636, -33.78970,
,,,260.16939, -41.38970,
,,,261.40242, -66.98970,
,,,262.63545, -66.98970,
,,,263.86848, -64.58970,
,,,265.10151, -64.58970,
,,,266.33454, -64.58970,
,,,267.56757, -40.98970,
,,,268.80060, -33.78970,
,,,270.03363, -32.98970,
,,,271.26666, -33.38970,
,,,272.49969, -39.38970,
,,,273.73272, -66.98970,
,,,274.96575, -66.98970,
,,,276.19878, -66.98970,
,,,277.43181, -60.58970,
,,,278.66484, -66.98970,
,,,279.89787, -44.18970,
,,,281.13090, -34.98970,
,,,282.36393, -33.38970,
,,,283.59696, -33.78970,
,,,284.82999, -38.18970,
,,,286.06302, -57.78970,
,,,287.29605, -66.98970,
,,,288.52908, -64.58970,
,,,289.76211, -64.58970,
,,,290.99514, -66.98970,
,,,292.22817, -48.58970,
,,,293.46120, -36.18970,
,,,294.69423, -33.78970,
,,,295.92726, -33.78970,
,,,297.16029, -36.98970,
,,,298.39332, -51.38970,
,,,299.62635, -64.58970,
,,,300.85938, -66.98970,
,,,302.09241, -66.98970,
,,,303.32544, -60.58970,
,,,304.55847, -60.58970,
,,,305.79150, -38.18970,
,,,307.02453, -34.58970,
,,,308.25756, -34.58970,
,,,309.49059, -35.78970,
,,,310.72362, -46.98970,
,,,311.95665, -64.58970,
,,,313.18968, -61.38970,
,,,314.42271, -60.58970,
,,,315.65574, -58.58970,
,,,316.88877, -57.38970,
,,,318.12180, -39.78970,
,,,319.35483, -34.98970,
,,,320.58786, -34.58970,
,,,321.82089, -35.78970,
,,,323.05392, -44.98970,
,,,324.28695, -60.58970,
,,,325.51998, -66.98970,
,,,326.75301, -60.58970,
,,,327.98604, -60.58970,
,,,329.21907, -66.98970,
,,,330.45210, -42.58970,
,,,331.68513, -35.78970,
,,,332.91816, -34.98970,
,,,334.15119, -35.38970,
,,,335.38422, -41.78970,
,,,336.61725, -66.98970,
,,,337.85028, -64.58970,
,,,339.08331, -66.98970,
,,,340.31634, -66.98970,
,,,341.54937, -60.58970,
,,,342.78240, -45.38970,
,,,344.01543, -36.58970,
,,,345.24846, -35.38970,
,,,346.48149, -35.38970,
,,,347.71452, -39.78970,
,,,348.94755, -56.18970,
,,,350.18058, -60.58970,
,,,351.41361, -66.98970,
,,,352.64664, -64.58970,
,,,353.87967, -64.58970,
,,,355.11270, -49.78970,
,,,356.34573, -37.78970,
,,,357.57876, -35.78970,
,,,358.81179, -35.78970,
,,,360.04482, -38.98970,
,,,361.27785, -56.18970,
,,,362.51088, -66.98970,
,,,363.74391, -64.58970,
,,,364.97694, -64.58970,
,,,366.20997, -66.98970,
,,,367.44300, -53.38970,
,,,368.67603, -38.58970,
,,,369.90906, -35.78970,
,,,371.14209, -35.78970,
,,,372.37512, -37.78970,
,,,373.60815, -50.18970,
,,,374.84118, -60.58970,
,,,376.07421, -66.98970,
,,,377.30724, -66.98970,
,,,378.54027, -66.98970,
,,,379.77330, -60.58970,
,,,381.00633, -40.98970,
,,,382.23936, -36.18970,
,,,383.47239, -35.78970,
,,,384.70542, -36.98970,
,,,385.93845, -45.78970,
,,,387.17148, -60.58970,
,,,388.40451, -58.58970,
,,,389.63754, -60.58970,
,,,390.87057, -64.58970,
,,,392.10360, -61.38970,
,,,393.33663, -42.18970,
,,,394.56966, -36.58970,
,,,395.80269, -36.18970,
,,,397.03572, -36.98970,
,,,398.26875, -42.98970,
,,,399.50178, -66.98970,
,,,400.73481, -64.58970,
,,,401.96784, -64.58970,
,,,403.20087, -66.98970,
,,,404.43390, -66.98970,
,,,405.66693, -44.98970,
,,,406.89996, -37.38970,
,,,408.13299, -36.58970,
,,,409.36602, -36.58970,
,,,410.59905, -41.78970,
,,,411.83208, -60.58970,
,,,413.06511, -64.58970,
,,,414.29814, -60.58970,
,,,415.53117, -61.38970,
,,,416.76420, -66.98970,
,,,417.99723, -50.18970,
,,,419.23026, -38.58970,
,,,420.46329, -36.98970,
,,,421.69632, -36.98970,
,,,422.92935, -40.58970,
,,,424.16238, -58.58970,
,,,425.39541, -66.98970,
,,,426.62844, -64.58970,
,,,427.86147, -66.98970,
,,,429.09450, -66.98970,
,,,430.32753, -53.38970,
,,,431.56056, -39.78970,
,,,432.79359, -36.98970,
,,,434.02662, -36.98970,
,,,435.25965, -39.38970,
,,,436.49268, -52.98970,
,,,437.72571, -66.98970,
,,,438.95874, -66.98970,
,,,440.19177, -61.38970,
,,,441.42480, -66.98970,
,,,442.65783, -56.18970,
,,,443.89086, -40.98970,
,,,445.12389, -37.38970,
,,,446.35692, -36.98970,
,,,447.58995, -38.58970,
,,,448.82298, -48.58970,
,,,450.05601, -66.98970,
,,,451.28904, -66.98970,
,,,452.52207, -66.98970,
,,,453.75510, -66.98970,
,,,454.98813, -61.38970,
,,,456.22116, -42.98970,
,,,457.45419, -37.38970,
,,,458.68722, -37.38970,
,,,459.92025, -38.18970,
,,,461.15328, -45.78970,
,,,462.38631, -66.98970,
,,,463.61934, -64.58970,
,,,464.85237, -64.58970,
,,,466.08540, -66.98970,
,,,467.31843, -66.98970,
,,,468.55146, -46.18970,
,,,469.78449, -38.58970,
,,,471.01752, -37.78970,
,,,472.25055, -38.18970,
,,,473.48358, -43.78970,
,,,474.71661, -60.58970,
,,,475.94964, -60.58970,
,,,477.18267, -64.58970,
,,,478.41570, -66.98970,
,,,479.64873, -66.98970,
,,,480.88176, -47.38970,
,,,482.11479, -38.58970,
,,,483.34782, -37.38970,
,,,484.58085, -37.78970,
,,,485.81388, -42.18970,
,,,487.04691, -64.58970,
,,,488.27994, -60.58970,
,,,489.51297, -64.58970,
,,,490.74600, -66.98970,
,,,491.97903, -60.58970,
,,,493.21206, -53.38970,
,,,494.44509, -40.58970,
,,,495.67812, -37.78970,
,,,496.91115, -37.78970,
,,,498.14418, -40.18970,
,,,499.37721, -52.98970,
,,,500.61024, -66.98970,
,,,501.84327, -64.58970,
,,,503.07630, -66.98970,
,,,504.30933, -66.98970,
,,,505.54236, -60.58970,
,,,506.77539, -42.58970,
,,,508.00842, -38.98970,
,,,509.24145, -38.58970,
,,,510.47448, -40.18970,
,,,511.70751, -49.78970,
,,,512.94054, -66.98970,
,,,514.17357, -61.38970,
,,,515.40660, -64.58970,
,,,516.63963, -61.38970,
,,,517.87266, -64.58970,
,,,519.10569, -44.58970,
,,,520.33872, -38.58970,
,,,521.57175, -38.18970,
,,,522.80478, -38.98970,
,,,524.03781, -48.18970,
,,,525.27084, -58.58970,
,,,526.50387, -64.58970,
,,,527.73690, -66.98970,
,,,528.96993, -66.98970,
,,,530.20296, -66.98970,
,,,531.43599, -45.78970,
,,,532.66902, -38.98970,
,,,533.90205, -38.18970,
,,,535.13508, -39.38970,
,,,536.36811, -45.78970,
,,,537.60114, -66.98970,
,,,538.83417, -66.98970,
,,,540.06720, -64.58970,
,,,541.30023, -60.58970,
,,,542.53326, -61.38970,
,,,543.76629, -50.18970,
,,,544.99932, -40.18970,
,,,546.23235, -38.98970,
,,,547.46538, -38.98970,
,,,548.69841, -43.78970,
,,,549.93144, -66.98970,
,,,551.16447, -66.98970,
,,,552.39750, -66.98970,
,,,553.63053, -66.98970,
,,,554.86356, -61.38970,
,,,556.09659, -53.38970,
,,,557.32962, -40.98970,
,,,558.56265, -38.98970,
,,,559.79568, -39.38970,
,,,561.02871, -42.18970,
,,,562.26174, -57.38970,
,,,563.49477, -61.38970,
,,,564.72780, -64.58970,
,,,565.96083, -66.98970,
,,,567.19386, -66.98970,
,,,568.42689, -57.38970,
,,,569.65992, -42.18970,
,,,570.89295, -39.38970,
,,,572.12598, -39.38970,
,,,573.35901, -40.98970,
,,,574.59204, -52.58970,
,,,575.82507, -66.98970,
,,,577.05810, -60.58970,
,,,578.29113, -60.58970,
,,,579.52416, -60.58970,
,,,580.75719, -60.58970,
,,,581.99022, -44.18970,
,,,583.22325, -39.38970,
,,,584.45628, -39.38970,
,,,585.68931, -40.58970,
,,,586.92234, -48.98970,
,,,588.15537, -64.58970,
,,,589.38840, -61.38970,
,,,590.62143, -66.98970,
,,,591.85446, -64.58970,
,,,593.08749, -64.58970,
,,,594.32052, -45.38970,
,,,595.55355, -39.38970,
,,,596.78658, -38.98970,
,,,598.01961, -39.38970,
,,,599.25264, -45.78970,
,,,600.48567, -66.98970,
,,,601.71870, -66.98970,
,,,602.95173, -66.98970,
,,,604.18476, -66.98970,
,,,605.41779, -66.98970,
,,,606.65082, -49.78970,
,,,607.88385, -40.18970,
,,,609.11688, -39.38970,
,,,610.34991, -39.78970,
,,,611.58294, -44.58970,
,,,612.81597, -64.58970,
,,,614.04900, -61.38970,
,,,615.28203, -66.98970,
,,,616.51506, -66.98970,
,,,617.74809, -66.98970,
,,,618.98112, -50.98970,
,,,620.21415, -40.98970,
,,,621.44718, -38.98970,
,,,622.68021, -39.38970,
,,,623.91324, -42.18970,
,,,625.14627, -54.98970,
,,,626.37930, -61.38970,
,,,627.61233, -61.38970,
,,,628.84536, -64.58970,
,,,630.07839, -61.38970,
,,,631.31142, -52.58970,
,,,632.54445, -42.18970,
,,,633.77748, -39.78970,
,,,635.01051, -40.18970,
,,,636.24354, -42.18970,
,,,637.47657, -58.58970,
,,,638.70960, -66.98970,
,,,639.94263, -66.98970,
,,,641.17566, -66.98970,
,,,642.40869, -66.98970,
,,,643.64172, -64.58970,
,,,644.87475, -44.58970,
,,,646.10778, -40.58970,
,,,647.34081, -40.18970,
,,,648.57384, -41.78970,
,,,649.80687, -52.58970,
,,,651.03990, -66.98970,
,,,652.27293, -66.98970,
,,,653.50596, -60.58970,
,,,654.73899, -66.98970,
,,,655.97202, -64.58970,
,,,657.20505, -46.18970,
,,,658.43808, -40.18970,
,,,659.67111, -40.18970,
,,,660.90414, -41.38970,
,,,662.13717, -48.98970,
,,,663.37020, -66.98970,
,,,664.60323, -66.98970,
,,,665.83626, -64.58970,
,,,667.06929, -64.58970,
,,,668.30232, -64.58970,
,,,669.53535, -49.78970,
,,,670.76838, -41.38970,
,,,672.00141, -40.98970,
,,,673.23444, -41.38970,
,,,674.46747, -46.98970,
,,,675.70050, -66.98970,
,,,676.93353, -66.98970,
,,,678.16656, -64.58970,
,,,679.39959, -60.58970,
,,,680.63262, -60.58970,
,,,681.86565, -52.18970,
,,,683.09868, -42.18970,
,,,684.33171, -40.18970,
,,,685.56474, -40.58970,
,,,686.79777, -44.18970,
,,,688.03080, -57.78970,
,,,689.26383, -64.58970,
,,,690.49686, -66.98970,
,,,691.72989, -66.98970,
,,,692.96292, -64.58970,
,,,694.19595, -54.98970,
,,,695.42898, -42.98970,
,,,696.66201, -40.58970,
,,,697.89504, -40.58970,
,,,699.12807, -42.98970,
,,,700.36110, -56.18970,
,,,701.59413, -66.98970,
,,,702.82716, -66.98970,
,,,704.06019, -61.38970,
,,,705.29322, -66.98970,
,,,706.52625, -60.58970,
,,,707.75928, -44.58970,
,,,708.99231, -40.58970,
,,,710.22534, -40.18970,
,,,711.45837, -42.18970,
,,,712.69140, -52.58970,
,,,713.92443, -66.98970,
,,,715.15746, -64.58970,
,,,716.39049, -66.98970,
,,,717.62352, -66.98970,
,,,718.85655, -61.38970,
,,,720.08958, -46.18970,
,,,721.32261, -40.98970,
,,,722.55564, -40.18970,
,,,723.78867, -41.38970,
,,,725.02170, -48.58970,
,,,726.25473, -66.98970,
,,,727.48776, -64.58970,
,,,728.72079, -66.98970,
,,,729.95382, -66.98970,
,,,731.18685, -66.98970,
,,,732.41988, -48.58970,
,,,733.65291, -41.38970,
,,,734.88594, -40.58970,
,,,736.11897, -40.98970,
,,,737.35200, -46.98970,
,,,738.58503, -64.58970,
,,,739.81806, -66.98970,
,,,741.05109, -66.98970,
,,,742.28412, -66.98970,
,,,743.51715, -64.58970,
,,,744.75018, -52.58970,
,,,745.98321, -42.58970,
,,,747.21624, -40.98970,
,,,748.44927, -40.98970,
,,,749.68230, -45.38970,
,,,750.91533, -60.58970,
,,,752.14836, -66.98970,
,,,753.38139, -64.58970,
,,,754.61442, -66.98970,
,,,755.84745, -64.58970,
,,,757.08048, -56.18970,
,,,758.31351, -43.38970,
,,,759.54654, -40.98970,
,,,760.77957, -40.98970,
,,,762.01260, -44.18970,
,,,763.24563, -64.58970,
,,,764.47866, -58.58970,
,,,765.71169, -60.58970,
,,,766.94472, -61.38970,
,,,768.17775, -60.58970,
,,,769.41078, -66.98970,
,,,770.64381, -44.58970,
,,,771.87684, -41.38970,
,,,773.10987, -41.38970,
,,,774.34290, -43.38970,
,,,775.57593, -56.18970,
,,,776.80896, -66.98970,
,,,778.04199, -64.58970,
,,,779.27502, -66.98970,
,,,780.50805, -66.98970,
,,,781.74108, -66.98970,
,,,782.97411, -47.38970,
,,,784.20714, -41.78970,
,,,785.44017, -41.78970,
,,,786.67320, -42.58970,
,,,787.90623, -51.38970,
,,,789.13926, -66.98970,
,,,790.37229, -60.58970,
,,,791.60532, -66.98970,
,,,792.83835, -61.38970,
,,,794.07138, -61.38970,
,,,795.30441, -48.18970,
,,,796.53744, -41.38970,
,,,797.77047, -40.98970,
,,,799.00350, -41.78970,
,,,800.23653, -47.78970,
,,,801.46956, -66.98970,
,,,802.70259, -64.58970,
,,,803.93562, -66.98970,
,,,805.16865, -64.58970,
,,,806.40168, -66.98970,
,,,807.63471, -50.58970,
,,,808.86774, -42.18970,
,,,810.10077, -40.98970,
,,,811.33380, -41.38970,
,,,812.56683, -46.18970,
,,,813.79986, -66.98970,
,,,815.03289, -64.58970,
,,,816.26592, -64.58970,
,,,817.49895, -66.98970,
,,,818.73198, -64.58970,
,,,819.96501, -53.38970,
,,,821.19804, -43.38970,
,,,822.43107, -40.98970,
,,,823.66410, -41.38970,
,,,824.89713, -44.58970,
,,,826.13016, -61.38970,
,,,827.36319, -60.58970,
,,,828.59622, -60.58970,
,,,829.82925, -58.58970,
,,,831.06228, -64.58970,
,,,832.29531, -56.18970,
,,,833.52834, -43.78970,
,,,834.76137, -40.98970,
,,,835.99440, -41.38970,
,,,837.22743, -42.98970,
,,,838.46046, -53.38970,
,,,839.69349, -64.58970,
,,,840.92652, -60.58970,
,,,842.15955, -64.58970,
,,,843.39258, -64.58970,
,,,844.62561, -61.38970,
,,,845.85864, -45.78970,
,,,847.09167, -41.78970,
,,,848.32470, -41.78970,
,,,849.55773, -43.38970,
,,,850.79076, -53.38970,
,,,852.02379, -66.98970,
,,,853.25682, -66.98970,
,,,854.48985, -60.58970,
,,,855.72288, -64.58970,
,,,856.95591, -64.58970,
,,,858.18894, -48.58970,
,,,859.42197, -42.58970,
,,,860.65500, -41.38970,
,,,861.88803, -41.78970,
,,,863.12106, -49.38970,
,,,864.35409, -66.98970,
,,,865.58712, -66.98970,
,,,866.82015, -60.58970,
,,,868.05318, -66.98970,
,,,869.28621, -64.58970,
,,,870.51924, -50.18970,
,,,871.75227, -42.98970,
,,,872.98530, -41.38970,
,,,874.21833, -42.18970,
,,,875.45136, -46.58970,
,,,876.68439, -60.58970,
,,,877.91742, -64.58970,
,,,879.15045, -66.98970,
,,,880.38348, -66.98970,
,,,881.61651, -66.98970,
,,,882.84954, -54.98970,
,,,884.08257, -43.38970,
,,,885.31560, -41.38970,
,,,886.54863, -41.38970,
,,,887.78166, -45.38970,
,,,889.01469, -66.98970,
,,,890.24772, -64.58970,
,,,891.48075, -66.98970,
,,,892.71378, -66.98970,
,,,893.94681, -66.98970,
,,,895.17984, -61.38970,
,,,896.41287, -44.98970,
,,,897.64590, -42.58970,
,,,898.87893, -41.78970,
,,,900.11196, -44.18970,
,,,901.34499, -56.18970,
,,,902.57802, -66.98970,
,,,903.81105, -66.98970,
,,,905.04408, -66.98970,
,,,906.27711, -64.58970,
,,,907.51014, -66.98970,
,,,908.74317, -46.58970,
,,,909.97620, -42.18970,
,,,911.20923, -41.38970,
,,,912.44226, -42.98970,
,,,913.67529, -51.38970,
,,,914.90832, -64.58970,
,,,916.14135, -64.58970,
,,,917.37438, -66.98970,
,,,918.60741, -66.98970,
,,,919.84044, -64.58970,
,,,921.07347, -46.58970,
,,,922.30650, -41.78970,
,,,923.53953, -41.78970,
,,,924.77256, -43.38970,
,,,926.00559, -52.18970,
,,,927.23862, -66.98970,
,,,928.47165, -66.98970,
,,,929.70468, -66.98970,
,,,930.93771, -66.98970,
,,,932.17074, -66.98970,
,,,933.40377, -49.78970,
,,,934.63680, -42.98970,
,,,935.86983, -42.18970,
,,,937.10286, -42.18970,
,,,938.33589, -48.58970,
,,,939.56892, -64.58970,
,,,940.80195, -66.98970,
,,,942.03498, -66.98970,
,,,943.26801, -66.98970,
,,,944.50104, -64.58970,
,,,945.73407, -56.18970,
,,,946.96710, -44.18970,
,,,948.20013, -41.78970,
,,,949.43316, -41.78970,
,,,950.66619, -45.38970,
,,,951.89922, -61.38970,
,,,953.13225, -66.98970,
,,,954.36528, -66.98970,
,,,955.59831, -66.98970,
,,,956.83134, -66.98970,
,,,958.06437, -64.58970,
,,,959.29740, -45.38970,
,,,960.53043, -42.98970,
,,,961.76346, -42.98970,
,,,962.99649, -44.98970,
,,,964.22952, -57.38970,
